0	>NC_006577
1	>AY597011
2	>DQ339101
3	>DQ415896
4	>DQ415897
5	>DQ415901
6	>DQ415899
7	>DQ415900
8	>DQ415898
9	>DQ415903
10	>DQ415912
11	>DQ415910
12	>DQ415911
13	>DQ415907
14	>DQ415913
15	>DQ415909
16	>DQ415906
17	>DQ415908
18	>DQ415905
19	>DQ415914
20	>DQ415904
21	>HM034837
22	>KF430201
23	>KF686343
24	>KF686342
25	>KF686341
26	>KF686340
27	>KF686344
28	>KT779556
29	>KT779555
30	>KY983584
31	>LC315650
32	>LC687393
33	>MK167038
34	>ON128609
35	>ON128610
36	>ON128615
37	>ON128612
38	>ON128616
39	>ON128611
40	>LC315651
41	>MH940245
42	>ON128613
43	>ON128614
44	>OK073086
45	>OK073085
46	>ON553962
47	>ON553963
48	>ON553964
