0	>AF327920
1	>EU854568
2	>AF538689
3	>AX937986
4	>ON497123
5	>ON497125
6	>ON497124
7	>ON497126
8	>ON497127
9	>ON497128
10	>ON497130
11	>ON497132
12	>ON497133
13	>ON497134
14	>ON497135
15	>ON497136
16	>ON497137
17	>ON497138
18	>ON497139
19	>ON497140
20	>ON497142
21	>ON497143
22	>ON497144
23	>ON155821
24	>OQ689803
25	>OQ689802
26	>KT726985
27	>EF051629
28	>KT879917
29	>KT879923
30	>KT879925
31	>KT879926
32	>KT879927
33	>KT879928
34	>KT879930
35	>MK652142
36	>KJ659491
37	>FJ840477
38	>FM178558
39	>GQ183018
40	>GQ183019
41	>GQ183020
42	>GQ183021
43	>GQ183022
44	>GQ183023
45	>GQ183024
46	>GQ183025
47	>GQ183034
48	>GQ183035
49	>KY460516
50	>KY645963
51	>KY645965
52	>JX441355
53	>JX575746
54	>MH781721
55	>HF677705
56	>KR045607
57	>KR045608
58	>EF202833
59	>NC_003976
60	>AX786666
61	>HD070562
62	>LC133331
63	>AX786664
64	>AF327921
65	>FJ384560
66	>AF327922
67	>AX786665
68	>MK904585
69	>MK904586
70	>MK904587
71	>MK904588
72	>MK904589
73	>MK904590
74	>MK904591
75	>MK904592
76	>MK904593
77	>MK904594
78	>MK904595
79	>MK904596
80	>MK904597
81	>MK904598
82	>MK904599
83	>MK904600
84	>MK904601
85	>MK904602
86	>MK904603
87	>MK904604
88	>MK904605
89	>MK904606
90	>MK904607
91	>MK904608
92	>MN265386
93	>MG873157
94	>MG873158
95	>MG873159
96	>KY271948
97	>MW476137
98	>MW476136
99	>MW476135
100	>MW476134
101	>MW476133
102	>MW476132
103	>MW476131
104	>MW476130
105	>MW476129
106	>MW476128
107	>MW476127
108	>MW476126
109	>MW476125
110	>MW476124
111	>MW476123
112	>MW476122
113	>MW476121
114	>MW476119
115	>MW476118
116	>MW476120
117	>MW476117
118	>MW476116
119	>MW476115
120	>MW476114
121	>MW476113
122	>MW476112
123	>MW476111
124	>MW476110
125	>MW476109
126	>MW476108
127	>MW476107
128	>MW476106
129	>MW476105
130	>MW476104
131	>MW476103
132	>MW476102
133	>MW476101
134	>MW476100
135	>MW476098
136	>MW476099
137	>MW476097
138	>MW476096
139	>MW476095
140	>MW476094
141	>MW476093
142	>MW476092
143	>MW476091
144	>MW476090
145	>MW476089
146	>MW476087
147	>MW476088
148	>MW476086
149	>MW476085
150	>MW476084
151	>MW476083
152	>MW476082
153	>MW476081
154	>MW476080
155	>MT157225
156	>MW488018
157	>OP255974
158	>OP255976
159	>KT879916
160	>KT879922
161	>KT879924
162	>KT879929
163	>KT879915
164	>KT879920
165	>MW076463
166	>MW076464
167	>MW076466
168	>MW076465
169	>MW076468
170	>MW076467
171	>MW076469
172	>MW076470
173	>MW076471
174	>MW076472
175	>MW076473
176	>MW076474
177	>MW076475
178	>MW076476
179	>MW076477
180	>MW076478
181	>MW076479
182	>MW076480
183	>MW076481
184	>MW076482
185	>MW076483
186	>MW076484
187	>MW076485
188	>MW076486
189	>MW076487
190	>MW076488
191	>MW076490
192	>MW076489
193	>MW076491
194	>MW076492
195	>MW076494
196	>MW076493
197	>MW076495
198	>MW076496
199	>MW076497
200	>MW076498
201	>MW076499
202	>MW076500
203	>MW076501
204	>MW076502
205	>MW076505
206	>MW076504
207	>MW076503
208	>MW076506
209	>MW076507
210	>MW076508
211	>MW076509
212	>MW076510
213	>MW076511
214	>MW076512
215	>MW076513
216	>MW076514
217	>MW076515
218	>MW076516
219	>KX068679
220	>MN781627
221	>MN781628
222	>MN781629
223	>MN781630
224	>MN781631
225	>MN781632
226	>MN781633
227	>MN781634
228	>MN781635
229	>MN781636
230	>KJ659490
231	>KY020128
232	>AJ889918
233	>GQ183026
234	>GQ183027
235	>GQ183028
236	>GQ183029
237	>GQ183030
238	>GQ183031
239	>GQ183032
240	>GQ183033
241	>KY556659
242	>KY556660
243	>KY556661
244	>KY556662
245	>KY556663
246	>KY556664
247	>KY556665
248	>KY556666
249	>KY556667
250	>KY556668
251	>KY556669
252	>KY556670
253	>KY556671
254	>KY556672
255	>KY556673
256	>KY556674
257	>KY556675
258	>KM986843
259	>JX682576
260	>JX826607
261	>AB084913
262	>MF352429
263	>AM235750
264	>AB433629
265	>ON497122
266	>MK652145
267	>DQ315670
268	>KT879918
269	>KT879931
270	>AF055846
271	>MN212905
272	>MN451649
273	>KY067444
274	>JX050181
275	>LC522058
276	>LC522057
277	>LC522056
278	>LC522055
279	>LC522054
280	>LC522053
281	>ON497141
282	>AJ005695
283	>KT879919
284	>ON497129
285	>AB252582
286	>KT879921
287	>FJ888592
288	>EU556224
289	>EU716175
