0	>HQ400942
1	>MH517019
2	>ON729328
3	>X84981
4	>OK017951
5	>MW969530
6	>MT081371
7	>MT081372
8	>MK580458
9	>JN596587
10	>MF678320
11	>MF678336
12	>MF678344
13	>KX610685
14	>KX681481
15	>MH144605
16	>KC238667
17	>KC238668
18	>KC238669
19	>OP207963
20	>OQ791539
21	>OQ842427
22	>OQ842416
23	>MF678307
24	>KX619440
25	>KX641240
26	>KX641241
27	>JQ729993
28	>JQ801739
29	>JQ929657
30	>U16283
31	>KP266568
32	>KP289439
33	>JX976771
34	>MH830353
35	>MK000208
36	>MZ389225
37	>MZ389226
38	>MZ389227
39	>MZ389229
40	>OP207968
41	>OP207967
42	>OP207959
43	>OQ791569
44	>OQ842413
45	>OQ842417
46	>OQ842419
47	>OQ842420
48	>HM185055
49	>HM185056
50	>KT353724
51	>KT353725
52	>KF042342
53	>KF042343
54	>MK791151
55	>AB705308
56	>AB705309
57	>AB705310
58	>AB705311
59	>MN145871
60	>KT353721
61	>MN166093
62	>MF678303
63	>MF678309
64	>MF678330
65	>MF678346
66	>KY674974
67	>KY674976
68	>KP266574
69	>KP289434
70	>KP289437
71	>KP290111
72	>OL519579
73	>MW192795
74	>OP207966
75	>OQ791566
76	>OQ791567
77	>OQ791572
78	>OQ842435
79	>OQ842436
80	>OQ842438
81	>OQ842437
82	>OQ842439
83	>KX384961
84	>KX384962
85	>KX384964
86	>KX384963
87	>MG982663
88	>KY271947
89	>MW366965
90	>MW366964
91	>MW366963
92	>MZ396299
93	>KT161266
94	>D00538
95	>LN854562
96	>JN596588
97	>MG780414
98	>JX976769
99	>OQ842431
100	>OQ842432
101	>OQ842433
102	>OQ842455
103	>OQ842458
104	>JX312064
105	>JX476161
106	>JX476162
107	>JX476163
108	>JX476164
109	>JX476165
110	>JX476166
111	>JX476167
112	>JX476168
113	>JX476171
114	>JX843810
115	>JX976770
116	>MH836323
117	>MH836324
118	>JX476170
119	>JX476169
120	>MZ396301
121	>ON245423
122	>OQ791542
123	>OQ791574
124	>OQ842430
125	>OQ842434
126	>OQ842441
127	>OQ842442
128	>OQ842445
129	>OQ842449
130	>OQ842452
131	>OQ842453
132	>OQ842454
133	>KR362878
134	>MK652138
135	>MK791148
136	>M88483
137	>KR107054
138	>KR107055
139	>KR107056
140	>KR107057
141	>FJ000001
142	>KJ020100
143	>KJ025083
144	>MF678302
145	>MF678304
146	>MF678311
147	>MF678314
148	>MF678324
149	>MF678326
150	>MF678327
151	>MF678328
152	>MF678329
153	>FJ357838
154	>JQ040513
155	>KJ489414
156	>KY286529
157	>NC_038307
158	>GQ141875
159	>KP289433
160	>OQ791553
161	>OQ842446
162	>OQ842451
163	>OQ842448
164	>OQ842447
165	>OQ842450
166	>KF781524
167	>KF781525
168	>MF678300
169	>MF678319
170	>MF678347
171	>MN590273
172	>KX752784
173	>KY369904
174	>JX308222
175	>JX017380
176	>JX017381
177	>JX017382
178	>JX017383
179	>MH201081
180	>MH201082
181	>MH201083
182	>MH201084
183	>MH201085
184	>MH201086
185	>JX276378
186	>KP233830
187	>KP266575
188	>KP266576
189	>KP266577
190	>KP266578
191	>JX843811
192	>KP289438
193	>OP207964
194	>OP207965
195	>OP207960
196	>OP672300
197	>OP672302
198	>OP672301
199	>OP672303
200	>OP672305
201	>OP672306
202	>OP672308
203	>OP672307
204	>OP672309
205	>ON741190
206	>OQ408283
207	>MW762688
208	>OQ791512
209	>OQ791515
210	>OQ791517
211	>OQ791520
212	>OQ791523
213	>OQ791524
214	>OQ791525
215	>OQ791526
216	>OQ791527
217	>OQ791528
218	>OQ791529
219	>OQ791530
220	>OQ791531
221	>OQ791532
222	>OQ791534
223	>OQ791535
224	>OQ791536
225	>OQ791537
226	>OQ791543
227	>OQ791545
228	>OQ791546
229	>OQ791550
230	>OQ791551
231	>OQ791555
232	>OQ791563
233	>OQ791573
234	>OQ791575
235	>OQ842456
236	>OQ842457
237	>OQ842459
238	>HQ998851
239	>KF311743
240	>MK791149
241	>MF574099
242	>JN580070
243	>JN695050
244	>JN695051
245	>MF678315
246	>MF678308
247	>MF678340
248	>MF678341
249	>MF973166
250	>MN749140
251	>MN749145
252	>MN749162
253	>MN749163
254	>MN496161
255	>KX527626
256	>MN749142
257	>MN749159
258	>KY981557
259	>KY981558
260	>KY981559
261	>KY981560
262	>KY981561
263	>KY981562
264	>KY981563
265	>KY981564
266	>KY981565
267	>KY981566
268	>KY981567
269	>KY981568
270	>KY981569
271	>KY981570
272	>KY981571
273	>KY981572
274	>KY981573
275	>KY981574
276	>KY981575
277	>KY981576
278	>KY981577
279	>KY981578
280	>KY981579
281	>KY981580
282	>KY981581
283	>MH752989
284	>MW775346
285	>MW883614
286	>MW883613
287	>MW883612
288	>MW883611
289	>MW883610
290	>MZ389228
291	>MZ389233
292	>MZ389234
293	>OP764694
294	>OQ791552
295	>OQ791554
296	>OQ791561
297	>OQ842426
298	>OQ842425
299	>OQ842424
300	>OQ923264
301	>OQ927567
302	>OQ928000
303	>OQ927999
304	>OQ927998
305	>OQ928002
306	>OQ928001
307	>OQ969163
308	>OQ969162
309	>OQ969164
310	>OQ969166
311	>OQ969167
312	>OQ969161
313	>OQ969158
314	>OQ969165
315	>OQ969159
316	>OQ969160
317	>OQ969174
318	>OQ969169
319	>OQ969172
320	>OQ969170
321	>OQ969173
322	>OQ969168
323	>OQ969175
324	>OQ969171
325	>OQ969176
326	>OQ969177
327	>MK652137
328	>MK791152
329	>HV202313
330	>JC013103
331	>JC013104
332	>EF682343
333	>EF682344
334	>EF682345
335	>EF682346
336	>EF682347
337	>EF682348
338	>EF682349
339	>EF682350
340	>EF682351
341	>EF682352
342	>EF682353
343	>EF682354
344	>EF682355
345	>EF682356
346	>EF682357
347	>EF682358
348	>EF682359
349	>KU161395
350	>KU161396
351	>KU161397
352	>KU161398
353	>KU161399
354	>JF838278
355	>KF537633
356	>KU866422
357	>AF111953
358	>AF111961
359	>AF111966
360	>AF111981
361	>AF111982
362	>AF111983
363	>AF111984
364	>KJ019831
365	>KJ019832
366	>KJ019833
367	>KJ155495
368	>KJ155496
369	>KJ155499
370	>KJ155500
371	>KX162679
372	>KX162680
373	>KX162681
374	>KX162682
375	>KX162683
376	>KX162684
377	>KX162691
378	>KX162692
379	>KX162693
380	>KX162695
381	>KX162708
382	>KX162709
383	>KJ170436
384	>KJ170437
385	>KJ170438
386	>KJ170439
387	>KJ170440
388	>KJ170441
389	>KJ170442
390	>KJ170443
391	>KJ170444
392	>KJ170445
393	>KJ170446
394	>KJ170447
395	>KJ170448
396	>KJ170449
397	>KJ170450
398	>KJ170451
399	>KJ170452
400	>KJ170453
401	>KJ170454
402	>KJ170455
403	>KJ170456
404	>KJ170457
405	>KJ170458
406	>KJ170459
407	>KJ170460
408	>KJ170461
409	>KJ170462
410	>KJ170463
411	>KJ170464
412	>KJ170465
413	>KJ170466
414	>KJ170467
415	>KJ170468
416	>KJ170469
417	>KJ170470
418	>KJ170471
419	>KJ170472
420	>KJ170473
421	>KJ170474
422	>KJ170475
423	>KJ170476
424	>KJ170477
425	>KJ170478
426	>KJ170479
427	>KJ170480
428	>KJ170481
429	>KJ170482
430	>KJ170483
431	>KJ170484
432	>KJ170485
433	>KJ170486
434	>KJ170487
435	>KJ170488
436	>KJ170489
437	>KJ170490
438	>KJ170491
439	>KJ170492
440	>KJ170493
441	>KJ170494
442	>KJ170495
443	>KJ170496
444	>KJ170497
445	>KJ170498
446	>KJ170499
447	>KJ170500
448	>KJ170501
449	>KJ170502
450	>KJ170503
451	>KJ170504
452	>KJ170505
453	>KJ170506
454	>KJ170507
455	>KJ170508
456	>KJ170509
457	>KJ170510
458	>KJ170511
459	>KJ170512
460	>KJ170513
461	>KJ170514
462	>KJ170515
463	>KJ170516
464	>KJ170517
465	>KJ170518
466	>KJ170519
467	>KJ170520
468	>KJ170521
469	>KJ170522
470	>KJ170523
471	>KJ170524
472	>KJ170525
473	>KJ170526
474	>KJ170527
475	>KJ170528
476	>KJ170529
477	>KJ170530
478	>KJ170531
479	>KJ170532
480	>KR259355
481	>AF405662
482	>AF405663
483	>AF405664
484	>AF405665
485	>AF405666
486	>AF405667
487	>AF405668
488	>AF405669
489	>AF405670
490	>AF405671
491	>AF405672
492	>AF405673
493	>AF405674
494	>AF405675
495	>AF405676
496	>AF405677
497	>AF405678
498	>AF405679
499	>AF405680
500	>AF405681
501	>AF405682
502	>AF405683
503	>AF405684
504	>AF405685
505	>AF405686
506	>AF405687
507	>AF405688
508	>AF405689
509	>AF405690
510	>AF416342
511	>AF458333
512	>AF462418
513	>AF462419
514	>MG212429
515	>MG212433
516	>MG212436
517	>MG212437
518	>MG212438
519	>MG212472
520	>MG212479
521	>AF538840
522	>AF538841
523	>AF538842
524	>AF538843
525	>FJ769378
526	>FJ769379
527	>FJ769380
528	>FJ769381
529	>FJ769382
530	>FJ769383
531	>FJ769384
532	>FJ769385
533	>AJ132960
534	>AJ132961
535	>AB180070
536	>AB180071
537	>AB180072
538	>AB180073
539	>FJ859058
540	>FJ859059
541	>FJ859060
542	>FJ859061
543	>FJ859062
544	>FJ859063
545	>FJ859064
546	>AJ416942
547	>AJ430385
548	>FV537074
549	>FV537075
550	>FV537076
551	>FV537077
552	>V01148
553	>AY184219
554	>AY278553
555	>GQ984141
556	>AY560657
557	>KY941931
558	>KY941935
559	>MH750912
560	>AY928383
561	>AY928384
562	>AY928385
563	>AY928386
564	>AY928387
565	>OP828753
566	>OP828752
567	>OQ286203
568	>OQ286204
569	>OQ286206
570	>OQ286208
571	>OQ286211
572	>OQ286212
573	>KC880365
574	>KC880366
575	>KC880367
576	>KC880368
577	>KC880369
578	>KC880370
579	>KC880371
580	>KC880372
581	>KC880373
582	>KC880374
583	>KC880375
584	>KC880376
585	>KC880377
586	>KC880378
587	>KC880379
588	>KC880380
589	>KC880381
590	>KC880382
591	>DI499146
592	>DI499147
593	>KT353719
594	>V01149
595	>V01150
596	>MG212434
597	>MG212435
598	>MG212440
599	>MG212446
600	>MG212450
601	>MG212452
602	>MG212453
603	>MG212454
604	>MG212455
605	>MG212456
606	>MG212457
607	>MG212459
608	>MG212462
609	>MG212463
610	>MG212464
611	>MG212465
612	>MG212469
613	>MG212471
614	>MG212475
615	>MG212476
616	>MG212480
617	>MG212484
618	>MG212486
619	>MG212487
620	>MG212488
621	>MG212489
622	>MG212490
623	>MG212491
624	>KC784367
625	>KC784368
626	>DQ205099
627	>KR259356
628	>KR259357
629	>FJ898290
630	>AJ544513
631	>AM040035
632	>AM040036
633	>AM040037
634	>AM040038
635	>AM040039
636	>AM084223
637	>AM084224
638	>AM084225
639	>AM884184
640	>AM884185
641	>X00595
642	>JX274980
643	>JX274981
644	>JX274982
645	>JX274983
646	>JX274984
647	>JX274985
648	>JX274987
649	>JX274991
650	>JX274993
651	>JX274995
652	>JX274999
653	>JX275008
654	>JX275015
655	>JX275032
656	>JX275071
657	>JX275085
658	>AY177685
659	>AY184220
660	>JX275140
661	>JX275147
662	>JX275162
663	>JX275184
664	>KM433732
665	>JX275238
666	>JX275266
667	>JX275352
668	>JX275380
669	>AY238473
670	>AY278549
671	>AY278550
672	>AY278551
673	>AY278552
674	>GU390707
675	>JX569709
676	>JX569710
677	>JX569711
678	>JX569712
679	>KP196613
680	>KY941932
681	>AY948201
682	>MN384438
683	>MT432111
684	>MZ245455
685	>MZ150563
686	>MZ150562
687	>MZ150564
688	>MZ150565
689	>MZ150566
690	>ON596331
691	>ON596333
692	>ON596332
693	>ON596354
694	>ON596350
695	>ON596351
696	>ON596339
697	>ON596346
698	>ON596347
699	>ON596352
700	>ON596353
701	>ON596342
702	>ON596345
703	>ON596341
704	>ON596335
705	>ON596334
706	>ON596358
707	>ON596356
708	>ON596340
709	>ON596344
710	>ON596338
711	>ON596357
712	>ON596360
713	>ON596343
714	>ON596364
715	>ON596370
716	>ON596362
717	>ON596361
718	>ON596365
719	>ON596366
720	>ON596368
721	>ON596363
722	>ON596336
723	>ON596367
724	>ON596355
725	>ON596369
726	>ON596337
727	>ON596349
728	>ON596348
729	>ON596373
730	>ON596371
731	>ON596372
732	>ON596380
733	>ON596382
734	>ON596381
735	>ON596374
736	>ON596377
737	>ON596376
738	>ON596375
739	>ON596378
740	>ON596379
741	>ON596388
742	>ON596383
743	>ON596386
744	>ON596390
745	>ON596389
746	>ON596387
747	>ON596384
748	>ON596385
749	>ON596433
750	>ON596404
751	>ON596430
752	>ON596431
753	>ON596429
754	>ON596432
755	>ON596428
756	>ON596401
757	>ON596397
758	>ON596406
759	>ON596405
760	>ON596400
761	>ON596391
762	>ON596392
763	>ON596403
764	>ON596394
765	>ON596396
766	>ON596399
767	>ON596393
768	>ON596427
769	>ON596419
770	>ON596395
771	>ON596398
772	>ON596402
773	>ON596418
774	>ON596421
775	>ON596420
776	>ON596422
777	>ON596412
778	>ON596416
779	>ON596417
780	>ON596414
781	>ON596413
782	>ON596415
783	>ON596424
784	>ON596407
785	>ON596425
786	>ON596426
787	>ON596423
788	>ON596409
789	>ON596408
790	>ON596410
791	>ON596411
792	>ON596439
793	>ON596434
794	>ON596437
795	>ON596438
796	>ON596436
797	>ON596435
798	>ON596359
799	>OP265178
800	>OP410365
801	>OP410371
802	>OP410366
803	>OP410363
804	>OP410374
805	>OP410369
806	>OP410378
807	>OP410377
808	>OP410370
809	>OP410367
810	>OP410368
811	>OP410375
812	>OP410380
813	>OP410379
814	>OP410383
815	>OP410382
816	>OP410376
817	>OP410373
818	>OP410372
819	>OP410381
820	>OP410384
821	>OP410364
822	>OP410385
823	>OP410386
824	>OP410399
825	>OP410392
826	>OP410391
827	>OP410397
828	>OP410396
829	>OP410389
830	>OP410387
831	>OP410406
832	>OP410400
833	>OP410398
834	>OP410403
835	>OP410404
836	>OP410405
837	>OP410402
838	>OP410401
839	>OP410388
840	>OP410393
841	>OP410390
842	>OP410395
843	>OP410394
844	>OP410409
845	>OP410410
846	>OP410408
847	>OP410407
848	>OP410411
849	>OP410421
850	>OP410425
851	>OP410420
852	>OP410415
853	>OP410413
854	>OP410430
855	>OP410416
856	>OP410429
857	>OP410435
858	>OP410434
859	>OP410417
860	>OP410436
861	>OP410433
862	>OP410432
863	>OP410431
864	>OP410414
865	>OP410423
866	>OP410412
867	>OP410424
868	>OP410426
869	>OP410428
870	>OP410422
871	>OP410419
872	>OP410427
873	>OP410418
874	>OP410446
875	>OP410445
876	>OP410440
877	>OP410442
878	>OP410439
879	>OP410441
880	>OP410438
881	>OP410437
882	>OP410443
883	>OP410444
884	>OP410451
885	>OP410450
886	>OP410456
887	>OP410455
888	>OP410448
889	>OP410449
890	>OP410462
891	>OP410459
892	>OP410447
893	>OP410460
894	>OP410461
895	>OP410457
896	>OP410458
897	>OP410452
898	>OP410453
899	>OP410454
900	>OP410471
901	>OP410480
902	>OP410478
903	>OP410466
904	>OP410464
905	>OP410467
906	>OP410463
907	>OP410470
908	>OP410465
909	>OP410479
910	>OP410475
911	>OP410468
912	>OP410473
913	>OP410472
914	>OP410476
915	>OP410477
916	>OP410474
917	>OP410469
918	>HM107832
919	>DQ890385
920	>DQ890386
921	>DQ890387
922	>DQ890388
923	>HM107833
924	>M12197
925	>KU372652
926	>KF656732
927	>EU566934
928	>EU566935
929	>EU566936
930	>EU566937
931	>EU566938
932	>EU566939
933	>EU566940
934	>EU566941
935	>EU566942
936	>EU566943
937	>EU566944
938	>EU566945
939	>EU566946
940	>EU566947
941	>EU566948
942	>EU566949
943	>EU566950
944	>HM107834
945	>CS406482
946	>CS406483
947	>D00625
948	>KX162678
949	>KX162685
950	>KX162686
951	>KX162687
952	>KX162688
953	>KX162689
954	>KX162690
955	>KX162696
956	>KX162697
957	>KX162698
958	>KX162699
959	>KX162700
960	>KX162701
961	>KX162702
962	>KX162703
963	>KX162704
964	>KX162705
965	>KX162706
966	>KX162707
967	>KX162710
968	>KX162711
969	>KX162712
970	>KX162713
971	>KX162714
972	>KX162715
973	>HM107835
974	>KX162716
975	>KX162717
976	>KJ170533
977	>KJ170534
978	>KJ170535
979	>KJ170536
980	>KJ170537
981	>KJ170538
982	>KJ170539
983	>KJ170540
984	>KJ170541
985	>KJ170542
986	>KJ170543
987	>KJ170544
988	>KJ170545
989	>KJ170546
990	>KJ170547
991	>KJ170548
992	>KJ170549
993	>KJ170550
994	>KJ170551
995	>KJ170552
996	>KJ170553
997	>KJ170554
998	>KJ170555
999	>KJ170556
1000	>KJ170557
1001	>KJ170558
1002	>KJ170559
1003	>KJ170560
1004	>KJ170561
1005	>KJ170562
1006	>KJ170563
1007	>KJ170564
1008	>KJ170565
1009	>KJ170566
1010	>KJ170567
1011	>KJ170568
1012	>KJ170569
1013	>KJ170570
1014	>KJ170571
1015	>KJ170572
1016	>KJ170573
1017	>KJ170574
1018	>KJ170575
1019	>KJ419273
1020	>KJ419274
1021	>KJ419275
1022	>KJ419276
1023	>KJ419277
1024	>FJ460223
1025	>FJ460224
1026	>FJ460225
1027	>MN541115
1028	>MN541116
1029	>FJ517648
1030	>FJ517649
1031	>AF448782
1032	>AF448783
1033	>MG212428
1034	>KY941933
1035	>KY941934
1036	>K01392
1037	>MK028134
1038	>ON221307
1039	>ON221309
1040	>ON221308
1041	>OK042928
1042	>OK042929
1043	>OK042930
1044	>OK042931
1045	>OK042932
1046	>OP137279
1047	>OP137273
1048	>OP137274
1049	>OP137281
1050	>OP137284
1051	>OP137283
1052	>OP137276
1053	>OP137282
1054	>OP137280
1055	>OP137277
1056	>OP137291
1057	>OP137297
1058	>OP137292
1059	>OP137293
1060	>OP137294
1061	>OP137289
1062	>OP137285
1063	>OP137288
1064	>OP137287
1065	>OP137286
1066	>OP137300
1067	>OP137304
1068	>OP137311
1069	>OP137310
1070	>OP137313
1071	>OP137312
1072	>OP137305
1073	>OP137308
1074	>OP137314
1075	>OP137307
1076	>OP137306
1077	>OP137302
1078	>OP137303
1079	>OP137309
1080	>OP137298
1081	>OP137322
1082	>OP137323
1083	>OP137324
1084	>OP137319
1085	>OP137321
1086	>OP137320
1087	>OP137316
1088	>OQ286202
1089	>OQ286205
1090	>OQ286207
1091	>OQ286209
1092	>OQ286210
1093	>OQ286213
1094	>OQ286214
1095	>OQ286215
1096	>OQ286216
1097	>OQ286217
1098	>OQ286218
1099	>OQ286219
1100	>OQ286220
1101	>OQ451883
1102	>ON207141
1103	>ON207142
1104	>KC784372
1105	>ON207143
1106	>ON207144
1107	>ON207145
1108	>ON207146
1109	>ON207147
1110	>ON207148
1111	>ON207149
1112	>ON207150
1113	>ON207151
1114	>ON207152
1115	>KR259358
1116	>KT946714
1117	>KT946715
1118	>KT946716
1119	>KT946717
1120	>EU684056
1121	>EU684057
1122	>KU763188
1123	>MF541373
1124	>MF678293
1125	>KJ170576
1126	>KJ170577
1127	>KJ170578
1128	>KJ170579
1129	>KJ170580
1130	>KJ170581
1131	>KJ170582
1132	>KJ170583
1133	>KJ170584
1134	>KJ170585
1135	>KJ170586
1136	>KJ170587
1137	>KJ170588
1138	>KJ170589
1139	>KJ170590
1140	>KJ170591
1141	>KJ170592
1142	>KJ170593
1143	>KJ170594
1144	>KJ170595
1145	>KJ170596
1146	>KJ170597
1147	>KJ170598
1148	>KJ170599
1149	>KJ170600
1150	>KJ170601
1151	>KJ170602
1152	>KJ170603
1153	>KJ170604
1154	>KJ170605
1155	>KJ170607
1156	>KJ170608
1157	>KJ170609
1158	>KJ170610
1159	>KJ170611
1160	>KJ170612
1161	>KJ170613
1162	>KJ170614
1163	>KJ170615
1164	>KJ170616
1165	>KJ170606
1166	>KJ170617
1167	>KJ170618
1168	>KJ170619
1169	>KJ170620
1170	>KJ170621
1171	>KJ170622
1172	>KJ170623
1173	>KJ170624
1174	>KJ170625
1175	>KJ170626
1176	>KJ170627
1177	>KJ170628
1178	>KJ170629
1179	>KJ170630
1180	>KJ170631
1181	>KJ170632
1182	>KJ170633
1183	>KJ170634
1184	>KJ170635
1185	>KJ170636
1186	>KJ170637
1187	>KJ170638
1188	>KJ170639
1189	>KJ170640
1190	>KJ170641
1191	>KJ170642
1192	>KJ170643
1193	>KJ170644
1194	>KJ170645
1195	>KJ170646
1196	>KJ170647
1197	>KJ170648
1198	>KJ170649
1199	>KJ170650
1200	>KJ170651
1201	>KJ170652
1202	>KJ170653
1203	>KJ170654
1204	>KJ170655
1205	>KJ170656
1206	>KJ170657
1207	>KJ170658
1208	>KJ170659
1209	>KJ170660
1210	>KJ170661
1211	>KJ170662
1212	>KJ170663
1213	>KJ170664
1214	>KJ170665
1215	>KJ170666
1216	>KJ170667
1217	>KJ170668
1218	>KJ170669
1219	>KJ170670
1220	>KJ170671
1221	>KJ170672
1222	>KJ170673
1223	>KJ170674
1224	>KJ170675
1225	>KJ170676
1226	>KJ170677
1227	>FJ460226
1228	>FJ460227
1229	>MG212427
1230	>MG212430
1231	>MG212431
1232	>MG212432
1233	>MG212439
1234	>MG212441
1235	>MG212442
1236	>MG212443
1237	>MG212444
1238	>MG212445
1239	>MG212447
1240	>MG212448
1241	>MG212449
1242	>MG212451
1243	>MG212458
1244	>MG212460
1245	>MG212461
1246	>MG212466
1247	>MG212467
1248	>MG212468
1249	>MG212470
1250	>MG212473
1251	>MG212474
1252	>MG212477
1253	>MG212478
1254	>MG212481
1255	>MG212482
1256	>MG212483
1257	>MG212492
1258	>MG212493
1259	>MG212494
1260	>MG212495
1261	>AF541919
1262	>MG451807
1263	>MG451811
1264	>FJ842158
1265	>FJ842159
1266	>FJ859183
1267	>FJ859184
1268	>FJ859185
1269	>FJ859186
1270	>FJ859187
1271	>FJ859188
1272	>FJ859189
1273	>FJ859190
1274	>FJ859191
1275	>FJ859192
1276	>AJ293918
1277	>FJ914252
1278	>MT645947
1279	>MT645948
1280	>MT645949
1281	>MT645950
1282	>MT645951
1283	>X00596
1284	>X00925
1285	>X04468
1286	>AY184221
1287	>GU180608
1288	>GU256222
1289	>KR399988
1290	>KR478685
1291	>MZ171074
1292	>MZ171075
1293	>MZ171076
1294	>MZ171077
1295	>MZ171078
1296	>MZ171079
1297	>MZ171080
1298	>MZ171081
1299	>MZ171082
1300	>MZ171083
1301	>MZ171085
1302	>MZ171084
1303	>MZ171086
1304	>MZ171087
1305	>MZ171088
1306	>MZ171090
1307	>MZ171089
1308	>MZ171091
1309	>MZ171092
1310	>MZ171093
1311	>MZ171094
1312	>MZ171095
1313	>MZ171096
1314	>KU183495
1315	>JF742576
1316	>JF742577
1317	>JF742578
1318	>JF742579
1319	>AB769152
1320	>AB769154
1321	>AB769156
1322	>AB769159
1323	>AB769160
1324	>AB769161
1325	>AB769162
1326	>AB769163
1327	>AB769164
1328	>AB769165
1329	>KF667358
1330	>KF667359
1331	>KF667360
1332	>KF667361
1333	>KF725085
1334	>MK989719
1335	>MK989721
1336	>JN228097
1337	>MT081369
1338	>MT081378
1339	>MN749149
1340	>MN749151
1341	>MN749152
1342	>MN749154
1343	>MZ835601
1344	>MZ835588
1345	>OM001375
1346	>OM001377
1347	>OK017924
1348	>MN306034
1349	>MZ629135
1350	>M16248
1351	>FJ445166
1352	>A10937
1353	>FJ445184
1354	>FJ445165
1355	>MZ629162
1356	>MZ629158
1357	>MZ629144
1358	>MZ835617
1359	>MZ835562
1360	>OM001418
1361	>OM001429
1362	>OK254839
1363	>OK254860
1364	>OK254874
1365	>OK539501
1366	>OK649369
1367	>OK649376
1368	>OK649377
1369	>OK649404
1370	>OL638422
1371	>OL638463
1372	>OK017935
1373	>DQ473497
1374	>KY369881
1375	>MZ268694
1376	>MZ835576
1377	>OK161364
1378	>ON881127
1379	>ON881126
1380	>ON881125
1381	>ON881128
1382	>ON881129
1383	>ON881130
1384	>ON881131
1385	>ON881132
1386	>ON881133
1387	>ON881134
1388	>ON881135
1389	>ON881136
1390	>MZ629115
1391	>MZ460691
1392	>MZ427505
1393	>MZ363453
1394	>MZ363444
1395	>MZ363436
1396	>MZ322929
1397	>MZ268717
1398	>MZ268711
1399	>MZ268677
1400	>MZ268662
1401	>MZ221154
1402	>MZ221146
1403	>MZ153271
1404	>MZ153270
1405	>MZ153269
1406	>MZ153256
1407	>MZ153250
1408	>MZ153243
1409	>MW969525
1410	>EF186077
1411	>MW969524
1412	>MW969523
1413	>MZ268693
1414	>MZ268691
1415	>MZ268688
1416	>MZ268652
1417	>OL961537
1418	>OM001455
1419	>OK017931
1420	>OK017949
1421	>OK161367
1422	>OK161371
1423	>OK161378
1424	>OK181493
1425	>LC699425
1426	>MN228693
1427	>MZ460694
1428	>LC720414
1429	>OK254850
1430	>OK181501
1431	>OK181487
1432	>MZ363454
1433	>MZ363442
1434	>MZ268648
1435	>MZ153252
1436	>OL365068
1437	>MZ363426
1438	>MZ363425
1439	>MZ363415
1440	>MZ322923
1441	>MZ322920
1442	>MZ268725
1443	>MZ268719
1444	>MZ268713
1445	>MZ268668
1446	>MZ268664
1447	>MZ268660
1448	>MZ268658
1449	>MZ268649
1450	>MZ221152
1451	>MZ221151
1452	>MZ153288
1453	>MZ153272
1454	>MZ153264
1455	>MZ153263
1456	>MW969532
1457	>MW969531
1458	>MZ268690
1459	>MZ835604
1460	>MZ835602
1461	>MZ835593
1462	>MZ835591
1463	>MZ835590
1464	>MZ835587
1465	>MZ835586
1466	>MZ835585
1467	>MZ835582
1468	>MZ835575
1469	>MZ835569
1470	>MZ835568
1471	>MZ670595
1472	>MZ670585
1473	>MZ670580
1474	>MZ670573
1475	>OL961539
1476	>OM001353
1477	>OM001363
1478	>OM001372
1479	>OM001398
1480	>OM001406
1481	>OM001413
1482	>OM001415
1483	>OM001420
1484	>OM001431
1485	>OM001440
1486	>OM001450
1487	>OM001454
1488	>OM001460
1489	>OK254825
1490	>OK254832
1491	>OK254847
1492	>OK254849
1493	>OK254852
1494	>OK254866
1495	>OK254876
1496	>OK254878
1497	>OK254881
1498	>OK539466
1499	>OK539472
1500	>OK539473
1501	>OK539474
1502	>OK539496
1503	>OK539510
1504	>OK539511
1505	>OK539514
1506	>OK649385
1507	>OK649389
1508	>OL133736
1509	>OL133738
1510	>OL133757
1511	>OL638412
1512	>OL638437
1513	>OL638458
1514	>OL638465
1515	>OK017911
1516	>OK017912
1517	>OK017928
1518	>OK017932
1519	>OK017936
1520	>OK017943
1521	>OK017958
1522	>OK017960
1523	>OK017963
1524	>OK161373
1525	>OK161375
1526	>OK161380
1527	>OK161381
1528	>OK161385
1529	>OK161393
1530	>OK161397
1531	>OK161410
1532	>OK181458
1533	>OK181471
1534	>OK181495
1535	>OK181503
1536	>ON729339
1537	>KY369889
1538	>KY369891
1539	>KY369892
1540	>KY369897
1541	>KY460514
1542	>MZ629182
1543	>MZ629176
1544	>MZ629174
1545	>MZ629167
1546	>MZ629166
1547	>MZ629163
1548	>MZ629156
1549	>MZ629151
1550	>MZ629140
1551	>MZ629136
1552	>MZ629133
1553	>MZ629126
1554	>MZ629125
1555	>MZ629121
1556	>MZ629119
1557	>MZ629112
1558	>MZ629110
1559	>MZ629105
1560	>MZ540946
1561	>MZ460713
1562	>MZ460708
1563	>MZ460706
1564	>MZ460689
1565	>MZ460676
1566	>MZ363468
1567	>MZ363455
1568	>MZ363438
1569	>MZ363433
1570	>MZ629172
1571	>MZ629165
1572	>MZ268705
1573	>MZ268704
1574	>MZ460700
1575	>MZ460696
1576	>MZ460695
1577	>MZ460692
1578	>MZ460682
1579	>MZ460673
1580	>MZ363464
1581	>MZ363447
1582	>MZ363439
1583	>MZ363427
1584	>MZ363424
1585	>MZ363417
1586	>MZ268739
1587	>MZ268736
1588	>MZ268734
1589	>MZ268731
1590	>MZ268730
1591	>MZ268728
1592	>MZ268727
1593	>MZ268721
1594	>MZ268712
1595	>MZ268700
1596	>MZ268699
1597	>MZ268698
1598	>MZ221153
1599	>MZ153281
1600	>MZ153277
1601	>MZ153261
1602	>MZ153258
1603	>MZ153245
1604	>MW969526
1605	>MZ670590
1606	>OL365070
1607	>OK017945
1608	>OK017955
1609	>OK181457
1610	>OQ116583
1611	>MZ629181
1612	>MK520815
1613	>MZ363459
1614	>MW969535
1615	>OK254858
1616	>MZ460705
1617	>MZ460687
1618	>MZ460686
1619	>MZ363448
1620	>MZ363440
1621	>MZ363434
1622	>MZ363432
1623	>MZ363413
1624	>MZ268647
1625	>MZ153246
1626	>MZ835616
1627	>OK649363
1628	>OL133730
1629	>OL638426
1630	>OK181472
1631	>OK181499
1632	>MH752985
1633	>KY369878
1634	>MZ629145
1635	>MZ363437
1636	>OK649386
1637	>OK161404
1638	>OL133760
1639	>OK017918
1640	>OK017929
1641	>MZ322915
1642	>MZ268720
1643	>MZ268706
1644	>MW969527
1645	>MZ670576
1646	>OK254829
1647	>OK539509
1648	>MZ363422
1649	>OK649391
1650	>OL133756
1651	>KY369877
1652	>KY983589
1653	>MZ629171
1654	>MZ629164
1655	>MZ629106
1656	>MZ540954
1657	>MZ540951
1658	>MZ460709
1659	>MZ460701
1660	>MZ460698
1661	>MZ460690
1662	>MZ460685
1663	>MZ460683
1664	>MZ460677
1665	>MZ363469
1666	>MZ363462
1667	>MZ363458
1668	>MZ363451
1669	>MZ363446
1670	>MZ363441
1671	>MZ363430
1672	>MZ363429
1673	>MZ322930
1674	>MZ322928
1675	>MZ322922
1676	>MZ322918
1677	>MZ322914
1678	>MZ322912
1679	>MZ268738
1680	>MZ268716
1681	>MZ268710
1682	>MZ268707
1683	>MZ268702
1684	>MZ268679
1685	>MZ268676
1686	>MZ268671
1687	>MZ268659
1688	>MZ268653
1689	>MZ221150
1690	>MZ221149
1691	>MZ221148
1692	>MZ153285
1693	>MZ153284
1694	>MZ153283
1695	>MZ153278
1696	>MZ153266
1697	>MZ153255
1698	>MZ153249
1699	>MZ153244
1700	>MW969521
1701	>MW969520
1702	>MW969518
1703	>MZ268696
1704	>MZ268692
1705	>MZ268689
1706	>MZ268687
1707	>MZ268686
1708	>MZ268685
1709	>EU840952
1710	>MZ268683
1711	>MZ153268
1712	>MZ835598
1713	>OL961526
1714	>OM001344
1715	>OM001465
1716	>OK254853
1717	>OK254863
1718	>OK649407
1719	>OK649422
1720	>OK017910
1721	>OK017923
1722	>OK017927
1723	>OK017944
1724	>OK161409
1725	>OQ348028
1726	>MN369038
1727	>KF990476
1728	>MH144606
1729	>MH484164
1730	>MH484166
1731	>OQ791547
1732	>KF129411
1733	>KF129412
1734	>KT946713
1735	>JF260926
1736	>MK689071
1737	>MN918613
1738	>KJ857507
1739	>KJ857508
1740	>OP806304
1741	>MN419014
1742	>KM402019
1743	>KM402020
1744	>KM402021
1745	>HQ456305
1746	>HQ456306
1747	>HQ456307
1748	>HQ456308
1749	>HQ456309
1750	>HQ456310
1751	>HQ456311
1752	>HQ456312
1753	>HQ456313
1754	>KF878966
1755	>MN181514
1756	>MF973162
1757	>MG642820
1758	>MH152412
1759	>KP638484
1760	>MK815088
1761	>HQ738290
1762	>HQ738291
1763	>HQ738292
1764	>HQ738293
1765	>HQ738294
1766	>HQ738295
1767	>HQ738296
1768	>HQ738297
1769	>HQ738298
1770	>HQ738299
1771	>HQ738300
1772	>OQ401876
1773	>HQ738301
1774	>HQ738302
1775	>HQ738303
1776	>LR796210
1777	>LR796218
1778	>KX162694
1779	>MN481403
1780	>MN914196
1781	>MN914197
1782	>MN914198
1783	>MN914199
1784	>MN914200
1785	>MN914201
1786	>MN914202
1787	>MN914203
1788	>MN914204
1789	>MN914205
1790	>MN914206
1791	>MG557561
1792	>MG557562
1793	>MG557563
1794	>KP793687
1795	>MG880745
1796	>MG880747
1797	>MG880748
1798	>MG880749
1799	>MG880750
1800	>MG880751
1801	>MG880752
1802	>MT957179
1803	>MT957181
1804	>MT957182
1805	>MT957183
1806	>MT957188
1807	>MT957189
1808	>MT957190
1809	>MT957191
1810	>MT957192
1811	>MT957193
1812	>MT957194
1813	>MT957195
1814	>MT957196
1815	>MT957197
1816	>MT957198
1817	>MT957199
1818	>MT957201
1819	>MT957202
1820	>MT957203
1821	>MT957207
1822	>MT957204
1823	>NC_002058
1824	>MZ546188
1825	>HQ738286
1826	>HQ738287
1827	>HQ738288
1828	>HQ738289
1829	>KX351794
1830	>KX351796
1831	>KX351797
1832	>KX351798
1833	>KX351799
1834	>KX351800
1835	>KX351801
1836	>KX351802
1837	>KX351803
1838	>KX351804
1839	>KX351805
1840	>KX351795
1841	>KX351806
1842	>KX351807
1843	>KX351808
1844	>KX351812
1845	>KX351813
1846	>KX351814
1847	>KX351815
1848	>KX351816
1849	>KX351817
1850	>KX351818
1851	>KX351820
1852	>KX351819
1853	>KX351821
1854	>KX351822
1855	>KX351825
1856	>KX351827
1857	>KX351829
1858	>KX351828
1859	>KX351810
1860	>KX351811
1861	>KX351830
1862	>KX351823
1863	>KX351824
1864	>MN954536
1865	>MN954537
1866	>MN954538
1867	>MN954539
1868	>MN954540
1869	>MN954541
1870	>ON881137
1871	>MZ540947
1872	>MZ460707
1873	>MZ460704
1874	>MZ460675
1875	>MZ427501
1876	>MZ363420
1877	>MZ363414
1878	>MZ322921
1879	>MZ153254
1880	>MZ153251
1881	>OK649416
1882	>OL365066
1883	>OL638409
1884	>OL638433
1885	>OK017942
1886	>OK161398
1887	>MG881840
1888	>MW969536
1889	>OK017953
1890	>MZ629109
1891	>MZ221147
1892	>MZ835600
1893	>OK254856
1894	>OQ331222
1895	>MZ363456
1896	>MZ363450
1897	>MZ363445
1898	>MZ268709
1899	>MZ268708
1900	>MZ268678
1901	>MZ268650
1902	>MZ153259
1903	>OK017938
1904	>MZ629168
1905	>MT123346
1906	>LK021688
1907	>MT081367
1908	>MZ629129
1909	>MZ835599
1910	>MZ670592
1911	>OM001449
1912	>OK539476
1913	>OL133753
1914	>OL638403
1915	>ON881123
1916	>DQ473508
1917	>DQ473505
1918	>FJ445118
1919	>KY369888
1920	>MZ629142
1921	>MZ629131
1922	>MZ363466
1923	>MZ322925
1924	>OL961534
1925	>OM001442
1926	>OK539465
1927	>OK539477
1928	>OL638459
1929	>OK017930
1930	>OK161366
1931	>OK181488
1932	>FJ445120
1933	>FJ445132
1934	>MN749144
1935	>OL770291
1936	>OL770290
1937	>ON881124
1938	>EF173424
1939	>FJ445137
1940	>FJ445188
1941	>FJ445151
1942	>EF173423
1943	>OK161377
1944	>OK161382
1945	>OK161384
1946	>OK161403
1947	>OK181464
1948	>OK181492
1949	>MZ629157
1950	>MZ629154
1951	>MZ629150
1952	>MZ629116
1953	>MZ629111
1954	>MZ629108
1955	>MZ540953
1956	>MZ540942
1957	>MZ460710
1958	>MZ460679
1959	>MZ460678
1960	>MZ427503
1961	>DQ473486
1962	>MZ363443
1963	>MZ363431
1964	>MZ363419
1965	>MZ268654
1966	>MZ153282
1967	>MZ153247
1968	>MZ835615
1969	>MZ835613
1970	>MZ835595
1971	>MZ835583
1972	>MZ835567
1973	>MZ835566
1974	>MZ670591
1975	>MZ670571
1976	>MZ670572
1977	>OK254836
1978	>OK254841
1979	>OK254840
1980	>OK254846
1981	>OK254848
1982	>OK539502
1983	>OK649359
1984	>OK649379
1985	>OK649394
1986	>OK649398
1987	>OK649403
1988	>OK649410
1989	>OK649412
1990	>OK649413
1991	>OK649426
1992	>OL133761
1993	>OL133766
1994	>OL365067
1995	>OL638410
1996	>OL638415
1997	>OL638421
1998	>OL638435
1999	>OL638441
2000	>OL638445
2001	>OL638447
2002	>OL638455
2003	>OL638464
2004	>OK017925
2005	>OK017937
2006	>OK017940
2007	>OK017947
2008	>OK017959
2009	>OK017962
2010	>OK017964
2011	>OK017966
2012	>FJ445130
2013	>MN369040
2014	>KX398052
2015	>MT364381
2016	>OM001397
2017	>EF173415
2018	>FJ445183
2019	>MZ460693
2020	>MZ460684
2021	>MZ322926
2022	>MZ268680
2023	>MZ835571
2024	>MZ835565
2025	>MZ670584
2026	>MZ667417
2027	>OL961532
2028	>OL961533
2029	>OL961549
2030	>OL961550
2031	>OM001362
2032	>OM001373
2033	>OM001386
2034	>OM001411
2035	>OM001434
2036	>OM001439
2037	>OM001452
2038	>OK254855
2039	>OK254871
2040	>OK254872
2041	>OK539462
2042	>OK539467
2043	>OK649380
2044	>OK649409
2045	>OK649418
2046	>OL638448
2047	>OK017914
2048	>OK017919
2049	>OK017952
2050	>OK017967
2051	>OK161368
2052	>OK161374
2053	>OK161396
2054	>EF173418
2055	>OK161402
2056	>OK181475
2057	>OK181480
2058	>OK181500
2059	>LC699414
2060	>KF958307
2061	>MN306020
2062	>MN749155
2063	>GQ223229
2064	>GQ415051
2065	>GQ415052
2066	>MH899591
2067	>MW679010
2068	>MW679008
2069	>LC769225
2070	>OQ533275
2071	>LC769226
2072	>KF958308
2073	>KF958309
2074	>MN212904
2075	>MN306037
2076	>GU568096
2077	>LC495296
2078	>MZ667416
2079	>OL961520
2080	>OL961522
2081	>OL961538
2082	>OL961541
2083	>OL961545
2084	>OM001367
2085	>OM001381
2086	>OM001393
2087	>OM001402
2088	>OM001409
2089	>OM001417
2090	>OM001425
2091	>OM001435
2092	>OM001447
2093	>OM001456
2094	>OM001469
2095	>FJ445112
2096	>EF173420
2097	>FJ445131
2098	>FJ445160
2099	>KY369894
2100	>MZ667414
2101	>MZ629147
2102	>MZ629120
2103	>OM001467
2104	>OK254831
2105	>OK181462
2106	>DQ473506
2107	>MZ268667
2108	>MZ153267
2109	>OL961542
2110	>FJ445168
2111	>KX494871
2112	>FJ445169
2113	>EF173425
2114	>FJ445162
2115	>MN369044
2116	>FJ445187
2117	>MZ629178
2118	>MZ629169
2119	>MZ629141
2120	>MZ629139
2121	>MZ153262
2122	>DQ473487
2123	>FJ445172
2124	>KY369883
2125	>MT157224
2126	>KY369899
2127	>MZ629155
2128	>DQ473490
2129	>FJ445113
2130	>FJ445114
2131	>FJ445115
2132	>FJ445177
2133	>OL770292
2134	>OL133739
2135	>ON881120
2136	>FJ445178
2137	>DQ473498
2138	>OL638417
2139	>OK161372
2140	>OQ348029
2141	>FJ445116
2142	>FJ445117
2143	>LC756672
2144	>LC756673
2145	>DQ473493
2146	>FJ445119
2147	>FJ445122
2148	>KY342346
2149	>KY369885
2150	>MZ629173
2151	>MZ670588
2152	>OM001446
2153	>OK539478
2154	>OK539495
2155	>FJ445190
2156	>MZ629148
2157	>MZ460681
2158	>MZ460670
2159	>MZ268670
2160	>MZ670577
2161	>OM001350
2162	>OM001352
2163	>OM001401
2164	>OM001466
2165	>OK254834
2166	>EF173416
2167	>OK254868
2168	>OK539484
2169	>OK649362
2170	>OK649393
2171	>OK649396
2172	>OL133735
2173	>OL638419
2174	>OK017920
2175	>LC699415
2176	>MN306047
2177	>MN306057
2178	>FJ445123
2179	>MZ629180
2180	>MZ629122
2181	>MZ460716
2182	>MZ460680
2183	>MZ363461
2184	>MZ363423
2185	>MZ363418
2186	>MZ322917
2187	>MZ268669
2188	>MZ268651
2189	>MZ153275
2190	>MZ153274
2191	>MZ153273
2192	>MZ153260
2193	>MZ835596
2194	>MZ670575
2195	>OM001358
2196	>OM001365
2197	>OM001392
2198	>OM001445
2199	>OK254861
2200	>OK539512
2201	>OK649387
2202	>OK649388
2203	>OK649425
2204	>OL638418
2205	>OK161358
2206	>FJ445124
2207	>FJ445186
2208	>KY369900
2209	>KY369901
2210	>MZ629146
2211	>MZ460714
2212	>MZ363452
2213	>MZ363412
2214	>MW969533
2215	>MZ835597
2216	>MZ835570
2217	>OM001423
2218	>OK539471
2219	>OK539488
2220	>OK649365
2221	>OK649400
2222	>OK017939
2223	>EF173421
2224	>FJ445179
2225	>MH426975
2226	>MH426976
2227	>MZ835581
2228	>OM001394
2229	>OM001444
2230	>OM001453
2231	>OM001459
2232	>OK254828
2233	>OK254869
2234	>OK254880
2235	>OK649402
2236	>OL133726
2237	>OL638454
2238	>OK017961
2239	>OK161359
2240	>OK161360
2241	>OK181455
2242	>DQ473512
2243	>FJ445126
2244	>KY369884
2245	>MZ629128
2246	>MZ629113
2247	>MZ363460
2248	>MZ322927
2249	>MZ322911
2250	>MZ153289
2251	>OM001366
2252	>OK254835
2253	>OL638462
2254	>OK017954
2255	>OK181484
2256	>OQ791521
2257	>FJ445127
2258	>FJ445128
2259	>FJ445189
2260	>KY369873
2261	>OM001368
2262	>DQ473501
2263	>FJ445180
2264	>DQ473495
2265	>KM362429
2266	>AY751783
2267	>MZ629177
2268	>MZ629175
2269	>MZ629161
2270	>MZ629137
2271	>MZ629134
2272	>MZ460715
2273	>MZ460688
2274	>MZ427504
2275	>MZ322919
2276	>MZ268735
2277	>MZ268673
2278	>MZ268646
2279	>MZ268645
2280	>MZ835619
2281	>MZ835618
2282	>MZ835573
2283	>MZ835561
2284	>MZ670581
2285	>MZ667419
2286	>KT726984
2287	>OM001403
2288	>OM001463
2289	>OK539491
2290	>OK539498
2291	>OK539503
2292	>OK649372
2293	>OL638420
2294	>OL638427
2295	>OL638434
2296	>OL638442
2297	>OL638444
2298	>OL638446
2299	>OK017921
2300	>OK161355
2301	>OK161392
2302	>OK161400
2303	>OK181466
2304	>OK181482
2305	>OK181497
2306	>FJ445129
2307	>LC720413
2308	>MK167031
2309	>DQ473491
2310	>MN369037
2311	>DQ473499
2312	>FJ445133
2313	>KY369890
2314	>OM001356
2315	>OM001387
2316	>OM001400
2317	>OM001448
2318	>FJ445136
2319	>MN749148
2320	>MN369045
2321	>OK017946
2322	>DQ473507
2323	>MN306049
2324	>FJ445139
2325	>FJ445138
2326	>OK539505
2327	>LC699416
2328	>MN369035
2329	>DQ473511
2330	>FJ445140
2331	>OQ116582
2332	>KY369874
2333	>MZ268737
2334	>MZ268681
2335	>MZ268661
2336	>FJ445141
2337	>KY369893
2338	>KY369895
2339	>KY629935
2340	>OL638425
2341	>ON729338
2342	>DQ473500
2343	>MZ268715
2344	>OM001349
2345	>OL133750
2346	>OK181468
2347	>LC699422
2348	>ON729329
2349	>FJ445143
2350	>FJ445144
2351	>KY369886
2352	>MZ363465
2353	>OL961529
2354	>OM001355
2355	>OM001428
2356	>OK254882
2357	>OK649367
2358	>OK161354
2359	>OK181486
2360	>ON881122
2361	>ON881121
2362	>FJ445146
2363	>OM001395
2364	>OK649395
2365	>EF173417
2366	>FJ445181
2367	>FJ445148
2368	>MN749158
2369	>MZ268663
2370	>MZ835579
2371	>OK539487
2372	>OK649378
2373	>OK161406
2374	>FJ445149
2375	>MZ629170
2376	>MZ322931
2377	>MW969534
2378	>MZ670583
2379	>OM001385
2380	>OM001405
2381	>OK254824
2382	>OK539464
2383	>OK539494
2384	>OK539513
2385	>OK649381
2386	>OL638431
2387	>OK017917
2388	>OK181491
2389	>MN369042
2390	>FJ445150
2391	>KY369887
2392	>KY369902
2393	>OL961525
2394	>OM001422
2395	>DQ473489
2396	>FJ445152
2397	>LC720410
2398	>DQ473492
2399	>DQ473494
2400	>DQ473510
2401	>DQ473502
2402	>FJ445182
2403	>FJ445154
2404	>FJ445155
2405	>FJ445156
2406	>MZ629179
2407	>MZ835572
2408	>MZ835564
2409	>MZ835560
2410	>OM001382
2411	>OK539468
2412	>OK539504
2413	>OL638424
2414	>OK181467
2415	>LC699423
2416	>LC720412
2417	>LC720411
2418	>FJ445157
2419	>FJ445159
2420	>FJ445158
2421	>LC699417
2422	>MN306025
2423	>FJ445161
2424	>FJ445163
2425	>MZ629130
2426	>OK161391
2427	>ON729334
2428	>MN369039
2429	>MN369041
2430	>MN369043
2431	>FJ445164
2432	>LC699419
2433	>DQ473504
2434	>FJ445167
2435	>FJ445185
2436	>OK649392
2437	>ON729330
2438	>ON729331
2439	>EF173419
2440	>FJ445170
2441	>FJ445171
2442	>KY369875
2443	>MZ540950
2444	>OL961530
2445	>FJ445173
2446	>FJ445174
2447	>FJ445175
2448	>KF874626
2449	>MK069966
2450	>MT081370
2451	>MW384880
2452	>ON881140
2453	>ON881141
2454	>ON881142
2455	>MF775366
2456	>MF775367
2457	>MZ363457
2458	>ON881138
2459	>ON881139
2460	>MF806525
2461	>MZ540948
2462	>OQ331223
2463	>MZ153253
2464	>OL638453
2465	>OK017909
2466	>OK254823
2467	>OK539499
2468	>MZ427502
2469	>MZ363463
2470	>MZ363416
2471	>MZ268722
2472	>MZ268723
2473	>MZ268718
2474	>MZ268714
2475	>MZ268697
2476	>MZ268684
2477	>MZ268674
2478	>MZ153276
2479	>MW969522
2480	>MW969519
2481	>MW969517
2482	>MW969516
2483	>MW969515
2484	>MZ322913
2485	>OL961518
2486	>OK017913
2487	>OK017934
2488	>OK017948
2489	>ON729335
2490	>MZ629159
2491	>MZ629107
2492	>MZ460712
2493	>MZ460711
2494	>MZ460703
2495	>MZ460697
2496	>MK279354
2497	>MZ363467
2498	>MZ363435
2499	>MZ363428
2500	>MZ322916
2501	>MZ268729
2502	>MZ268726
2503	>MZ268724
2504	>MZ153279
2505	>MW969529
2506	>MW969528
2507	>MW802583
2508	>OK017915
2509	>MG950178
2510	>MG950179
2511	>MZ629123
2512	>MG182694
2513	>AJ493062
2514	>JQ397329
2515	>LC720415
2516	>KR815824
2517	>AB686524
2518	>JX982253
2519	>JX982254
2520	>JX982255
2521	>JX982256
2522	>JX982257
2523	>JX982258
2524	>JX982259
2525	>MZ092702
2526	>MZ092704
2527	>MN654096
2528	>MH229997
2529	>AB426610
2530	>MH144598
2531	>MT338567
2532	>JX262382
2533	>MK089787
2534	>JX678288
2535	>JX961708
2536	>JX961709
2537	>JF317015
2538	>MZ629160
2539	>MZ670596
2540	>OM001437
2541	>OM001443
2542	>OK017957
2543	>OQ116581
2544	>MZ670597
2545	>OK017926
2546	>OM001432
2547	>OM001433
2548	>OM001436
2549	>OM001441
2550	>OM001457
2551	>OM001458
2552	>OM001461
2553	>OM001462
2554	>OM001468
2555	>OM001470
2556	>OK649390
2557	>OL133746
2558	>OL133759
2559	>OL133765
2560	>OK161412
2561	>OP886969
2562	>MN749147
2563	>MN749150
2564	>MN749153
2565	>MN749156
2566	>MN749157
2567	>D00239
2568	>KY369898
2569	>OL961519
2570	>OL961523
2571	>OL961527
2572	>OL961528
2573	>OL961536
2574	>OL961543
2575	>OL961546
2576	>OL961548
2577	>OM001345
2578	>OM001347
2579	>OM001357
2580	>OM001359
2581	>OM001360
2582	>OM001361
2583	>OM001364
2584	>OM001369
2585	>OM001370
2586	>OM001371
2587	>OM001376
2588	>OM001378
2589	>OM001379
2590	>OM001383
2591	>OM001384
2592	>OM001388
2593	>OM001389
2594	>OM001391
2595	>OM001396
2596	>OM001399
2597	>OM001410
2598	>OM001414
2599	>OM001416
2600	>OM001419
2601	>OM001421
2602	>OM001424
2603	>OM001426
2604	>OM001427
2605	>OM001430
2606	>MW183139
2607	>MW183138
2608	>MW183137
2609	>MW183136
2610	>MW183135
2611	>MW183134
2612	>MW183133
2613	>KF874627
2614	>OK017922
2615	>MG253032
2616	>MG253033
2617	>MG253034
2618	>MG253035
2619	>MG253036
2620	>MH118031
2621	>JX390654
2622	>JX390655
2623	>JX390656
2624	>KT277550
2625	>ON646232
2626	>ON646239
2627	>ON646240
2628	>ON646243
2629	>ON646245
2630	>JF905564
2631	>MH118024
2632	>MH118028
2633	>MH118029
2634	>MH118030
2635	>AY876912
2636	>AY876913
2637	>KF055238
2638	>KF055239
2639	>KF055240
2640	>KF055241
2641	>KF055242
2642	>KF055243
2643	>KF055244
2644	>KF055245
2645	>LC506455
2646	>LC506456
2647	>LC506457
2648	>LC506458
2649	>LC506459
2650	>LC506460
2651	>LC506461
2652	>LC506462
2653	>KF193620
2654	>KF193621
2655	>KF193622
2656	>KF193623
2657	>KF193624
2658	>KF193625
2659	>KF193626
2660	>KF193627
2661	>KF193628
2662	>KF193629
2663	>KF193630
2664	>KF193631
2665	>KF193632
2666	>JF738003
2667	>JF738004
2668	>KU254597
2669	>KU254598
2670	>MF189180
2671	>KF924762
2672	>MF434051
2673	>KF991007
2674	>FJ198212
2675	>KX058533
2676	>MN337593
2677	>MN337600
2678	>JN590244
2679	>JN674176
2680	>MF678299
2681	>MF678313
2682	>MF678332
2683	>KX372334
2684	>KX372335
2685	>KX372336
2686	>KX372339
2687	>KX580041
2688	>MN749141
2689	>KX595291
2690	>KX595292
2691	>KX595293
2692	>KX595294
2693	>KX595295
2694	>MG450666
2695	>MG674827
2696	>KJ746492
2697	>JQ746659
2698	>JQ746660
2699	>JQ746661
2700	>JQ746662
2701	>JQ746663
2702	>JQ746664
2703	>JQ746665
2704	>JQ746666
2705	>JQ746667
2706	>JQ746668
2707	>JQ746669
2708	>JQ746670
2709	>JQ746671
2710	>JQ746672
2711	>JQ746673
2712	>JQ746674
2713	>JQ746675
2714	>JQ746676
2715	>JQ746677
2716	>JQ746678
2717	>KY014077
2718	>MG957117
2719	>JX068827
2720	>JX068828
2721	>JX068829
2722	>JX068830
2723	>JX068831
2724	>JX068832
2725	>JX068833
2726	>KC342228
2727	>MH010198
2728	>MH010199
2729	>MH010200
2730	>MH010201
2731	>MH010202
2732	>MH010203
2733	>MH010204
2734	>MH010205
2735	>MH010206
2736	>KM215267
2737	>KC755228
2738	>KC755229
2739	>KC755230
2740	>U05876
2741	>KC755231
2742	>KC755232
2743	>KC755233
2744	>KC755234
2745	>KC755235
2746	>MH118027
2747	>KY425528
2748	>KY425529
2749	>KY425530
2750	>KY425531
2751	>KY425532
2752	>KY425533
2753	>KY425534
2754	>KY425535
2755	>KY425536
2756	>KY425537
2757	>KY425538
2758	>KY425539
2759	>KY425540
2760	>GQ279368
2761	>GQ279371
2762	>KM516102
2763	>KY674980
2764	>KY792576
2765	>KY792577
2766	>KY792578
2767	>KY792579
2768	>KY792580
2769	>KY792581
2770	>KY792582
2771	>KY792583
2772	>KY792584
2773	>JX481738
2774	>JX507808
2775	>KP266573
2776	>JX839965
2777	>KP289411
2778	>KP289412
2779	>KP289413
2780	>KP289414
2781	>KP289415
2782	>KP289416
2783	>JX986740
2784	>JX986741
2785	>JX986742
2786	>MT212036
2787	>MT212035
2788	>MT212034
2789	>MT212033
2790	>MT212032
2791	>MT212031
2792	>MT212030
2793	>MT212029
2794	>MT212028
2795	>MT212027
2796	>MT212026
2797	>MT212025
2798	>MT212024
2799	>MT212023
2800	>MT212022
2801	>MT212021
2802	>MT212020
2803	>MT212019
2804	>MT212018
2805	>MT212017
2806	>MT212016
2807	>MT212015
2808	>MT212014
2809	>MT212013
2810	>MT212012
2811	>MT212011
2812	>MT212010
2813	>MT212009
2814	>MT212008
2815	>MT212007
2816	>MT212006
2817	>MT212004
2818	>MT212005
2819	>MT212003
2820	>MT212002
2821	>MT212001
2822	>MT212000
2823	>MT211999
2824	>MT211998
2825	>MT211997
2826	>MT211996
2827	>MT211995
2828	>MT211994
2829	>MT211993
2830	>MT211992
2831	>MT211991
2832	>MT211990
2833	>MT211989
2834	>MT211988
2835	>ON646272
2836	>MZ671833
2837	>MZ671834
2838	>MZ671835
2839	>MZ671832
2840	>MZ671836
2841	>MZ671837
2842	>MZ671843
2843	>MZ671841
2844	>MZ671848
2845	>MZ671844
2846	>MZ671847
2847	>MZ671846
2848	>MZ671840
2849	>MZ671845
2850	>MZ671842
2851	>MZ671839
2852	>MZ671838
2853	>MZ671850
2854	>MZ671855
2855	>MZ671856
2856	>MZ671857
2857	>MZ671858
2858	>MZ671854
2859	>MZ671860
2860	>MZ671859
2861	>MZ671853
2862	>MZ671851
2863	>MZ671852
2864	>MZ671849
2865	>MZ671861
2866	>MZ671864
2867	>MZ671866
2868	>MZ671871
2869	>MZ671870
2870	>MZ671867
2871	>MZ671873
2872	>MZ671869
2873	>MZ671872
2874	>MZ671868
2875	>MZ671865
2876	>MZ671863
2877	>MZ671862
2878	>MZ671874
2879	>MZ671884
2880	>MZ671882
2881	>MZ671881
2882	>MZ671880
2883	>MZ671879
2884	>MZ671878
2885	>MZ671877
2886	>MZ671876
2887	>MZ671875
2888	>MZ671886
2889	>MZ671885
2890	>MZ671887
2891	>MZ671895
2892	>MZ671889
2893	>MZ671892
2894	>MZ671888
2895	>MZ671890
2896	>MZ671894
2897	>MZ671891
2898	>MZ671893
2899	>MZ671896
2900	>MZ671897
2901	>MZ671898
2902	>MZ671904
2903	>MZ671907
2904	>MZ671903
2905	>MZ671905
2906	>MZ671906
2907	>MZ671902
2908	>MZ671901
2909	>MZ671899
2910	>MZ671900
2911	>MZ671910
2912	>MZ671909
2913	>MZ671912
2914	>MZ671911
2915	>MZ671908
2916	>MZ671883
2917	>OP562186
2918	>OP562194
2919	>OP562195
2920	>OP293089
2921	>OQ791540
2922	>OQ791544
2923	>OQ791548
2924	>OQ791549
2925	>OQ791556
2926	>OQ791560
2927	>OQ791568
2928	>HQ269389
2929	>OP255977
2930	>KX891411
2931	>LC699418
2932	>JX644073
2933	>MH614922
2934	>MH614923
2935	>MH614924
2936	>MH614925
2937	>KJ755189
2938	>KJ755190
2939	>MN164683
2940	>MN164684
2941	>MN164685
2942	>MN164686
2943	>MN164687
2944	>MN164688
2945	>MN597453
2946	>OQ990312
2947	>KU707902
2948	>KP262053
2949	>JX898909
2950	>JX898905
2951	>JX898906
2952	>JX898907
2953	>JX898908
2954	>KC292019
2955	>MH144601
2956	>MH144607
2957	>MG982664
2958	>MH118025
2959	>HQ415758
2960	>HQ415759
2961	>MK512666
2962	>MK512667
2963	>MK512668
2964	>KF495604
2965	>KR919804
2966	>FJ751914
2967	>FJ751915
2968	>MH484165
2969	>GU550508
2970	>AB426611
2971	>HQ728259
2972	>LR027549
2973	>LR027550
2974	>LR027551
2975	>MF281257
2976	>KX156350
2977	>KX156360
2978	>MF678310
2979	>MF678322
2980	>MF678333
2981	>MF678334
2982	>MF678338
2983	>KX595281
2984	>KX595282
2985	>KX595283
2986	>KX595284
2987	>KX810065
2988	>MG214257
2989	>KP289357
2990	>KP289358
2991	>KP289359
2992	>KP289360
2993	>KP289361
2994	>MW846233
2995	>OL519580
2996	>OL357657
2997	>OL357658
2998	>OL357659
2999	>OL357660
3000	>ON409951
3001	>OP255972
3002	>OP255994
3003	>MF083152
3004	>MF083153
3005	>MF083154
3006	>KX810066
3007	>OQ077987
3008	>OQ791511
3009	>OQ842418
3010	>MF554740
3011	>FJ172447
3012	>HM053671
3013	>JX017384
3014	>JX025561
3015	>MG976581
3016	>MG976582
3017	>KM077140
3018	>KM211579
3019	>KM211580
3020	>KY315729
3021	>JX244182
3022	>JX244183
3023	>JX244184
3024	>JX244185
3025	>JX244186
3026	>JX244187
3027	>KY425527
3028	>GQ231925
3029	>GQ231926
3030	>GQ231927
3031	>GQ231928
3032	>GQ231929
3033	>GQ231930
3034	>GQ231931
3035	>GQ231932
3036	>GQ231933
3037	>GQ231934
3038	>GQ231935
3039	>GQ231936
3040	>GQ231937
3041	>GQ231938
3042	>GQ231939
3043	>GQ231940
3044	>GQ231941
3045	>GQ231942
3046	>GQ231943
3047	>GQ279370
3048	>GQ279369
3049	>KM591215
3050	>KM593929
3051	>KM673244
3052	>MH373639
3053	>KY582572
3054	>GQ892830
3055	>MK307505
3056	>GQ994988
3057	>GQ994989
3058	>GQ994990
3059	>GQ994991
3060	>GQ994992
3061	>GU198367
3062	>GU198368
3063	>GU198369
3064	>GU198370
3065	>GU198371
3066	>GU366191
3067	>GU396280
3068	>GU434678
3069	>GU459070
3070	>GU459071
3071	>KP198623
3072	>KP198624
3073	>KP266572
3074	>KP266579
3075	>KP274874
3076	>KP274875
3077	>KP274876
3078	>KP274877
3079	>KP289417
3080	>KP289418
3081	>KP289419
3082	>KP289420
3083	>KP289421
3084	>KP289422
3085	>KP289423
3086	>KP289424
3087	>KP289425
3088	>KP289426
3089	>KP289427
3090	>KP289428
3091	>KP289429
3092	>KP289430
3093	>KP289431
3094	>KP289432
3095	>MH716248
3096	>MH716249
3097	>MH716250
3098	>MH716251
3099	>MH716252
3100	>MH716253
3101	>MH716254
3102	>MH716255
3103	>MH716256
3104	>MH716257
3105	>MH716258
3106	>MH716259
3107	>MH716260
3108	>MH716261
3109	>MH716262
3110	>MH716263
3111	>MH716264
3112	>MH716265
3113	>MH716266
3114	>MH716267
3115	>MH716268
3116	>MH716269
3117	>MH716270
3118	>MH716271
3119	>MH716272
3120	>MH716273
3121	>MH716274
3122	>MH716275
3123	>MH716276
3124	>MH716277
3125	>MH716278
3126	>MH716279
3127	>MH716280
3128	>MH716281
3129	>MH716282
3130	>MH716283
3131	>MH716284
3132	>MH716285
3133	>MH716286
3134	>MH716287
3135	>MH716288
3136	>MH716289
3137	>MH716290
3138	>MH716291
3139	>MH716292
3140	>MH716293
3141	>MH716294
3142	>MH716295
3143	>MH716296
3144	>MH716297
3145	>MH716298
3146	>MH716299
3147	>MH716300
3148	>MH716301
3149	>MH716302
3150	>MH716303
3151	>MH716304
3152	>MH716305
3153	>MH716306
3154	>MH716307
3155	>MH716308
3156	>MH716309
3157	>MH716310
3158	>MH716311
3159	>MH716312
3160	>MH716313
3161	>MH716314
3162	>MH716315
3163	>MH716316
3164	>MH716317
3165	>MH716318
3166	>MH716319
3167	>MH716320
3168	>MH716321
3169	>KY952186
3170	>MH716322
3171	>MH716323
3172	>MH716324
3173	>MH716325
3174	>MH716326
3175	>MH716327
3176	>MH716328
3177	>MH716329
3178	>MH716330
3179	>MH716331
3180	>MH716332
3181	>MH716333
3182	>MH716334
3183	>MH716335
3184	>MH716336
3185	>MH716337
3186	>MH716338
3187	>MH716339
3188	>MH716340
3189	>MH716341
3190	>MH716342
3191	>MH716343
3192	>MH716344
3193	>MH716345
3194	>MH716346
3195	>MH716347
3196	>MH716348
3197	>MH716349
3198	>MH716350
3199	>MH716351
3200	>MH716352
3201	>MH716353
3202	>MH716354
3203	>MH716355
3204	>MH716356
3205	>MH716357
3206	>MH716358
3207	>MH716359
3208	>MH716360
3209	>MH716361
3210	>MH716362
3211	>MH716363
3212	>MH716364
3213	>MH716365
3214	>MH716366
3215	>MH716367
3216	>MH716368
3217	>MH716369
3218	>MH716370
3219	>MH716371
3220	>MH716372
3221	>MH716373
3222	>MH716374
3223	>MH716375
3224	>MH716376
3225	>MH716377
3226	>MH716378
3227	>MH716379
3228	>MH716380
3229	>MH716381
3230	>MH716382
3231	>MH716383
3232	>MH716384
3233	>MH716385
3234	>MH716387
3235	>MH716388
3236	>MH716389
3237	>MH716390
3238	>MH716391
3239	>MH716392
3240	>MH716393
3241	>MH718269
3242	>KP308401
3243	>KP308402
3244	>KP308403
3245	>KP308405
3246	>KP308407
3247	>KP308408
3248	>KP308409
3249	>KP308412
3250	>KP308414
3251	>KP308415
3252	>KP308418
3253	>KP308419
3254	>KP308421
3255	>KP308422
3256	>KP308423
3257	>KP308424
3258	>KP308428
3259	>KP308429
3260	>KP308430
3261	>KP308431
3262	>KP308432
3263	>KP308433
3264	>KP308434
3265	>KP308436
3266	>KP308437
3267	>KP308438
3268	>KP308439
3269	>KP308440
3270	>KP308441
3271	>KP308442
3272	>KP308443
3273	>KP308444
3274	>KP308449
3275	>KP308450
3276	>KP308451
3277	>KP308452
3278	>KP308453
3279	>KP308454
3280	>KP308457
3281	>KP308458
3282	>KP308459
3283	>KP308460
3284	>JX986737
3285	>JX986738
3286	>JX986739
3287	>KC109780
3288	>MK028135
3289	>KC296443
3290	>KC296444
3291	>KC296445
3292	>HM002484
3293	>HM002485
3294	>HM002486
3295	>HM002487
3296	>HM002488
3297	>HM002489
3298	>HM003207
3299	>MH716386
3300	>LC627092
3301	>LC627091
3302	>LC627090
3303	>LC627089
3304	>LC627088
3305	>LC627087
3306	>LC627086
3307	>LC627085
3308	>LC627084
3309	>LC627083
3310	>LC627082
3311	>LC627081
3312	>LC627079
3313	>LC627078
3314	>LC627077
3315	>LC627076
3316	>LC627075
3317	>LC627074
3318	>LC627073
3319	>LC627072
3320	>LC627071
3321	>LC627070
3322	>LC627069
3323	>LC627068
3324	>LC627067
3325	>LC627066
3326	>LC626900
3327	>LC626901
3328	>LC626899
3329	>LC626898
3330	>LC626897
3331	>LC626896
3332	>LC626895
3333	>LC626894
3334	>LC626893
3335	>LC626892
3336	>LC626891
3337	>LC626890
3338	>LC626889
3339	>LC626887
3340	>LC626888
3341	>LC626886
3342	>LC626885
3343	>LC626884
3344	>LC626883
3345	>LC626882
3346	>LC626881
3347	>LC626880
3348	>LC626879
3349	>LC626878
3350	>LC626877
3351	>LC626876
3352	>LC626875
3353	>LC626874
3354	>LC626873
3355	>LC626872
3356	>MT708805
3357	>MT708804
3358	>MT708803
3359	>MT708802
3360	>MT708799
3361	>MT708801
3362	>MT708800
3363	>MW030642
3364	>HQ189392
3365	>MT212038
3366	>MT188611
3367	>MG674288
3368	>MW655539
3369	>MW655540
3370	>MN747117
3371	>MN747118
3372	>MW298156
3373	>MW473684
3374	>ON646270
3375	>ON646271
3376	>ON646273
3377	>OP191657
3378	>ON502178
3379	>ON502181
3380	>ON502183
3381	>ON502186
3382	>ON502184
3383	>ON502185
3384	>ON502182
3385	>ON502187
3386	>ON502189
3387	>ON502188
3388	>ON502179
3389	>ON502180
3390	>ON502190
3391	>ON502204
3392	>ON502199
3393	>ON502203
3394	>ON502207
3395	>ON502205
3396	>ON502214
3397	>ON502192
3398	>ON502213
3399	>ON502216
3400	>ON502212
3401	>ON502211
3402	>ON502206
3403	>ON502191
3404	>ON502208
3405	>ON502215
3406	>ON502197
3407	>ON502209
3408	>ON502210
3409	>ON502195
3410	>ON502202
3411	>ON502201
3412	>ON502194
3413	>ON502193
3414	>ON502196
3415	>ON502198
3416	>ON502200
3417	>ON502219
3418	>ON502220
3419	>ON502222
3420	>ON502221
3421	>ON502217
3422	>ON502218
3423	>ON502226
3424	>ON502233
3425	>ON502231
3426	>ON502227
3427	>ON502224
3428	>ON502223
3429	>ON502232
3430	>ON502239
3431	>ON502236
3432	>ON502238
3433	>ON502225
3434	>ON502237
3435	>ON502235
3436	>ON502240
3437	>ON502234
3438	>ON502241
3439	>ON502230
3440	>ON502229
3441	>ON502228
3442	>ON502250
3443	>ON502252
3444	>ON502244
3445	>ON502256
3446	>ON502245
3447	>ON502242
3448	>ON502243
3449	>ON502257
3450	>ON502258
3451	>ON502260
3452	>ON502262
3453	>ON502261
3454	>ON502249
3455	>ON502254
3456	>ON502259
3457	>ON502251
3458	>ON502255
3459	>ON502248
3460	>ON502247
3461	>ON502253
3462	>ON502246
3463	>ON502266
3464	>ON502267
3465	>ON502264
3466	>ON502263
3467	>ON502265
3468	>ON502279
3469	>ON502280
3470	>ON502268
3471	>ON502269
3472	>ON502270
3473	>ON502282
3474	>ON502281
3475	>ON502283
3476	>ON502271
3477	>ON502278
3478	>ON502277
3479	>ON502276
3480	>ON502272
3481	>ON502274
3482	>ON502275
3483	>ON502273
3484	>ON502286
3485	>ON502285
3486	>ON502287
3487	>ON502291
3488	>ON502290
3489	>ON502288
3490	>ON502292
3491	>ON502289
3492	>ON502284
3493	>ON502302
3494	>ON502300
3495	>ON502296
3496	>ON502295
3497	>ON502297
3498	>ON502294
3499	>ON502299
3500	>ON502298
3501	>ON502301
3502	>ON502293
3503	>ON502324
3504	>ON502308
3505	>ON502309
3506	>ON502307
3507	>ON502305
3508	>ON502304
3509	>ON502319
3510	>ON502314
3511	>ON502315
3512	>ON502316
3513	>ON502318
3514	>ON502325
3515	>ON502323
3516	>ON502317
3517	>ON502326
3518	>ON502321
3519	>ON502320
3520	>ON502329
3521	>ON502328
3522	>ON502322
3523	>ON502327
3524	>ON502303
3525	>ON502311
3526	>ON502310
3527	>ON502313
3528	>ON502312
3529	>ON502306
3530	>ON502334
3531	>ON502335
3532	>ON502330
3533	>ON502331
3534	>ON502332
3535	>ON502333
3536	>ON502340
3537	>ON502343
3538	>ON502344
3539	>ON502338
3540	>ON502336
3541	>ON502352
3542	>ON502345
3543	>ON502347
3544	>ON502337
3545	>ON502354
3546	>ON502349
3547	>ON502351
3548	>ON502346
3549	>ON502355
3550	>ON502353
3551	>ON502350
3552	>ON502342
3553	>ON502341
3554	>ON502348
3555	>ON502339
3556	>ON502364
3557	>ON502363
3558	>ON502361
3559	>ON502356
3560	>ON502357
3561	>ON502358
3562	>ON502366
3563	>ON502365
3564	>ON502368
3565	>ON502367
3566	>ON502369
3567	>ON502362
3568	>ON502360
3569	>ON502359
3570	>ON502373
3571	>ON502376
3572	>ON502375
3573	>ON502370
3574	>ON502377
3575	>ON502371
3576	>ON502372
3577	>ON502374
3578	>OQ791533
3579	>OQ791538
3580	>OQ791541
3581	>OQ842403
3582	>OQ842404
3583	>OQ842406
3584	>OQ842405
3585	>OQ842407
3586	>OQ842408
3587	>OQ842410
3588	>OQ842409
3589	>HM245927
3590	>HM245928
3591	>HQ325852
3592	>HQ407557
3593	>HQ424433
3594	>HQ424434
3595	>HQ424435
3596	>HQ424436
3597	>HQ424437
3598	>HQ426649
3599	>KC570452
3600	>KT345959
3601	>KT345960
3602	>KC570453
3603	>KC954662
3604	>KC954663
3605	>KC954664
3606	>KT354866
3607	>KT354867
3608	>KT354868
3609	>KT354869
3610	>KT354870
3611	>KT354871
3612	>KT354872
3613	>KT354873
3614	>KT354874
3615	>KT354875
3616	>HQ611148
3617	>HQ647167
3618	>HQ647168
3619	>HQ647169
3620	>HQ647170
3621	>HQ647171
3622	>HQ647172
3623	>HQ647173
3624	>HQ647174
3625	>HQ647175
3626	>HQ647176
3627	>HQ647177
3628	>HQ647178
3629	>HQ647179
3630	>HQ647180
3631	>KT428644
3632	>KT428645
3633	>KT428646
3634	>KT428647
3635	>KT428648
3636	>KT428649
3637	>KT428650
3638	>KP861243
3639	>LC506513
3640	>LC506514
3641	>LC506515
3642	>LC506516
3643	>KF134486
3644	>KF142411
3645	>KF142412
3646	>KF142413
3647	>HQ694982
3648	>HQ694983
3649	>HQ694984
3650	>HQ694986
3651	>HQ694985
3652	>KF154354
3653	>KF154355
3654	>HQ712020
3655	>HQ825317
3656	>HQ882182
3657	>HQ998852
3658	>LR027521
3659	>LR027522
3660	>LR027523
3661	>LR027524
3662	>LR027525
3663	>LR027526
3664	>LR027527
3665	>LR027528
3666	>LR027529
3667	>LR027530
3668	>LR027531
3669	>LR027532
3670	>LR027533
3671	>LR027534
3672	>LR027535
3673	>LR027536
3674	>LR027537
3675	>LR027538
3676	>LR027539
3677	>LR027541
3678	>LR027542
3679	>LR027543
3680	>LR027544
3681	>LR027545
3682	>LR027546
3683	>LR027547
3684	>MK652139
3685	>KF312457
3686	>MK791153
3687	>MK800119
3688	>KF444809
3689	>JF738000
3690	>JF738001
3691	>JF738002
3692	>KC414134
3693	>JF830007
3694	>JF894381
3695	>JF894382
3696	>JF894383
3697	>KF501389
3698	>KU254595
3699	>KU254596
3700	>KF543271
3701	>JF913464
3702	>JN020147
3703	>JN052925
3704	>LC375764
3705	>LC375765
3706	>LC375766
3707	>KF668443
3708	>KU647000
3709	>HM752814
3710	>EU703812
3711	>EU703813
3712	>EU703814
3713	>MK904809
3714	>MN053430
3715	>MN053431
3716	>MN053432
3717	>MN053433
3718	>MN053434
3719	>MN053435
3720	>HM807310
3721	>EU864507
3722	>MF405075
3723	>MF431793
3724	>KU936120
3725	>KU936121
3726	>KU936122
3727	>KU936123
3728	>KU936124
3729	>KU936125
3730	>KU936126
3731	>KU936127
3732	>KU936128
3733	>KU936129
3734	>KU936130
3735	>KU936131
3736	>KU936132
3737	>KF982854
3738	>JN544418
3739	>FJ172159
3740	>MN254979
3741	>FJ194964
3742	>FJ194965
3743	>MF662677
3744	>MF662678
3745	>MF662679
3746	>MF662680
3747	>MF662681
3748	>MF662682
3749	>MF662683
3750	>MF662684
3751	>MF662685
3752	>MF662686
3753	>MF662687
3754	>MF662688
3755	>MF662689
3756	>MF662690
3757	>MF662691
3758	>MF662692
3759	>MF662693
3760	>MF662694
3761	>MF662695
3762	>MF662696
3763	>MF662697
3764	>MF662698
3765	>MF662699
3766	>MF662700
3767	>MF662701
3768	>KX197459
3769	>FJ357380
3770	>FJ360544
3771	>FJ360545
3772	>FJ360546
3773	>KJ186973
3774	>KJ186974
3775	>KJ400360
3776	>HM053669
3777	>JN864018
3778	>JN864019
3779	>JN864020
3780	>JN864021
3781	>JN864022
3782	>JN864023
3783	>JN864024
3784	>FJ439769
3785	>MF973167
3786	>JN964686
3787	>MN515037
3788	>JN992282
3789	>JN992283
3790	>JN992284
3791	>JN992285
3792	>MN629889
3793	>KX372311
3794	>KX372310
3795	>KX372313
3796	>KX372312
3797	>KX372316
3798	>KX372314
3799	>KX372315
3800	>KX372318
3801	>KX372319
3802	>KX372317
3803	>KX372321
3804	>KX372320
3805	>KX372323
3806	>KX372322
3807	>KX372327
3808	>KX372331
3809	>KX372329
3810	>MN749160
3811	>MN749161
3812	>JQ074187
3813	>JQ074188
3814	>JQ074189
3815	>JQ074190
3816	>JQ086365
3817	>JQ086366
3818	>KX752783
3819	>KJ508182
3820	>JQ280307
3821	>FJ606447
3822	>FJ606448
3823	>FJ606449
3824	>FJ606450
3825	>FJ607334
3826	>FJ607335
3827	>FJ607336
3828	>FJ607337
3829	>FJ607338
3830	>JQ319054
3831	>MG013988
3832	>MN966512
3833	>MN966513
3834	>MN966514
3835	>MN966515
3836	>MN966516
3837	>MN966517
3838	>MN966518
3839	>MG207962
3840	>MG207963
3841	>MG208882
3842	>MG214681
3843	>MG432108
3844	>KJ686127
3845	>KJ686128
3846	>KJ686129
3847	>KJ686130
3848	>KJ686131
3849	>KJ686132
3850	>KJ686133
3851	>MT081373
3852	>MT081374
3853	>KJ686135
3854	>MT081375
3855	>KJ686136
3856	>KJ686137
3857	>KJ686138
3858	>KJ686139
3859	>KJ686140
3860	>KJ686141
3861	>KJ686142
3862	>KJ686143
3863	>KJ686144
3864	>KJ686145
3865	>KJ686146
3866	>KJ686147
3867	>KJ686148
3868	>KJ686149
3869	>KJ686150
3870	>KJ686151
3871	>KJ686152
3872	>KJ686153
3873	>KJ686154
3874	>KJ686155
3875	>KJ686156
3876	>KJ686157
3877	>KJ686158
3878	>KJ686160
3879	>KJ686161
3880	>KJ686162
3881	>KJ686163
3882	>KJ686164
3883	>KJ686165
3884	>KJ686166
3885	>KJ686167
3886	>KJ686168
3887	>KJ686169
3888	>KJ686170
3889	>KJ686171
3890	>KJ686172
3891	>KJ686173
3892	>KJ686174
3893	>KJ686175
3894	>KJ686176
3895	>KJ686177
3896	>KJ686179
3897	>KJ686180
3898	>KJ686181
3899	>KJ686182
3900	>KJ686183
3901	>KJ686184
3902	>JQ514785
3903	>KJ686185
3904	>JQ517316
3905	>KJ686186
3906	>KJ686187
3907	>KJ686188
3908	>KJ686189
3909	>KJ686190
3910	>KJ686191
3911	>KJ686192
3912	>KJ686193
3913	>KJ686194
3914	>KJ686195
3915	>KJ686196
3916	>KJ686197
3917	>KJ686198
3918	>KJ686200
3919	>KJ686201
3920	>KJ686202
3921	>KJ686203
3922	>KJ686204
3923	>HM053670
3924	>KJ686205
3925	>KJ686206
3926	>KJ686207
3927	>KJ686208
3928	>KJ686209
3929	>KJ686199
3930	>KJ686210
3931	>KJ686211
3932	>KJ686212
3933	>KJ686213
3934	>KJ686214
3935	>MG581490
3936	>KX893543
3937	>KJ686215
3938	>KJ686216
3939	>KJ686217
3940	>KJ686218
3941	>KJ686219
3942	>KJ686220
3943	>KJ686221
3944	>KJ686222
3945	>KJ686223
3946	>KJ686224
3947	>KJ686225
3948	>KJ686226
3949	>KJ686227
3950	>KJ686228
3951	>KJ686229
3952	>KJ686230
3953	>KJ686231
3954	>KJ686232
3955	>KJ686233
3956	>KJ686234
3957	>KJ686235
3958	>KJ686236
3959	>KJ686237
3960	>KJ686238
3961	>KJ686239
3962	>KJ686240
3963	>KJ686241
3964	>KJ686242
3965	>KJ686243
3966	>KJ686244
3967	>KJ686245
3968	>KJ686247
3969	>KJ686248
3970	>KJ686250
3971	>KJ686252
3972	>KJ686253
3973	>KJ686254
3974	>KJ686255
3975	>KJ686256
3976	>KJ686257
3977	>KJ686258
3978	>KJ686259
3979	>KJ686260
3980	>KJ686261
3981	>KJ686251
3982	>KJ686262
3983	>KJ686263
3984	>KJ686264
3985	>KJ686265
3986	>KJ686266
3987	>KJ686267
3988	>KJ686268
3989	>KJ686269
3990	>KJ686270
3991	>KJ686271
3992	>KJ686272
3993	>KJ686273
3994	>KJ686274
3995	>KJ686275
3996	>KJ686276
3997	>KJ686277
3998	>KJ686278
3999	>KJ686279
4000	>KJ686280
4001	>KJ686281
4002	>KJ686282
4003	>KJ686283
4004	>KJ686284
4005	>KJ686285
4006	>KJ686286
4007	>KJ686287
4008	>KJ686288
4009	>KJ686289
4010	>KJ686290
4011	>KJ686291
4012	>KJ686292
4013	>KJ686293
4014	>KJ686294
4015	>KJ686295
4016	>KJ686296
4017	>KJ686297
4018	>JQ639383
4019	>KJ686298
4020	>JQ639384
4021	>KJ686299
4022	>KJ686300
4023	>KJ686301
4024	>KJ686302
4025	>KJ686303
4026	>KJ686304
4027	>KJ686305
4028	>KJ686306
4029	>KJ686307
4030	>KJ686308
4031	>FJ828519
4032	>JQ681218
4033	>KJ746493
4034	>KJ746494
4035	>JQ736684
4036	>JQ742001
4037	>JQ742002
4038	>KY014078
4039	>KY014079
4040	>KY014080
4041	>MG756691
4042	>MG756692
4043	>MG756693
4044	>MG756694
4045	>MG756695
4046	>MG756696
4047	>MG756697
4048	>MG756698
4049	>MG756699
4050	>MG756700
4051	>MG756701
4052	>MG756702
4053	>MG756703
4054	>MG756704
4055	>MG756705
4056	>MG756706
4057	>MG756707
4058	>MG756708
4059	>MG756709
4060	>MG756710
4061	>MG756711
4062	>MG756712
4063	>MG756713
4064	>MG756714
4065	>MG756715
4066	>MG756716
4067	>MG756717
4068	>MG756718
4069	>MG756719
4070	>MG756720
4071	>MG756721
4072	>MG756722
4073	>MG756723
4074	>MG756724
4075	>MG756725
4076	>MG756726
4077	>MG756727
4078	>MG756728
4079	>MG756729
4080	>MG756730
4081	>MG756731
4082	>MG756732
4083	>MG756733
4084	>MG756734
4085	>MG756735
4086	>MG756736
4087	>MG756737
4088	>MG756738
4089	>MG756739
4090	>MG756740
4091	>MG756741
4092	>MG756742
4093	>MG756743
4094	>MG756744
4095	>MG756745
4096	>MG756746
4097	>MG756747
4098	>MG756748
4099	>MG756749
4100	>MG756750
4101	>MG756751
4102	>MG756752
4103	>MG756753
4104	>MG756754
4105	>MG773122
4106	>MG773123
4107	>MG773124
4108	>MG773125
4109	>MG773126
4110	>JQ806378
4111	>KY074643
4112	>KY074644
4113	>JQ965759
4114	>MZ540952
4115	>MZ835610
4116	>MZ670589
4117	>OM001464
4118	>OK254870
4119	>OL133740
4120	>OL133758
4121	>OK128340
4122	>OK128339
4123	>OK128341
4124	>EF173414
4125	>HM775882
4126	>AF083069
4127	>MK800120
4128	>JN704615
4129	>MF678335
4130	>MF678337
4131	>KY645964
4132	>KP266571
4133	>JX854435
4134	>JX976773
4135	>MK238483
4136	>MW080377
4137	>MW080372
4138	>MW775344
4139	>MZ389230
4140	>MZ389231
4141	>MZ389232
4142	>MZ436966
4143	>OM677620
4144	>ON129560
4145	>OP207962
4146	>OP207961
4147	>OQ791513
4148	>OQ791516
4149	>OQ791571
4150	>OQ842429
4151	>OQ842411
4152	>OQ842412
4153	>LC416533
4154	>LC416534
4155	>LC416535
4156	>LC416536
4157	>KC897073
4158	>KT353720
4159	>KX595287
4160	>KX595288
4161	>KX595289
4162	>KX595290
4163	>KX768156
4164	>KX768159
4165	>KX768160
4166	>KX768163
4167	>KX768166
4168	>KJ641623
4169	>KY012321
4170	>MT263729
4171	>MT347977
4172	>KY271944
4173	>KY272007
4174	>KY272008
4175	>KY272009
4176	>KY272010
4177	>MH118023
4178	>MH118033
4179	>MH118034
4180	>MH118035
4181	>MH118036
4182	>MH118037
4183	>MH118038
4184	>MH118039
4185	>MH118040
4186	>MH118041
4187	>MH118042
4188	>MH118043
4189	>MH118044
4190	>MH118045
4191	>MH118046
4192	>MH118047
4193	>MH118048
4194	>MH118049
4195	>MH118050
4196	>MH118051
4197	>MH118052
4198	>MH118053
4199	>MH118054
4200	>MH118055
4201	>MH118056
4202	>MH118057
4203	>MH118058
4204	>MH118059
4205	>MH118060
4206	>MH118061
4207	>MH118062
4208	>MH118063
4209	>MH118064
4210	>MH118065
4211	>MH118066
4212	>MH118067
4213	>MH118068
4214	>MH118069
4215	>MH118070
4216	>MH118071
4217	>MH118072
4218	>MH118073
4219	>MH118074
4220	>MH118075
4221	>MH118076
4222	>MH118077
4223	>MH118078
4224	>MH118079
4225	>MH118080
4226	>MH118081
4227	>MH118082
4228	>MH118083
4229	>MH118084
4230	>MH118085
4231	>MH118086
4232	>MH118087
4233	>MH118088
4234	>MH118089
4235	>MH118090
4236	>MH144590
4237	>MH144591
4238	>MH144592
4239	>MH144594
4240	>MH144595
4241	>MH144596
4242	>MH144597
4243	>MH144599
4244	>MH144603
4245	>KP009574
4246	>KP009575
4247	>KP009576
4248	>KP009577
4249	>KP009578
4250	>KP009579
4251	>KP009580
4252	>KP009581
4253	>KP289394
4254	>KP289395
4255	>KP289396
4256	>KP289397
4257	>KP289398
4258	>KP289399
4259	>KP289400
4260	>KP289401
4261	>KP289402
4262	>KP289403
4263	>KP289404
4264	>KP289405
4265	>KP289406
4266	>KP289407
4267	>KP289408
4268	>KP289409
4269	>KP289410
4270	>MK301475
4271	>MK867822
4272	>MK867823
4273	>MK867824
4274	>MK867825
4275	>MK867826
4276	>MK867828
4277	>MK867827
4278	>MK867829
4279	>ON101704
4280	>MW929238
4281	>MW929239
4282	>MW929240
4283	>MW929241
4284	>MW929242
4285	>MW929243
4286	>MW929244
4287	>MW929246
4288	>MW929245
4289	>MW929247
4290	>MW929249
4291	>MW929248
4292	>MW929250
4293	>MW929251
4294	>MW929252
4295	>MW929253
4296	>MW929254
4297	>MW929255
4298	>MW929256
4299	>MW929257
4300	>MW929258
4301	>MW929259
4302	>MW929260
4303	>MW929262
4304	>MW929261
4305	>MW929263
4306	>MW929264
4307	>MW929265
4308	>MW929267
4309	>MW929266
4310	>MW929268
4311	>MW929269
4312	>MW929270
4313	>MW929271
4314	>MW929273
4315	>MW929272
4316	>MW929274
4317	>MW929276
4318	>MW929275
4319	>MW929278
4320	>MW929277
4321	>MW929279
4322	>MW929280
4323	>MW929281
4324	>MW929282
4325	>MW929283
4326	>MW929285
4327	>MW929286
4328	>MW929284
4329	>MW929287
4330	>MW929288
4331	>MW929289
4332	>MW929290
4333	>MW929291
4334	>MW929293
4335	>MW929292
4336	>MW929294
4337	>MW929295
4338	>MW929296
4339	>MW929297
4340	>MW929298
4341	>MW929299
4342	>MW929300
4343	>MW929301
4344	>MT828546
4345	>MT828547
4346	>MT828548
4347	>MT828549
4348	>MT950046
4349	>MT950045
4350	>MT950044
4351	>MK301476
4352	>MZ441186
4353	>MZ441185
4354	>MK301477
4355	>MK301478
4356	>MK301479
4357	>KT588920
4358	>LC483986
4359	>LC483987
4360	>LC483988
4361	>HQ728262
4362	>MK645898
4363	>MK791147
4364	>MK814854
4365	>MF678312
4366	>MF688814
4367	>JF260917
4368	>JF260918
4369	>JF260919
4370	>KF422142
4371	>KF422143
4372	>MH888020
4373	>MK061424
4374	>MK061425
4375	>OM638431
4376	>ON755021
4377	>ON755022
4378	>ON755023
4379	>ON755024
4380	>ON755025
4381	>ON755026
4382	>ON755027
4383	>ON755028
4384	>ON755030
4385	>ON755029
4386	>ON755031
4387	>ON755033
4388	>ON755032
4389	>ON755034
4390	>ON755035
4391	>ON755036
4392	>JF260920
4393	>JF260921
4394	>JF260922
4395	>JF260923
4396	>JF260924
4397	>JF260925
4398	>MF678294
4399	>MT175706
4400	>MK250423
4401	>JX174176
4402	>JX174177
4403	>MH785183
4404	>LC279542
4405	>JN542510
4406	>OM963010
4407	>OM963011
4408	>MH780724
4409	>MH780725
4410	>MH780726
4411	>MH780727
4412	>MH780728
4413	>MH780729
4414	>MH780730
4415	>KP676984
4416	>KP676985
4417	>KP676986
4418	>MG431822
4419	>MK391064
4420	>MK391063
4421	>MK391067
4422	>MK391065
4423	>MK391066
4424	>MK391069
4425	>MK391068
4426	>MK391071
4427	>MK391070
4428	>MK391072
4429	>MK391073
4430	>MK391074
4431	>MK391075
4432	>MT787221
4433	>MT787220
4434	>MT787219
4435	>MT787222
4436	>MT920660
4437	>OL519574
4438	>OL519576
4439	>OL519578
4440	>MT828545
4441	>MW410985
4442	>ON730850
4443	>ON730852
4444	>ON730851
4445	>ON730854
4446	>ON730853
4447	>ON730855
4448	>ON730856
4449	>ON730858
4450	>ON730857
4451	>ON730860
4452	>ON730862
4453	>ON730861
4454	>ON730863
4455	>ON730864
4456	>ON730866
4457	>ON730865
4458	>ON730868
4459	>ON730867
4460	>ON730870
4461	>ON730869
4462	>ON730871
4463	>ON730873
4464	>ON730874
4465	>ON730875
4466	>OP255995
4467	>OP255992
4468	>KT353722
4469	>HQ728260
4470	>MK658830
4471	>MK658831
4472	>MK658832
4473	>MK658833
4474	>LT719044
4475	>KJ541163
4476	>KJ541164
4477	>MN964076
4478	>MN964077
4479	>MN964078
4480	>MN964079
4481	>MN964080
4482	>MN964081
4483	>MN964082
4484	>KY271949
4485	>KP289442
4486	>KU761262
4487	>MN663160
4488	>MT081376
4489	>MT081377
4490	>MW079817
4491	>KP289362
4492	>KP289363
4493	>KP289364
4494	>OK334537
4495	>OK334538
4496	>ON409952
4497	>OP255989
4498	>HQ728261
4499	>LR027548
4500	>LR027540
4501	>JQ041367
4502	>MT179786
4503	>KM609475
4504	>KM609476
4505	>KM609477
4506	>KM609478
4507	>KM609479
4508	>KM609480
4509	>KM609481
4510	>KP289435
4511	>KP765687
4512	>MK614087
4513	>MK681489
4514	>MK681490
4515	>MK681491
4516	>MK681492
4517	>MK681493
4518	>MK681494
4519	>MK681495
4520	>MK681496
4521	>MK681497
4522	>MK681498
4523	>MK681499
4524	>MK681500
4525	>MK681501
4526	>MK681502
4527	>MK681503
4528	>MK681504
4529	>MK681505
4530	>KT995530
4531	>KT995531
4532	>KT995532
4533	>KT995533
4534	>KT995534
4535	>KT995535
4536	>KT995536
4537	>KT995537
4538	>KT995538
4539	>KT995539
4540	>KT995540
4541	>KT995541
4542	>KT995542
4543	>KT995543
4544	>KT995544
4545	>KT995545
4546	>KT995546
4547	>KT995547
4548	>KT995548
4549	>KT995549
4550	>KT995550
4551	>KT995551
4552	>KT995552
4553	>KT995553
4554	>KT995554
4555	>KT995555
4556	>KT995556
4557	>KT995557
4558	>KT995558
4559	>KT995559
4560	>KT995560
4561	>KT995561
4562	>KT995562
4563	>KT995563
4564	>KT995564
4565	>KT995565
4566	>KT995566
4567	>KT995567
4568	>KT995568
4569	>KT995569
4570	>KT995570
4571	>KT995571
4572	>KT995572
4573	>KT995573
4574	>KT995574
4575	>KT995575
4576	>KT995576
4577	>KT995577
4578	>KT995578
4579	>KT995579
4580	>KT995580
4581	>KT995581
4582	>KT995582
4583	>KT995583
4584	>KT995584
4585	>KT995585
4586	>KT995586
4587	>KT995587
4588	>KT995588
4589	>KT995589
4590	>KT995590
4591	>KT995591
4592	>KT995592
4593	>KT995593
4594	>KT995594
4595	>KT995595
4596	>KT995596
4597	>KT995597
4598	>KT995598
4599	>KT995599
4600	>KT995600
4601	>KT995601
4602	>KT995602
4603	>KT995603
4604	>KT995604
4605	>KT995605
4606	>KT995606
4607	>KT995607
4608	>KT995608
4609	>KT995609
4610	>KT995610
4611	>KT995611
4612	>KT995612
4613	>KT995613
4614	>KT995614
4615	>KT995615
4616	>KT995616
4617	>KT995617
4618	>KT995618
4619	>KT995619
4620	>KT995620
4621	>KT995621
4622	>KT995622
4623	>KT995623
4624	>KT995624
4625	>KT995625
4626	>KT995626
4627	>KT995627
4628	>KT995628
4629	>KT995629
4630	>MK105976
4631	>KU242683
4632	>MK105977
4633	>MK105978
4634	>MK105979
4635	>MK105980
4636	>KF726085
4637	>KU982558
4638	>KU982559
4639	>KU982560
4640	>KU982561
4641	>MN240491
4642	>MN240492
4643	>MN240493
4644	>MN240494
4645	>MN240495
4646	>MN240496
4647	>MN240497
4648	>MN240498
4649	>MN240499
4650	>MN240500
4651	>MN240501
4652	>MN240502
4653	>MN240503
4654	>MN240504
4655	>MN240505
4656	>MN240506
4657	>MN240507
4658	>MN240508
4659	>MN240509
4660	>MN240510
4661	>MN240511
4662	>MN240512
4663	>MN240513
4664	>MN240514
4665	>MN240515
4666	>MN240516
4667	>MN240517
4668	>MN240518
4669	>MN240519
4670	>MK105981
4671	>MN245981
4672	>MN245982
4673	>MN245983
4674	>MN245985
4675	>MN245986
4676	>MN245987
4677	>MN245988
4678	>MN245989
4679	>MN245990
4680	>MN245991
4681	>MN245993
4682	>MN245994
4683	>MN245995
4684	>MN245996
4685	>MN245997
4686	>MN245998
4687	>MN245999
4688	>MN246001
4689	>MN246002
4690	>MN246003
4691	>MN246005
4692	>MN246006
4693	>MN246007
4694	>MN246008
4695	>MN246009
4696	>MN246011
4697	>MN246012
4698	>MN246015
4699	>MN246016
4700	>MN246017
4701	>MN246018
4702	>MN246019
4703	>MN246020
4704	>MN246021
4705	>MN246023
4706	>MN246024
4707	>MN246026
4708	>MN246039
4709	>MN259107
4710	>MN259108
4711	>MN259109
4712	>MN259110
4713	>MN259112
4714	>MN259113
4715	>MN259114
4716	>MN259115
4717	>MN259117
4718	>MN259118
4719	>MN259119
4720	>MN259120
4721	>MK268345
4722	>MN389730
4723	>MN389731
4724	>MN389732
4725	>MN389733
4726	>MN389734
4727	>MN389735
4728	>MK105982
4729	>KX255352
4730	>KX255353
4731	>KX255354
4732	>KX255355
4733	>KX255356
4734	>KX255357
4735	>KX255358
4736	>KX255359
4737	>KX255360
4738	>KX255361
4739	>KX255362
4740	>KX255363
4741	>KX255364
4742	>KX255365
4743	>KX255366
4744	>KX255367
4745	>KX255368
4746	>KX255369
4747	>KX255370
4748	>KX255371
4749	>KX255372
4750	>KX255373
4751	>KX255374
4752	>KX255375
4753	>KX255376
4754	>KX255377
4755	>KX255378
4756	>KX255379
4757	>KX255380
4758	>KX255381
4759	>KX255382
4760	>KX255383
4761	>KX255384
4762	>KX255385
4763	>KX255386
4764	>KX255387
4765	>KX255388
4766	>KX255389
4767	>KX255390
4768	>KX255391
4769	>KX255394
4770	>KX255393
4771	>KX255395
4772	>KX255398
4773	>KX255397
4774	>KX255399
4775	>KX255400
4776	>KX255402
4777	>KX255401
4778	>KX255392
4779	>KX255404
4780	>KX255403
4781	>KX255406
4782	>KX255405
4783	>KX255396
4784	>KX255408
4785	>KX255407
4786	>KX255409
4787	>KX255410
4788	>KX255411
4789	>KX255412
4790	>KX255413
4791	>KX255415
4792	>KX255414
4793	>KX261794
4794	>KX261795
4795	>KX261796
4796	>KX261797
4797	>KX261798
4798	>KX261799
4799	>KX261800
4800	>KX261801
4801	>KX261802
4802	>KX261793
4803	>KX261803
4804	>KX261804
4805	>KX261805
4806	>KX261806
4807	>KX261807
4808	>KX261809
4809	>KX261810
4810	>KX261811
4811	>KX261813
4812	>KX261812
4813	>KX261814
4814	>MK105983
4815	>KX261815
4816	>KX261816
4817	>KX261817
4818	>KX261819
4819	>KX261818
4820	>KX261821
4821	>KX261820
4822	>KX261808
4823	>KX261823
4824	>KX261824
4825	>KX261826
4826	>KX261825
4827	>KX261822
4828	>KX384960
4829	>KX433161
4830	>KX433164
4831	>KX433165
4832	>KX433166
4833	>KX433167
4834	>KX675261
4835	>KX675262
4836	>KX675263
4837	>MK105984
4838	>KX789259
4839	>MT081368
4840	>MK105985
4841	>KX957754
4842	>KX957755
4843	>KX957756
4844	>KX957757
4845	>KX957758
4846	>KX957759
4847	>KX957760
4848	>KX957761
4849	>KX957762
4850	>MK105986
4851	>JX070222
4852	>MT789734
4853	>MT789735
4854	>MT789736
4855	>MT789737
4856	>MT789738
4857	>MT789739
4858	>MT789740
4859	>MT789741
4860	>MT789742
4861	>MT789743
4862	>MT789744
4863	>MT789746
4864	>MT789747
4865	>MT789748
4866	>MT789749
4867	>MT789750
4868	>MT789751
4869	>MT789752
4870	>MT791927
4871	>MT791928
4872	>MT791929
4873	>MT791930
4874	>MT791931
4875	>MT791932
4876	>MT791933
4877	>MT791934
4878	>JX101846
4879	>MH041323
4880	>MH041324
4881	>MK105987
4882	>KY292525
4883	>KY292526
4884	>KY385880
4885	>KY385881
4886	>KY385882
4887	>KY385883
4888	>KY385884
4889	>KY385885
4890	>KY385886
4891	>KY385887
4892	>KY385888
4893	>KY385889
4894	>KY385890
4895	>KY385891
4896	>KY385892
4897	>MH330334
4898	>MH341711
4899	>MH341712
4900	>MH341713
4901	>MH341715
4902	>MH341716
4903	>MH341717
4904	>MH341718
4905	>MH341719
4906	>MH341720
4907	>MH341721
4908	>MH341722
4909	>MH341723
4910	>MH341724
4911	>MH341725
4912	>MH341726
4913	>MH341727
4914	>MH341728
4915	>MH341729
4916	>MH341730
4917	>MH341731
4918	>MH341732
4919	>MH341733
4920	>MH341734
4921	>MH341714
4922	>KM851231
4923	>KM892500
4924	>KM892501
4925	>MK105988
4926	>MK105989
4927	>KP240936
4928	>MH708882
4929	>LC068708
4930	>LC068709
4931	>LC068710
4932	>LC068711
4933	>LC107895
4934	>LC107896
4935	>LC107897
4936	>LC107898
4937	>LC107899
4938	>LC107900
4939	>LC107901
4940	>MN259111
4941	>LC629450
4942	>LC629449
4943	>LC629448
4944	>LC629447
4945	>LC629446
4946	>LC629444
4947	>LC629445
4948	>LC629443
4949	>LC629442
4950	>LC629441
4951	>LC629440
4952	>LC629439
4953	>LC629438
4954	>LC629437
4955	>LC629436
4956	>KT266905
4957	>KT280496
4958	>KT280497
4959	>KT280498
4960	>KT280499
4961	>MZ824224
4962	>KT280500
4963	>MZ824223
4964	>MZ824222
4965	>MZ824221
4966	>KT280501
4967	>KT280502
4968	>KT280503
4969	>KT280504
4970	>KT285319
4971	>KT285320
4972	>KT285484
4973	>KT285485
4974	>KT306743
4975	>KT318494
4976	>KT347223
4977	>KT347224
4978	>KT347225
4979	>KT347226
4980	>KT347227
4981	>KT347228
4982	>MW567157
4983	>MW567158
4984	>MW567159
4985	>KT347229
4986	>MW567160
4987	>MW567161
4988	>KT347230
4989	>KT347231
4990	>KT347232
4991	>KT347233
4992	>KT347234
4993	>KT347235
4994	>KT347236
4995	>KT347237
4996	>KT347238
4997	>KT347239
4998	>KT347240
4999	>KT347241
5000	>KT347242
5001	>KT347243
5002	>KT347244
5003	>KT347245
5004	>KT347246
5005	>OP389246
5006	>OP389245
5007	>KT347247
5008	>OP572038
5009	>OP572039
5010	>OP572040
5011	>OP572035
5012	>OP572043
5013	>OP572042
5014	>OP572041
5015	>OP572036
5016	>OP572037
5017	>KT347248
5018	>OP572045
5019	>OP572044
5020	>OP572046
5021	>OP572055
5022	>OP572051
5023	>OP572047
5024	>OP572054
5025	>OP572049
5026	>OP572052
5027	>OP572048
5028	>KT347249
5029	>OP572050
5030	>OP572073
5031	>OP572064
5032	>OP572063
5033	>OP572056
5034	>OP572071
5035	>OP572069
5036	>OP572072
5037	>OP572068
5038	>KT347250
5039	>OP572074
5040	>OP572057
5041	>OP572075
5042	>OP572058
5043	>OP572059
5044	>OP572061
5045	>OP572062
5046	>OP572065
5047	>OP572067
5048	>KT347251
5049	>OP572066
5050	>OP572079
5051	>OP572076
5052	>OP572082
5053	>OP572084
5054	>OP572085
5055	>OP572083
5056	>OP572077
5057	>OP572081
5058	>OP572086
5059	>KT347252
5060	>OP572078
5061	>OP572080
5062	>OP572092
5063	>OP572089
5064	>OP572088
5065	>OP572095
5066	>OP572094
5067	>OP572087
5068	>OP572093
5069	>OP572090
5070	>KT347253
5071	>OP572091
5072	>KT347254
5073	>KT347255
5074	>KT347256
5075	>KT347257
5076	>OQ451882
5077	>OQ791518
5078	>OQ791519
5079	>KT347258
5080	>OR230418
5081	>OR230416
5082	>OR230421
5083	>OR230420
5084	>OR230424
5085	>OR230417
5086	>OR230423
5087	>OR230428
5088	>KT347259
5089	>OR230422
5090	>OR230426
5091	>OR230429
5092	>OR230427
5093	>OR230419
5094	>OR230425
5095	>KT347260
5096	>KT347261
5097	>KT347262
5098	>KT347263
5099	>KT347264
5100	>KT347265
5101	>KT347266
5102	>KT347267
5103	>KT347268
5104	>KT347269
5105	>KT347270
5106	>KT347271
5107	>KT347272
5108	>KT347273
5109	>KT347274
5110	>KT347275
5111	>KT347276
5112	>KT347277
5113	>KT347278
5114	>KT347279
5115	>KT347280
5116	>KP745751
5117	>KT711078
5118	>KT711079
5119	>KT711080
5120	>KT711081
5121	>KT711082
5122	>KT711083
5123	>KT711084
5124	>KT711085
5125	>KT711086
5126	>KT711087
5127	>KT711088
5128	>KP745755
5129	>KP745757
5130	>LC495298
5131	>LC495299
5132	>MK491180
5133	>MK491181
5134	>MK491182
5135	>KT725431
5136	>KP745760
5137	>KT764078
5138	>KP745764
5139	>KP745766
5140	>KP745767
5141	>KT803995
5142	>KT825142
5143	>MZ458533
5144	>EF155422
5145	>FJ445121
5146	>MZ835609
5147	>OK649399
5148	>OL638406
5149	>LC699421
5150	>ON729333
5151	>FJ445125
5152	>MZ153287
5153	>MZ835614
5154	>MZ835577
5155	>MZ835574
5156	>MZ670586
5157	>OL961547
5158	>OK649361
5159	>OK649364
5160	>OL638408
5161	>OL638413
5162	>OL638456
5163	>OL638460
5164	>OL638461
5165	>OK181494
5166	>NC_038312
5167	>KY684757
5168	>MZ460671
5169	>MZ322924
5170	>OM001374
5171	>OM001380
5172	>OK017965
5173	>DQ473485
5174	>EF173422
5175	>DQ473496
5176	>FJ445134
5177	>KY369896
5178	>LC530048
5179	>MZ629143
5180	>MZ153248
5181	>MZ268733
5182	>MZ835612
5183	>MZ835608
5184	>OL961540
5185	>OM001351
5186	>OM001390
5187	>OK254862
5188	>OL133733
5189	>OL133734
5190	>OL133741
5191	>OK017969
5192	>OK161386
5193	>OK181454
5194	>FJ445135
5195	>FJ445142
5196	>MZ670593
5197	>OL961521
5198	>OM001348
5199	>OL638449
5200	>OK017916
5201	>OK017950
5202	>LC699420
5203	>FJ445145
5204	>FJ445147
5205	>FJ445176
5206	>DQ473503
5207	>FJ445153
5208	>MK532311
5209	>MK800121
5210	>KX139459
5211	>KX139460
5212	>MF678296
5213	>MF678297
5214	>MF678298
5215	>MF678348
5216	>MT347976
5217	>KJ957190
5218	>MH118026
5219	>KP099941
5220	>JX976772
5221	>HM031191
5222	>OQ791514
5223	>OQ842423
5224	>OQ842428
5225	>MK159694
5226	>KU355273
5227	>MF678316
5228	>MF678323
5229	>MF678325
5230	>MF678339
5231	>KJ765699
5232	>MH043132
5233	>MH043133
5234	>MH043134
5235	>MH043135
5236	>MH043136
5237	>MH043137
5238	>KP202389
5239	>KP266569
5240	>KP266570
5241	>MH732737
5242	>OL614976
5243	>OQ842414
5244	>MZ394039
5245	>KU695562
5246	>KF734978
5247	>KP890662
5248	>KP890663
5249	>KP890664
5250	>JN205461
5251	>KF958310
5252	>KF958311
5253	>MN306023
5254	>MN306026
5255	>MN306035
5256	>MN369030
5257	>MN369031
5258	>MN369033
5259	>KJ675505
5260	>KJ675506
5261	>KJ675507
5262	>KY369879
5263	>KY369880
5264	>KY369882
5265	>GQ223227
5266	>GQ223228
5267	>MH330336
5268	>GU219984
5269	>MZ447875
5270	>MZ438010
5271	>MZ268701
5272	>MW679009
5273	>MW679007
5274	>MZ268682
5275	>MZ268666
5276	>MZ667421
5277	>OL961524
5278	>OL961531
5279	>OL961535
5280	>OL961544
5281	>OM001346
5282	>OM001354
5283	>OM001407
5284	>OM001408
5285	>OM001412
5286	>OM001438
5287	>OM001451
5288	>JF317013
5289	>JF317014
5290	>JF317016
5291	>JF317017
5292	>MW775345
5293	>MZ389224
5294	>KP289440
5295	>KP289441
5296	>LS451299
5297	>KP289436
5298	>MW481633
5299	>OQ842415
5300	>MN166092
5301	>KX139446
5302	>KX139447
5303	>KX139449
5304	>KX139450
5305	>KX139451
5306	>KX139452
5307	>KX139453
5308	>KX139454
5309	>KX139455
5310	>KX139456
5311	>KX139457
5312	>KX139458
5313	>MF678301
5314	>MN749143
5315	>MN749146
5316	>KX767786
5317	>MG720256
5318	>MG720257
5319	>MG720258
5320	>MG720259
5321	>MG720260
5322	>MG720261
5323	>MT350224
5324	>HM777023
5325	>KY828851
5326	>KY828852
5327	>MT755385
5328	>MN792654
5329	>MN808792
5330	>MN808794
5331	>MN808793
5332	>MN815810
5333	>MN815811
5334	>MN815812
5335	>MN815813
5336	>ON985268
5337	>ON985269
5338	>OQ791557
5339	>OQ791558
5340	>OQ791559
5341	>OQ791562
5342	>OQ791564
5343	>OQ842422
5344	>OQ842421
5345	>KY792585
5346	>MH745407
5347	>MK000148
5348	>MK000191
5349	>MK000216
5350	>KF812551
5351	>KX060810
5352	>MN481500
5353	>MK652136
5354	>MH144604
5355	>MW775347
5356	>MK689070
5357	>OQ791570
5358	>ON873778
5359	>ON873779
5360	>ON873780
5361	>ON873782
5362	>ON873784
5363	>ON873783
5364	>KT965725
5365	>KU379646
5366	>KX808644
5367	>AJ849942
5368	>KM388538
5369	>KT353723
5370	>OP207971
5371	>MK791150
5372	>OK539492
5373	>OK539493
5374	>OK539497
5375	>OK539500
5376	>OK539506
5377	>OK539507
5378	>OK539508
5379	>OK649360
5380	>OK649366
5381	>OK649368
5382	>OK649370
5383	>OK649371
5384	>OK649373
5385	>OK649374
5386	>OK649375
5387	>OK649382
5388	>OK649383
5389	>OK649401
5390	>OK649405
5391	>OK649406
5392	>OK649408
5393	>OK649411
5394	>OK649414
5395	>OK649415
5396	>OK649417
5397	>OK649419
5398	>OK649420
5399	>OK649421
5400	>OK649423
5401	>OK649424
5402	>OL133724
5403	>OL133725
5404	>OL133727
5405	>OL133728
5406	>OL133729
5407	>OL133731
5408	>OL133732
5409	>OL133737
5410	>OL133742
5411	>OL133743
5412	>FJ445111
5413	>OL133744
5414	>OL133745
5415	>OL133747
5416	>OL133749
5417	>OL133751
5418	>OL133752
5419	>OL133754
5420	>OL133755
5421	>OL133762
5422	>OL133763
5423	>MF973193
5424	>OL133764
5425	>OL365069
5426	>OL365071
5427	>OL638404
5428	>OL638405
5429	>OL638407
5430	>OL638411
5431	>OL638414
5432	>OL638416
5433	>OL638423
5434	>MF973194
5435	>OL638428
5436	>OL638429
5437	>OL638430
5438	>OL638432
5439	>OL638436
5440	>OL638438
5441	>OL638439
5442	>OL638440
5443	>OL638443
5444	>OL638450
5445	>NC_038311
5446	>OL638451
5447	>OL638452
5448	>OL638457
5449	>OL638466
5450	>OK017933
5451	>OK017941
5452	>OK017956
5453	>OK017968
5454	>OK161353
5455	>OK161356
5456	>OK161357
5457	>OK161361
5458	>OK161362
5459	>OK161363
5460	>OK161365
5461	>OK161369
5462	>OK161370
5463	>OK161376
5464	>OK161379
5465	>OK161383
5466	>OK161387
5467	>OK161388
5468	>OK161389
5469	>OK161390
5470	>OK161395
5471	>OK161394
5472	>OK161399
5473	>OK161401
5474	>OK161405
5475	>OK161407
5476	>OK161408
5477	>OK161411
5478	>OK181452
5479	>OK181453
5480	>OK181456
5481	>OK181459
5482	>OK181460
5483	>OK181461
5484	>OK181463
5485	>OK181469
5486	>OK181470
5487	>OK181473
5488	>OK181474
5489	>OK181476
5490	>OK181477
5491	>OK181478
5492	>OK181479
5493	>OK181481
5494	>OK181483
5495	>OK181485
5496	>MZ629153
5497	>OK181489
5498	>OK181490
5499	>OK181496
5500	>OK181498
5501	>OK181502
5502	>MZ629152
5503	>MZ629149
5504	>MZ629138
5505	>LC699424
5506	>OQ791522
5507	>OQ791565
5508	>OQ842402
5509	>MZ629132
5510	>MZ629127
5511	>MZ629124
5512	>MZ629118
5513	>MZ629117
5514	>MZ629114
5515	>MZ540949
5516	>MZ460702
5517	>MZ460699
5518	>MZ460674
5519	>MZ460672
5520	>MZ427506
5521	>MZ363421
5522	>MZ268740
5523	>MZ268732
5524	>MZ268703
5525	>MZ268672
5526	>MZ268665
5527	>MZ153280
5528	>MZ153265
5529	>MZ835611
5530	>MZ835607
5531	>MZ835606
5532	>MZ835605
5533	>MZ835603
5534	>MZ835594
5535	>MZ835592
5536	>MZ835589
5537	>MZ835584
5538	>MZ835580
5539	>MZ835578
5540	>MZ835563
5541	>MZ670594
5542	>MZ670587
5543	>MZ670582
5544	>MZ670579
5545	>MZ670578
5546	>MZ670574
5547	>OK254826
5548	>OK254827
5549	>OK254830
5550	>OK254833
5551	>OK254838
5552	>OK254837
5553	>OK254842
5554	>OK254843
5555	>OK254844
5556	>OK254845
5557	>OK254851
5558	>OK254854
5559	>OK254857
5560	>OK254859
5561	>OK254865
5562	>OK254864
5563	>OK254867
5564	>OK254873
5565	>OK254875
5566	>OK254877
5567	>OK254879
5568	>OK539460
5569	>OK539461
5570	>OK539463
5571	>OK539469
5572	>OK539470
5573	>OK539475
5574	>OK539479
5575	>OK539480
5576	>OK539481
5577	>OK539482
5578	>OK539483
5579	>OK539485
5580	>OK539486
5581	>OK539489
5582	>OK539490
5583	>AB426608
5584	>AB426609
5585	>GQ323774
5586	>JQ041368
5587	>MF678295
5588	>MF678305
5589	>MF678306
5590	>MF678317
5591	>MF678331
5592	>MF678342
5593	>MF678343
5594	>KX499536
5595	>MH144600
5596	>MW365443
5597	>MZ396300
5598	>OQ842440
5599	>OQ842443
5600	>OQ842444
5601	>MK106197
5602	>OL519577
5603	>LC715248
5604	>LC715423
5605	>OM179765
5606	>OL839935
5607	>OL839934
5608	>OL839939
5609	>OL839940
5610	>OL839942
5611	>OL839941
5612	>OL839936
5613	>OL839938
5614	>OL839937
5615	>OL839948
5616	>OL839950
5617	>OL839944
5618	>OL839943
5619	>OL839945
5620	>OL839946
5621	>OL839947
5622	>OL830027
5623	>OL830028
5624	>OL830029
5625	>OL830030
5626	>OL830031
5627	>OL830032
5628	>OL830034
5629	>OL830033
5630	>OL830035
5631	>OL830036
5632	>OL830037
5633	>OL830038
5634	>OL830039
5635	>OL830040
5636	>MW399172
5637	>MW399171
5638	>MW399173
5639	>MW399174
5640	>OP207970
5641	>MK106198
5642	>OQ215746
5643	>OP940108
5644	>MK106199
5645	>MK106200
5646	>MK106201
5647	>MK106202
5648	>MK106203
5649	>LC506446
5650	>LC506447
5651	>LC506448
5652	>LC506449
5653	>LC506450
5654	>LC506451
5655	>LC506452
5656	>LC506453
5657	>LC506454
5658	>MK510082
5659	>LC530049
5660	>MK106204
5661	>KT779410
5662	>KT779411
5663	>KT779412
5664	>KT779413
5665	>LR027552
5666	>MK652140
5667	>MK106205
5668	>MK791146
5669	>MK106206
5670	>LT719047
5671	>LT719048
5672	>MK106207
5673	>AB678778
5674	>MK106208
5675	>AB779614
5676	>AB779615
5677	>AB779616
5678	>AB779617
5679	>AB779618
5680	>MK106209
5681	>MK106210
5682	>KF682362
5683	>KF682363
5684	>MK106211
5685	>MK106212
5686	>MN032612
5687	>MF285621
5688	>MF285622
5689	>MF285623
5690	>MF285624
5691	>MF285625
5692	>MF285626
5693	>MF285627
5694	>MF285628
5695	>MF285629
5696	>MF285630
5697	>MF285631
5698	>MF285632
5699	>MF285633
5700	>MF285634
5701	>MF285635
5702	>MF285636
5703	>MF285637
5704	>MF285638
5705	>MF285639
5706	>MF285640
5707	>MF285641
5708	>MF285642
5709	>MF285643
5710	>MF285644
5711	>MF285645
5712	>MF285646
5713	>MF285647
5714	>MF285648
5715	>MF285649
5716	>MF285650
5717	>MF285651
5718	>MF285652
5719	>MF285653
5720	>MF285654
5721	>MF285655
5722	>MF285656
5723	>MF285657
5724	>MF285658
5725	>MF285659
5726	>MF285660
5727	>MF285661
5728	>MF285662
5729	>MF285663
5730	>MF285664
5731	>MF285665
5732	>MF285666
5733	>MF285667
5734	>MF285668
5735	>MF285669
5736	>MF285670
5737	>MF285671
5738	>MF285672
5739	>MF285673
5740	>MF285674
5741	>MF285675
5742	>MF285676
5743	>MF285677
5744	>MF285678
5745	>MK106213
5746	>MF285679
5747	>MF285680
5748	>MF285681
5749	>MF285682
5750	>MF285683
5751	>MF285684
5752	>MK106214
5753	>MK106215
5754	>KX064282
5755	>KX064283
5756	>KX064284
5757	>KX064285
5758	>KX064286
5759	>KX064287
5760	>KX064288
5761	>KX064289
5762	>KX064290
5763	>KX064291
5764	>KX064292
5765	>KX064293
5766	>KX064294
5767	>KX064295
5768	>KX064296
5769	>KX064297
5770	>KX064298
5771	>KX064299
5772	>KX064300
5773	>KX064301
5774	>KX064302
5775	>KX064303
5776	>KX064304
5777	>KX064305
5778	>KX064306
5779	>MK106216
5780	>KX064307
5781	>KX064308
5782	>JN582001
5783	>MK106189
5784	>MF678318
5785	>KX189177
5786	>KX189178
5787	>KX189179
5788	>KX189180
5789	>KX189181
5790	>KX189182
5791	>KX189183
5792	>KX189184
5793	>KX189185
5794	>KX189186
5795	>KX189187
5796	>KX189188
5797	>KX189189
5798	>KX189190
5799	>KX189191
5800	>KX189192
5801	>KX189193
5802	>KX189194
5803	>MN689954
5804	>KX430796
5805	>KX595285
5806	>KX595286
5807	>MN845761
5808	>MN845762
5809	>MN845763
5810	>MN845764
5811	>MN845765
5812	>MN845766
5813	>MN845767
5814	>MN845768
5815	>MN845769
5816	>MN845770
5817	>MN845771
5818	>MN845772
5819	>MN845773
5820	>MN845774
5821	>MN845775
5822	>MN845776
5823	>MN845777
5824	>MN845778
5825	>MN845779
5826	>MN845780
5827	>MN845781
5828	>MN845782
5829	>MN845783
5830	>MN845784
5831	>MN845785
5832	>MN845786
5833	>MN845787
5834	>MN845788
5835	>MN845789
5836	>KX752785
5837	>MN845790
5838	>MN845791
5839	>MN845792
5840	>MN845793
5841	>MN845794
5842	>MN845795
5843	>MN845796
5844	>MN845797
5845	>MN845798
5846	>MN845799
5847	>MN845800
5848	>MN845801
5849	>MN845802
5850	>MN845803
5851	>MN845804
5852	>MN845805
5853	>MN845806
5854	>MN845807
5855	>MN845808
5856	>MN845809
5857	>MN845810
5858	>MN845811
5859	>MN845812
5860	>MN845813
5861	>MN845814
5862	>MN845815
5863	>MN845816
5864	>MN845817
5865	>MN845818
5866	>MN845819
5867	>MN845820
5868	>MN845821
5869	>MN845822
5870	>MN845823
5871	>MN845824
5872	>MN845825
5873	>MN845826
5874	>MN845827
5875	>MN845828
5876	>MN845829
5877	>MN845830
5878	>MN845831
5879	>MN845832
5880	>MN845833
5881	>MN845834
5882	>MN845835
5883	>MN845836
5884	>MN845837
5885	>MN845838
5886	>MN845839
5887	>MN845840
5888	>MN845841
5889	>MN845842
5890	>MN845843
5891	>MN845844
5892	>MN845845
5893	>MN845846
5894	>MN845847
5895	>MN845848
5896	>MN845849
5897	>MN845850
5898	>MN845851
5899	>MN845852
5900	>MN845853
5901	>MN845854
5902	>MN845855
5903	>MN845856
5904	>MN845857
5905	>MN845858
5906	>MN845859
5907	>MN845860
5908	>MN845861
5909	>MN845862
5910	>MN845863
5911	>MN845864
5912	>MN845865
5913	>MN845866
5914	>MN845867
5915	>MN845868
5916	>MN845869
5917	>MN845870
5918	>MN845871
5919	>MN845872
5920	>MN845873
5921	>MN845874
5922	>MN845875
5923	>MN845876
5924	>MN845877
5925	>KJ541154
5926	>MN845878
5927	>KJ541155
5928	>MN845879
5929	>KJ541156
5930	>MN845880
5931	>MN845881
5932	>KJ541157
5933	>KJ541158
5934	>MN845882
5935	>KJ541159
5936	>MN845883
5937	>KJ541160
5938	>MN845884
5939	>MN845885
5940	>KJ541161
5941	>MN845886
5942	>KJ541162
5943	>MN845887
5944	>MN845888
5945	>MN845889
5946	>KJ541165
5947	>MN845890
5948	>KJ541166
5949	>MN845891
5950	>KJ541167
5951	>KJ541168
5952	>KJ541169
5953	>MF991290
5954	>MF991291
5955	>MF991292
5956	>MF991293
5957	>MF991294
5958	>MF991295
5959	>MF991296
5960	>MF991297
5961	>MK106190
5962	>KJ612513
5963	>MT350225
5964	>MT350226
5965	>MT350227
5966	>MT350228
5967	>MT350229
5968	>MT350230
5969	>JQ946050
5970	>JQ946051
5971	>JQ946052
5972	>JQ946053
5973	>JQ946054
5974	>JQ946055
5975	>JQ964234
5976	>MT814404
5977	>MT814405
5978	>MT814406
5979	>MT814407
5980	>MT814408
5981	>MT814409
5982	>MT814410
5983	>MT814411
5984	>MT814412
5985	>MT814413
5986	>MT814414
5987	>MT814415
5988	>MT814416
5989	>MT814417
5990	>MT814418
5991	>MT814419
5992	>MT814420
5993	>MT814421
5994	>MT814422
5995	>MT814423
5996	>MT814424
5997	>MT814425
5998	>MT814426
5999	>MT814427
6000	>MT814428
6001	>MT814429
6002	>MT814430
6003	>MT814431
6004	>MT814432
6005	>MT814433
6006	>MT814434
6007	>MT814435
6008	>MT814436
6009	>MT814437
6010	>MT814438
6011	>MT814439
6012	>MT814440
6013	>MT814441
6014	>MT814442
6015	>MT814443
6016	>MT814444
6017	>MT814445
6018	>MT814446
6019	>MT814447
6020	>MT814448
6021	>MT814449
6022	>MT814450
6023	>MT814451
6024	>MT814452
6025	>MT814453
6026	>MT814454
6027	>MT814455
6028	>MT814456
6029	>MT814457
6030	>MT814458
6031	>MT814459
6032	>MT814460
6033	>MT814461
6034	>MT814462
6035	>MT814463
6036	>MT814464
6037	>MT814465
6038	>MT814466
6039	>MT814467
6040	>MT814468
6041	>MT814469
6042	>MT814470
6043	>MT814471
6044	>MT814472
6045	>MT814473
6046	>MT814474
6047	>MT814475
6048	>MT814476
6049	>MT814477
6050	>MT814478
6051	>MT814479
6052	>MT814480
6053	>MT814481
6054	>MT814482
6055	>MT814483
6056	>MT814484
6057	>MT814485
6058	>MT814486
6059	>MT814487
6060	>MT814488
6061	>MT814489
6062	>MT814490
6063	>MT814491
6064	>MT814492
6065	>MT814493
6066	>MT814494
6067	>MT814495
6068	>MT814496
6069	>MT814497
6070	>MT814498
6071	>MT814499
6072	>MT814500
6073	>MT814501
6074	>MT814502
6075	>MT814503
6076	>MT814504
6077	>MT814505
6078	>MT814506
6079	>MT814507
6080	>MT814508
6081	>MT814509
6082	>MT814510
6083	>MT814511
6084	>MT814512
6085	>MT814513
6086	>MT814514
6087	>MT814515
6088	>MT814516
6089	>MT814517
6090	>MT814518
6091	>MT814519
6092	>MT814520
6093	>MT814521
6094	>MT814522
6095	>MT814523
6096	>MT814524
6097	>MT814525
6098	>MT814526
6099	>MT814527
6100	>MT814528
6101	>MT814529
6102	>MT814530
6103	>MT814531
6104	>MT814532
6105	>MT814533
6106	>MT814534
6107	>MT814535
6108	>MT814536
6109	>MT814537
6110	>MT814538
6111	>MT814539
6112	>MT814540
6113	>MT814541
6114	>MK106191
6115	>MT814542
6116	>MT814543
6117	>MT814544
6118	>MT814545
6119	>MT814546
6120	>MT814547
6121	>MT814548
6122	>MT814549
6123	>MT814550
6124	>MT814551
6125	>MT814552
6126	>MT814553
6127	>MT814554
6128	>MT814555
6129	>MT814556
6130	>MT814557
6131	>MT814558
6132	>MT814559
6133	>MT814560
6134	>MT814561
6135	>MT814562
6136	>MT814563
6137	>MT814564
6138	>MT814565
6139	>MT814566
6140	>MT814567
6141	>MT814568
6142	>MT814569
6143	>MT814570
6144	>MT814571
6145	>MT814572
6146	>MT814573
6147	>MT814574
6148	>MT814575
6149	>MT814576
6150	>MT814577
6151	>MT814578
6152	>MT814579
6153	>MT814580
6154	>MT814581
6155	>MT814582
6156	>MT814583
6157	>MT814584
6158	>MT814585
6159	>MT814586
6160	>MT814587
6161	>MT814588
6162	>MT814589
6163	>MT814590
6164	>MT814591
6165	>MT814592
6166	>MT814593
6167	>MT814594
6168	>MT814595
6169	>MT814596
6170	>MT814597
6171	>MT814598
6172	>MT814599
6173	>MT814600
6174	>MT814601
6175	>MT814602
6176	>MT814603
6177	>MT814604
6178	>MT814605
6179	>MT814606
6180	>MT814607
6181	>MT814608
6182	>MT814609
6183	>MT814610
6184	>MT814611
6185	>MT814612
6186	>MT814613
6187	>MT814614
6188	>MT814615
6189	>MT814616
6190	>MH049745
6191	>MH049746
6192	>MH049747
6193	>MH049748
6194	>KY126089
6195	>KY126090
6196	>KY126091
6197	>KY126092
6198	>KM114057
6199	>MK106193
6200	>MH371303
6201	>MH536772
6202	>MH539784
6203	>MH539785
6204	>MH539786
6205	>MH539787
6206	>MK106194
6207	>KP289365
6208	>KP289366
6209	>KP289367
6210	>KP289368
6211	>KP289369
6212	>KP289370
6213	>KP289371
6214	>KP289372
6215	>KP289373
6216	>KP289374
6217	>KP289375
6218	>KP289376
6219	>KP289377
6220	>KP289378
6221	>KP289379
6222	>KP289380
6223	>KP289381
6224	>KP289382
6225	>KP289383
6226	>KP289384
6227	>KP289385
6228	>KP289386
6229	>KP289387
6230	>KP289388
6231	>KP289389
6232	>KP289390
6233	>KP289391
6234	>KP289392
6235	>KP289393
6236	>MH716144
6237	>MK106195
6238	>KR706309
6239	>LC126143
6240	>LC126144
6241	>LC126145
6242	>LC126146
6243	>LC126147
6244	>LC126148
6245	>LC126150
6246	>LC126149
6247	>LC126151
6248	>LC126152
6249	>LC126153
6250	>LC126154
6251	>LC126155
6252	>LC126156
6253	>LC126157
6254	>LC126158
6255	>LC126159
6256	>LC126160
6257	>LC126161
6258	>LC126162
6259	>LC126163
6260	>LC126164
6261	>KR815992
6262	>MW410845
6263	>MN184856
6264	>MN184855
6265	>MN184854
6266	>MN184853
6267	>MN184852
6268	>MK106196
6269	>MZ546175
6270	>MH128992
6271	>MH128993
6272	>GQ865517
6273	>MN580134
6274	>MN580135
6275	>MN580136
