0	>NC_006213
1	>AY391777
2	>AY585228
3	>AY585229
4	>AY903459
5	>AY903460
6	>JN129834
7	>JN129835
8	>KF530068
9	>KF530071
10	>KF530070
11	>KF530072
12	>KF530067
13	>KF530065
14	>KF530066
15	>KF530075
16	>KF530073
17	>KF530076
18	>KF530069
19	>KF530074
20	>KF530060
21	>KF530064
22	>KF530061
23	>KF530063
24	>KF530080
25	>KF530081
26	>KF530084
27	>KF530083
28	>KF530082
29	>KF530077
30	>KF530079
31	>KF530078
32	>KF530085
33	>KF530095
34	>KF530090
35	>KF530091
36	>KF530092
37	>KF530086
38	>KF530094
39	>KF530087
40	>KF530089
41	>KF530088
42	>KF530096
43	>KF530097
44	>KF530098
45	>KF530099
46	>KF923890
47	>KF923891
48	>KF923888
49	>KF923889
50	>KF923886
51	>KF923887
52	>KF923901
53	>KF923900
54	>KF923902
55	>KF923898
56	>KF923899
57	>KF923894
58	>KF923892
59	>KF923893
60	>KF923897
61	>KF923896
62	>KF923895
63	>KF923905
64	>KF923904
65	>KF923903
66	>KF923908
67	>KF923907
68	>KF923906
69	>KF923909
70	>KF923910
71	>KF923911
72	>KF923912
73	>KF923913
74	>KF923915
75	>KF923914
76	>KF923918
77	>KF923919
78	>KF923916
79	>KF923917
80	>KF923920
81	>KF923921
82	>KF923922
83	>KF923923
84	>KF923924
85	>KF923925
86	>KJ958219
87	>KJ958218
88	>KP198611
89	>KP198610
90	>KU131570
91	>KX344031
92	>KX538964
93	>KX538965
94	>KX538966
95	>KX538967
96	>KX538969
97	>KX538970
98	>KX538973
99	>KX538972
100	>KX538974
101	>KX538978
102	>KX538976
103	>KX538975
104	>KX538979
105	>KX538968
106	>KX538977
107	>KX538971
108	>KY369905
109	>KY369907
110	>KY014281
111	>KY014282
112	>KY369906
113	>KY554972
114	>KY554974
115	>KY554973
116	>KY554975
117	>KY674917
118	>KY674920
119	>KY674918
120	>KY684759
121	>KY967360
122	>KY967359
123	>KY967358
124	>KY967356
125	>KY983585
126	>KY983583
127	>KY967361
128	>KY983588
129	>LC315646
130	>LC315648
131	>LC315647
132	>LC315649
133	>LC687399
134	>LC687400
135	>LC687398
136	>MF314143
137	>MF374984
138	>MF374983
139	>MF374985
140	>MG197709
141	>MG197710
142	>MG197711
143	>MG197712
144	>MG197716
145	>MG197715
146	>MG197714
147	>MG197713
148	>MG197717
149	>MG197720
150	>MG197718
151	>MG197721
152	>MG197723
153	>MG197719
154	>MG197722
155	>MG977444
156	>MG977445
157	>MG977447
158	>MG977449
159	>MG977451
160	>MG977452
161	>MH121121
162	>MK303620
163	>MK303619
164	>MK303624
165	>MK303625
166	>MK303622
167	>MK303621
168	>MK303623
169	>MN306036
170	>MN306042
171	>MN306041
172	>MN026164
173	>MN306053
174	>MN310476
175	>MN306043
176	>MN310478
177	>MW411432
178	>MW411433
179	>MW938760
180	>OK391221
181	>OK391226
182	>OK391225
183	>OK391223
184	>OK391228
185	>OK391224
186	>OK391227
187	>OK662397
188	>OL770288
189	>OL770287
190	>OK391222
191	>OK391230
192	>MW559057
193	>ON376724
194	>ON376725
195	>LC720429
196	>LC720427
197	>OK073087
198	>OK073089
199	>OK073088
200	>OK073090
201	>OK073091
202	>OM386794
203	>OM386795
204	>OM386796
205	>OM386798
206	>OM386797
207	>OM386799
208	>OQ331224
209	>LC756669
210	>LC756670
211	>MZ221192
212	>ON554023
213	>ON554026
214	>ON554027
215	>ON554024
216	>ON554029
217	>ON554031
218	>ON554028
219	>ON554030
220	>ON554025
221	>ON554032
222	>ON554033
223	>ON554036
224	>ON554034
225	>ON554035
226	>ON554038
227	>ON554039
228	>ON554037
229	>ON554041
230	>ON554042
231	>ON554040
232	>ON554043
233	>ON554047
234	>ON554044
235	>ON554046
236	>ON554045
237	>ON554048
238	>ON554049
239	>ON554050
240	>ON554053
241	>ON554051
242	>ON554054
243	>ON554052
244	>ON554056
245	>ON554055
246	>ON554057
247	>ON554059
248	>ON554062
249	>ON554061
250	>ON554058
251	>ON554063
252	>ON554060
253	>ON554064
254	>ON554065
255	>ON554066
256	>ON554067
257	>ON554069
258	>ON554068
259	>ON554070
260	>ON554071
261	>ON554074
262	>ON554072
263	>ON554076
264	>ON554077
265	>ON554073
266	>ON554075
267	>ON554078
268	>ON554079
269	>ON554080
270	>ON554081
271	>ON554082
272	>ON554083
273	>ON554085
274	>ON554084
275	>ON554086
276	>ON554089
277	>ON554087
278	>ON554088
279	>ON554091
280	>ON554093
281	>ON554092
282	>ON554094
283	>ON554095
284	>ON554096
285	>ON554090
286	>OQ828657
287	>OQ079159
288	>OQ079158
