CHROM	POS	N	zScore
MN908947.3	45	1	1
MN908947.3	46	1	1
MN908947.3	47	1	1
MN908947.3	48	1	1
MN908947.3	49	1	1
MN908947.3	50	1	1
MN908947.3	51	2	1
MN908947.3	52	2	1
MN908947.3	53	2	1
MN908947.3	54	2	1
MN908947.3	55	2	1
MN908947.3	56	2	1
MN908947.3	57	2	-3.2