>MN306034	>MN306034	Cluster1_1	Cluster1_1	0	1
>MZ629135	>MZ629135	Cluster2_1	Cluster2_1	1	1
>FJ445166	>FJ445166	Cluster3_1	Cluster3_1	2	1
>FJ445184	>FJ445184	Cluster4_1	Cluster4_1	3	1
>FJ445165	>FJ445165	Cluster5_1	Cluster5_1	4	1
>MZ835562	>MZ835562	Cluster6_1	Cluster6_1	5	1
>OK649369	>OK649369	Cluster7_1	Cluster7_1	6	1
>OM001415	>OM001415	Cluster8_1	Cluster8_1	7	1
>OK254881	>OK254881	Cluster9_1	Cluster9_1	8	1
>MZ363438	>MZ363438	Cluster10_1	Cluster10_1	9	1
>MZ268650	>MZ268650	Cluster11_1	Cluster11_1	10	1
>FJ445118	>FJ445118	Cluster12_1	Cluster12_1	11	1
>MZ629131	>MZ629131	Cluster13_1	Cluster13_1	12	1
>FJ445120	>FJ445120	Cluster14_1	Cluster14_1	13	1
>FJ445132	>FJ445132	Cluster15_1	Cluster15_1	14	1
>OL770291	>OL770291	Cluster16_2	Cluster16_2	15	2
>OL770290	>OL770291	Cluster16_2	Cluster16_2	16	2
>ON881124	>ON881124	Cluster17_1	Cluster17_1	17	1
>EF173424	>EF173424	Cluster18_1	Cluster18_1	18	1
>FJ445137	>FJ445137	Cluster19_1	Cluster19_1	19	1
>FJ445188	>FJ445188	Cluster20_1	Cluster20_1	20	1
>FJ445151	>FJ445151	Cluster21_1	Cluster21_1	21	1
>EF173423	>EF173423	Cluster22_1	Cluster22_1	22	1
>OK161377	>OK161377	Cluster23_1	Cluster23_1	23	1
>OK161382	>OK161382	Cluster24_1	Cluster24_1	24	1
>OM001417	>OM001417	Cluster25_2	Cluster25_2	118	2
>OK161384	>OM001417	Cluster25_2	Cluster25_2	25	2
>OK161403	>OK161403	Cluster26_2	Cluster26_2	26	2
>OL638455	>OK161403	Cluster26_2	Cluster26_2	82	2
>OK181464	>OK181464	Cluster27_2	Cluster27_2	27	2
>OL638445	>OK181464	Cluster27_2	Cluster27_2	80	2
>OK181492	>OK181492	Cluster28_1	Cluster28_1	28	1
>MZ629157	>MZ629157	Cluster29_1	Cluster29_1	29	1
>MZ629154	>MZ629154	Cluster30_1	Cluster30_1	30	1
>MZ629150	>MZ629150	Cluster31_1	Cluster31_1	31	1
>MZ629116	>MZ629116	Cluster32_1	Cluster32_1	32	1
>MZ629111	>MZ629111	Cluster33_1	Cluster33_1	33	1
>MZ629108	>MZ629108	Cluster34_1	Cluster34_1	34	1
>MZ540953	>MZ540953	Cluster35_2	Cluster35_2	35	2
>MZ540942	>MZ540953	Cluster35_2	Cluster35_2	36	2
>MZ460710	>MZ460710	Cluster36_1	Cluster36_1	37	1
>MZ460679	>MZ460679	Cluster37_1	Cluster37_1	38	1
>MZ460678	>MZ460678	Cluster38_1	Cluster38_1	39	1
>MZ427503	>MZ427503	Cluster39_1	Cluster39_1	40	1
>DQ473486	>DQ473486	Cluster40_1	Cluster40_1	41	1
>MZ363443	>MZ363443	Cluster41_1	Cluster41_1	42	1
>MZ363431	>MZ363431	Cluster42_1	Cluster42_1	43	1
>MZ363419	>MZ363419	Cluster43_1	Cluster43_1	44	1
>MZ268654	>MZ268654	Cluster44_1	Cluster44_1	45	1
>MZ153282	>MZ153282	Cluster45_1	Cluster45_1	46	1
>MZ153247	>MZ153247	Cluster46_1	Cluster46_1	47	1
>MZ835615	>MZ835615	Cluster47_1	Cluster47_1	48	1
>MZ835613	>MZ835613	Cluster48_1	Cluster48_1	49	1
>MZ835595	>MZ835595	Cluster49_1	Cluster49_1	50	1
>MZ835583	>MZ835583	Cluster50_1	Cluster50_1	51	1
>MZ835567	>MZ835567	Cluster51_1	Cluster51_1	52	1
>MZ835566	>MZ835566	Cluster52_1	Cluster52_1	53	1
>MZ670591	>MZ670591	Cluster53_1	Cluster53_1	54	1
>MZ670571	>MZ670571	Cluster54_1	Cluster54_1	55	1
>MZ670572	>MZ670572	Cluster55_1	Cluster55_1	56	1
>OK254836	>OK254836	Cluster56_1	Cluster56_1	57	1
>OK254841	>OK254841	Cluster57_1	Cluster57_1	58	1
>OK254840	>OK254840	Cluster58_1	Cluster58_1	59	1
>OK254846	>OK254846	Cluster59_1	Cluster59_1	60	1
>OK254848	>OK254848	Cluster60_1	Cluster60_1	61	1
>OK539502	>OK539502	Cluster61_1	Cluster61_1	62	1
>OK649359	>OK649359	Cluster62_1	Cluster62_1	63	1
>OK649379	>OK649379	Cluster63_2	Cluster63_2	64	2
>OM001402	>OK649379	Cluster63_2	Cluster63_2	116	2
>OK649394	>OK649394	Cluster64_1	Cluster64_1	65	1
>OK649398	>OK649398	Cluster65_1	Cluster65_1	66	1
>OK649403	>OK649403	Cluster66_1	Cluster66_1	67	1
>OK649426	>OK649426	Cluster67_2	Cluster67_2	71	2
>OK649410	>OK649426	Cluster67_2	Cluster67_2	68	2
>OK649412	>OK649412	Cluster68_1	Cluster68_1	69	1
>OK649413	>OK649413	Cluster69_1	Cluster69_1	70	1
>OL133761	>OL133761	Cluster70_1	Cluster70_1	72	1
>OL133766	>OL133766	Cluster71_1	Cluster71_1	73	1
>OL365067	>OL365067	Cluster72_1	Cluster72_1	74	1
>OL638410	>OL638410	Cluster73_1	Cluster73_1	75	1
>OL638415	>OL638415	Cluster74_1	Cluster74_1	76	1
>OL638421	>OL638421	Cluster75_1	Cluster75_1	77	1
>OL638435	>OL638435	Cluster76_1	Cluster76_1	78	1
>OL638441	>OL638441	Cluster77_1	Cluster77_1	79	1
>OL638447	>OL638447	Cluster78_1	Cluster78_1	81	1
>OL638464	>OL638464	Cluster79_1	Cluster79_1	83	1
>OK017925	>OK017925	Cluster80_1	Cluster80_1	84	1
>OK017937	>OK017937	Cluster81_1	Cluster81_1	85	1
>OK017940	>OK017940	Cluster82_1	Cluster82_1	86	1
>OK017947	>OK017947	Cluster83_1	Cluster83_1	87	1
>OK017959	>OK017959	Cluster84_1	Cluster84_1	88	1
>OK017962	>OK017962	Cluster85_1	Cluster85_1	89	1
>OK017964	>OK017964	Cluster86_1	Cluster86_1	90	1
>OK017966	>OK017966	Cluster87_1	Cluster87_1	91	1
>FJ445130	>FJ445130	Cluster88_1	Cluster88_1	92	1
>FJ445183	>FJ445183	Cluster89_1	Cluster89_1	93	1
>MZ835571	>MZ835571	Cluster90_1	Cluster90_1	94	1
>OK649418	>OK649418	Cluster91_1	Cluster91_1	95	1
>OK017919	>OK017919	Cluster92_1	Cluster92_1	96	1
>GQ415051	>GQ415051	Cluster93_1	Cluster93_1	97	1
>GQ415052	>GQ415052	Cluster94_1	Cluster94_1	98	1
>OQ533275	>OQ533275	Cluster95_1	Cluster95_1	99	1
>LC769226	>LC769226	Cluster96_1	Cluster96_1	100	1
>KF958308	>KF958308	Cluster97_1	Cluster97_1	101	1
>KF958309	>KF958309	Cluster98_1	Cluster98_1	102	1
>MN212904	>MN212904	Cluster99_1	Cluster99_1	103	1
>MN306037	>MN306037	Cluster100_1	Cluster100_1	104	1
>GU568096	>GU568096	Cluster101_1	Cluster101_1	105	1
>LC495296	>LC495296	Cluster102_1	Cluster102_1	106	1
>MZ667416	>MZ667416	Cluster103_1	Cluster103_1	107	1
>OL961520	>OL961520	Cluster104_1	Cluster104_1	108	1
>OL961522	>OL961522	Cluster105_1	Cluster105_1	109	1
>OL961538	>OL961538	Cluster106_1	Cluster106_1	110	1
>OL961541	>OL961541	Cluster107_1	Cluster107_1	111	1
>OL961545	>OL961545	Cluster108_1	Cluster108_1	112	1
>OM001367	>OM001367	Cluster109_1	Cluster109_1	113	1
>OM001381	>OM001381	Cluster110_1	Cluster110_1	114	1
>OM001393	>OM001393	Cluster111_1	Cluster111_1	115	1
>OM001409	>OM001409	Cluster112_1	Cluster112_1	117	1
>OM001425	>OM001425	Cluster113_1	Cluster113_1	119	1
>OM001435	>OM001435	Cluster114_1	Cluster114_1	120	1
>OM001447	>OM001447	Cluster115_1	Cluster115_1	121	1
>OM001456	>OM001456	Cluster116_1	Cluster116_1	122	1
>OM001469	>OM001469	Cluster117_1	Cluster117_1	123	1
>FJ445112	>FJ445112	Cluster118_1	Cluster118_1	124	1
>EF173420	>EF173420	Cluster119_1	Cluster119_1	125	1
>FJ445131	>FJ445131	Cluster120_1	Cluster120_1	126	1
>FJ445160	>FJ445160	Cluster121_1	Cluster121_1	127	1
>MZ268667	>MZ268667	Cluster122_1	Cluster122_1	128	1
>MZ153267	>MZ153267	Cluster123_1	Cluster123_1	129	1
>OL961542	>OL961542	Cluster124_1	Cluster124_1	130	1
>FJ445168	>FJ445168	Cluster125_1	Cluster125_1	131	1
>KX494871	>KX494871	Cluster126_1	Cluster126_1	132	1
>FJ445169	>FJ445169	Cluster127_1	Cluster127_1	133	1
>EF173425	>EF173425	Cluster128_1	Cluster128_1	134	1
>FJ445162	>FJ445162	Cluster129_1	Cluster129_1	135	1
>MN369044	>MN369044	Cluster130_1	Cluster130_1	136	1
>FJ445187	>FJ445187	Cluster131_1	Cluster131_1	137	1
>MZ629141	>MZ629141	Cluster132_2	Cluster132_2	140	2
>MZ629178	>MZ629141	Cluster132_2	Cluster132_2	138	2
>MZ629169	>MZ629169	Cluster133_1	Cluster133_1	139	1
>MZ629139	>MZ629139	Cluster134_1	Cluster134_1	141	1
>MZ153262	>MZ153262	Cluster135_1	Cluster135_1	142	1
>DQ473487	>DQ473487	Cluster136_1	Cluster136_1	143	1
>FJ445172	>FJ445172	Cluster137_1	Cluster137_1	144	1
>KY369883	>KY369883	Cluster138_1	Cluster138_1	145	1
>KY369899	>KY369899	Cluster139_1	Cluster139_1	146	1
>MZ629155	>MZ629155	Cluster140_1	Cluster140_1	147	1
>DQ473490	>DQ473490	Cluster141_1	Cluster141_1	148	1
>FJ445113	>FJ445113	Cluster142_1	Cluster142_1	149	1
>FJ445114	>FJ445114	Cluster143_1	Cluster143_1	150	1
>FJ445115	>FJ445115	Cluster144_1	Cluster144_1	151	1
>FJ445177	>FJ445177	Cluster145_1	Cluster145_1	152	1
>FJ445178	>FJ445178	Cluster146_1	Cluster146_1	153	1
>FJ445116	>FJ445116	Cluster147_1	Cluster147_1	154	1
>FJ445117	>FJ445117	Cluster148_1	Cluster148_1	155	1
>FJ445119	>FJ445119	Cluster149_1	Cluster149_1	156	1
>FJ445122	>FJ445122	Cluster150_1	Cluster150_1	157	1
>FJ445190	>FJ445190	Cluster151_1	Cluster151_1	158	1
>OK649396	>OK649396	Cluster152_1	Cluster152_1	159	1
>FJ445123	>FJ445123	Cluster153_1	Cluster153_1	160	1
>OM001445	>OM001445	Cluster154_1	Cluster154_1	161	1
>FJ445124	>FJ445124	Cluster155_1	Cluster155_1	162	1
>FJ445186	>FJ445186	Cluster156_1	Cluster156_1	163	1
>KY369900	>KY369900	Cluster157_1	Cluster157_1	164	1
>KY369901	>KY369901	Cluster158_1	Cluster158_1	165	1
>MZ629146	>MZ629146	Cluster159_1	Cluster159_1	166	1
>MZ460714	>MZ460714	Cluster160_1	Cluster160_1	167	1
>MZ363452	>MZ363452	Cluster161_1	Cluster161_1	168	1
>MZ363412	>MZ363412	Cluster162_1	Cluster162_1	169	1
>MW969533	>MW969533	Cluster163_1	Cluster163_1	170	1
>MZ835597	>MZ835597	Cluster164_1	Cluster164_1	171	1
>MZ835570	>MZ835570	Cluster165_1	Cluster165_1	172	1
>OM001423	>OM001423	Cluster166_1	Cluster166_1	173	1
>OK539471	>OK539471	Cluster167_1	Cluster167_1	174	1
>OK539488	>OK539488	Cluster168_1	Cluster168_1	175	1
>OK649365	>OK649365	Cluster169_1	Cluster169_1	176	1
>OK649400	>OK649400	Cluster170_1	Cluster170_1	177	1
>OK017939	>OK017939	Cluster171_1	Cluster171_1	178	1
>EF173421	>EF173421	Cluster172_1	Cluster172_1	179	1
>FJ445179	>FJ445179	Cluster173_1	Cluster173_1	180	1
>FJ445126	>FJ445126	Cluster174_1	Cluster174_1	181	1
>FJ445127	>FJ445127	Cluster175_1	Cluster175_1	182	1
>FJ445128	>FJ445128	Cluster176_1	Cluster176_1	183	1
>FJ445189	>FJ445189	Cluster177_1	Cluster177_1	184	1
>FJ445180	>FJ445180	Cluster178_1	Cluster178_1	185	1
>FJ445129	>FJ445129	Cluster179_1	Cluster179_1	186	1
>FJ445133	>FJ445133	Cluster180_1	Cluster180_1	187	1
>FJ445136	>FJ445136	Cluster181_1	Cluster181_1	188	1
>FJ445139	>FJ445139	Cluster182_1	Cluster182_1	189	1
>FJ445138	>FJ445138	Cluster183_1	Cluster183_1	190	1
>FJ445140	>FJ445140	Cluster184_1	Cluster184_1	191	1
>FJ445141	>FJ445141	Cluster185_1	Cluster185_1	192	1
>FJ445143	>FJ445143	Cluster186_1	Cluster186_1	193	1
>FJ445144	>FJ445144	Cluster187_1	Cluster187_1	194	1
>FJ445146	>FJ445146	Cluster188_1	Cluster188_1	195	1
>FJ445181	>FJ445181	Cluster189_1	Cluster189_1	196	1
>FJ445148	>FJ445148	Cluster190_1	Cluster190_1	197	1
>FJ445149	>FJ445149	Cluster191_1	Cluster191_1	198	1
>OK649381	>OK649381	Cluster192_1	Cluster192_1	199	1
>FJ445150	>FJ445150	Cluster193_1	Cluster193_1	200	1
>KY369902	>KY369902	Cluster194_1	Cluster194_1	201	1
>OL961525	>OL961525	Cluster195_1	Cluster195_1	202	1
>OM001422	>OM001422	Cluster196_1	Cluster196_1	203	1
>DQ473489	>DQ473489	Cluster197_1	Cluster197_1	204	1
>FJ445152	>FJ445152	Cluster198_1	Cluster198_1	205	1
>FJ445182	>FJ445182	Cluster199_1	Cluster199_1	206	1
>FJ445154	>FJ445154	Cluster200_1	Cluster200_1	207	1
>FJ445155	>FJ445155	Cluster201_1	Cluster201_1	208	1
>FJ445156	>FJ445156	Cluster202_1	Cluster202_1	209	1
>MZ835560	>MZ835560	Cluster203_1	Cluster203_1	210	1
>FJ445157	>FJ445157	Cluster204_1	Cluster204_1	211	1
>FJ445159	>FJ445159	Cluster205_1	Cluster205_1	212	1
>FJ445158	>FJ445158	Cluster206_1	Cluster206_1	213	1
>MN306025	>MN306025	Cluster207_1	Cluster207_1	214	1
>FJ445161	>FJ445161	Cluster208_1	Cluster208_1	215	1
>FJ445163	>FJ445163	Cluster209_1	Cluster209_1	216	1
>MN369039	>MN369039	Cluster210_1	Cluster210_1	217	1
>MN369041	>MN369041	Cluster211_1	Cluster211_1	218	1
>MN369043	>MN369043	Cluster212_1	Cluster212_1	219	1
>FJ445164	>FJ445164	Cluster213_1	Cluster213_1	220	1
>FJ445167	>FJ445167	Cluster214_1	Cluster214_1	221	1
>FJ445185	>FJ445185	Cluster215_1	Cluster215_1	222	1
>FJ445170	>FJ445170	Cluster216_1	Cluster216_1	223	1
>FJ445171	>FJ445171	Cluster217_1	Cluster217_1	224	1
>FJ445173	>FJ445173	Cluster218_1	Cluster218_1	225	1
>FJ445174	>FJ445174	Cluster219_1	Cluster219_1	226	1
>FJ445175	>FJ445175	Cluster220_1	Cluster220_1	227	1
>MZ153253	>MZ153253	Cluster221_1	Cluster221_1	228	1
>OM001432	>OM001432	Cluster222_1	Cluster222_1	229	1
>OM001433	>OM001433	Cluster223_1	Cluster223_1	230	1
>OM001436	>OM001436	Cluster224_1	Cluster224_1	231	1
>OM001441	>OM001441	Cluster225_1	Cluster225_1	232	1
>OM001457	>OM001457	Cluster226_1	Cluster226_1	233	1
>OK254845	>OK254845	Cluster227_2	Cluster227_2	343	2
>OM001458	>OK254845	Cluster227_2	Cluster227_2	234	2
>OM001461	>OM001461	Cluster228_1	Cluster228_1	235	1
>OM001462	>OM001462	Cluster229_1	Cluster229_1	236	1
>OM001468	>OM001468	Cluster230_1	Cluster230_1	237	1
>OK254837	>OK254837	Cluster231_2	Cluster231_2	342	2
>OM001470	>OK254837	Cluster231_2	Cluster231_2	238	2
>OK649390	>OK649390	Cluster232_1	Cluster232_1	239	1
>OL133746	>OL133746	Cluster233_1	Cluster233_1	240	1
>OL133759	>OL133759	Cluster234_1	Cluster234_1	241	1
>OL133765	>OL133765	Cluster235_1	Cluster235_1	242	1
>OK161412	>OK161412	Cluster236_1	Cluster236_1	243	1
>OP886969	>OP886969	Cluster237_1	Cluster237_1	244	1
>MN749147	>MN749147	Cluster238_1	Cluster238_1	245	1
>MN749150	>MN749150	Cluster239_1	Cluster239_1	246	1
>MN749153	>MN749153	Cluster240_1	Cluster240_1	247	1
>MN749157	>MN749157	Cluster241_2	SubCls1_1	249	1
>MN749156	>MN749157	Cluster241_2	SubCls2_1	248	1
>D00239	>D00239	Cluster242_1	Cluster242_1	250	1
>KY369898	>KY369898	Cluster243_1	Cluster243_1	251	1
>OL961519	>OL961519	Cluster244_1	Cluster244_1	252	1
>OL961523	>OL961523	Cluster245_4	Cluster245_4	253	4
>OL961548	>OL961523	Cluster245_4	Cluster245_4	259	4
>OM001396	>OL961523	Cluster245_4	Cluster245_4	278	4
>OL638443	>OL961523	Cluster245_4	Cluster245_4	332	4
>OL961527	>OL961527	Cluster246_1	Cluster246_1	254	1
>OL961528	>OL961528	Cluster247_1	Cluster247_1	255	1
>OL961536	>OL961536	Cluster248_1	Cluster248_1	256	1
>OL961543	>OL961543	Cluster249_1	Cluster249_1	257	1
>OL961546	>OL961546	Cluster250_1	Cluster250_1	258	1
>OM001345	>OM001345	Cluster251_1	Cluster251_1	260	1
>OM001347	>OM001347	Cluster252_1	Cluster252_1	261	1
>OM001357	>OM001357	Cluster253_1	Cluster253_1	262	1
>OM001359	>OM001359	Cluster254_1	Cluster254_1	263	1
>OM001360	>OM001360	Cluster255_1	Cluster255_1	264	1
>OM001361	>OM001361	Cluster256_1	Cluster256_1	265	1
>OM001364	>OM001364	Cluster257_1	Cluster257_1	266	1
>OM001369	>OM001369	Cluster258_1	Cluster258_1	267	1
>OM001370	>OM001370	Cluster259_1	Cluster259_1	268	1
>OM001371	>OM001371	Cluster260_1	Cluster260_1	269	1
>OM001376	>OM001376	Cluster261_1	Cluster261_1	270	1
>OM001378	>OM001378	Cluster262_1	Cluster262_1	271	1
>OM001379	>OM001379	Cluster263_1	Cluster263_1	272	1
>OM001383	>OM001383	Cluster264_1	Cluster264_1	273	1
>OM001384	>OM001384	Cluster265_1	Cluster265_1	274	1
>OM001388	>OM001388	Cluster266_1	Cluster266_1	275	1
>OM001389	>OM001389	Cluster267_1	Cluster267_1	276	1
>OM001391	>OM001391	Cluster268_1	Cluster268_1	277	1
>OM001399	>OM001399	Cluster269_1	Cluster269_1	279	1
>OM001410	>OM001410	Cluster270_1	Cluster270_1	280	1
>OM001414	>OM001414	Cluster271_1	Cluster271_1	281	1
>OM001416	>OM001416	Cluster272_1	Cluster272_1	282	1
>OM001419	>OM001419	Cluster273_1	Cluster273_1	283	1
>OM001421	>OM001421	Cluster274_1	Cluster274_1	284	1
>OM001424	>OM001424	Cluster275_1	Cluster275_1	285	1
>OM001426	>OM001426	Cluster276_1	Cluster276_1	286	1
>OM001427	>OM001427	Cluster277_1	Cluster277_1	287	1
>OM001430	>OM001430	Cluster278_1	Cluster278_1	288	1
>OK017922	>OK017922	Cluster279_1	Cluster279_1	289	1
>FJ445121	>FJ445121	Cluster280_1	Cluster280_1	290	1
>OK649399	>OK649399	Cluster281_1	Cluster281_1	291	1
>FJ445125	>FJ445125	Cluster282_1	Cluster282_1	292	1
>OK181494	>OK181494	Cluster283_1	Cluster283_1	293	1
>DQ473485	>DQ473485	Cluster284_2	Cluster284_2	301	2
>NC_038312	>DQ473485	Cluster284_2	Cluster284_2	294	2
>KY684757	>KY684757	Cluster285_1	Cluster285_1	295	1
>MZ460671	>MZ460671	Cluster286_1	Cluster286_1	296	1
>MZ322924	>MZ322924	Cluster287_1	Cluster287_1	297	1
>OK017965	>OK017965	Cluster288_2	Cluster288_2	300	2
>OM001374	>OK017965	Cluster288_2	Cluster288_2	298	2
>OM001380	>OM001380	Cluster289_1	Cluster289_1	299	1
>EF173422	>EF173422	Cluster290_1	Cluster290_1	302	1
>FJ445134	>FJ445134	Cluster291_1	Cluster291_1	303	1
>OM001351	>OM001351	Cluster292_1	Cluster292_1	304	1
>FJ445135	>FJ445135	Cluster293_1	Cluster293_1	305	1
>FJ445142	>FJ445142	Cluster294_1	Cluster294_1	306	1
>OM001348	>OM001348	Cluster295_1	Cluster295_1	307	1
>FJ445145	>FJ445145	Cluster296_1	Cluster296_1	308	1
>FJ445147	>FJ445147	Cluster297_1	Cluster297_1	309	1
>FJ445176	>FJ445176	Cluster298_1	Cluster298_1	310	1
>FJ445153	>FJ445153	Cluster299_1	Cluster299_1	311	1
>OK649374	>OK649374	Cluster300_1	Cluster300_1	312	1
>OK649382	>OK649382	Cluster301_1	Cluster301_1	313	1
>OK649414	>OK649414	Cluster302_1	Cluster302_1	314	1
>OK649415	>OK649415	Cluster303_1	Cluster303_1	315	1
>FJ445111	>FJ445111	Cluster304_1	Cluster304_1	316	1
>OL638404	>OL638404	Cluster305_2	Cluster305_2	317	2
>OL638416	>OL638404	Cluster305_2	Cluster305_2	322	2
>OL638405	>OL638405	Cluster306_1	Cluster306_1	318	1
>OL638407	>OL638407	Cluster307_1	Cluster307_1	319	1
>OL638411	>OL638411	Cluster308_1	Cluster308_1	320	1
>OL638414	>OL638414	Cluster309_1	Cluster309_1	321	1
>OL638423	>OL638423	Cluster310_1	Cluster310_1	323	1
>OL638428	>OL638428	Cluster311_1	Cluster311_1	324	1
>OL638429	>OL638429	Cluster312_1	Cluster312_1	325	1
>OL638430	>OL638430	Cluster313_1	Cluster313_1	326	1
>OL638432	>OL638432	Cluster314_2	Cluster314_2	327	2
>OL638439	>OL638432	Cluster314_2	Cluster314_2	330	2
>OL638436	>OL638436	Cluster315_1	Cluster315_1	328	1
>OL638438	>OL638438	Cluster316_1	Cluster316_1	329	1
>OL638440	>OL638440	Cluster317_1	Cluster317_1	331	1
>OL638457	>OL638457	Cluster318_2	Cluster318_2	336	2
>OL638450	>OL638457	Cluster318_2	Cluster318_2	333	2
>OL638451	>OL638451	Cluster319_1	Cluster319_1	334	1
>OL638452	>OL638452	Cluster320_1	Cluster320_1	335	1
>OL638466	>OL638466	Cluster321_1	Cluster321_1	337	1
>OK254826	>OK254826	Cluster322_1	Cluster322_1	338	1
>OK254827	>OK254827	Cluster323_1	Cluster323_1	339	1
>OK254830	>OK254830	Cluster324_1	Cluster324_1	340	1
>OK254838	>OK254838	Cluster325_1	Cluster325_1	341	1
