>NC_006273.2	>NC_006273.2	Cluster1_2	Cluster1_2	0	2
>AY446894.2	>NC_006273.2	Cluster1_2	Cluster1_2	323	2
>MT649468.1	>MT649468.1	Cluster2_1	Cluster2_1	1	1
>MT649469.1	>MT649469.1	Cluster3_1	Cluster3_1	2	1
>KY123653.1	>KY123653.1	Cluster4_2	Cluster4_2	78	2
>MT649470.1	>KY123653.1	Cluster4_2	Cluster4_2	3	2
>MT649471.1	>MT649471.1	Cluster5_1	Cluster5_1	4	1
>MT649472.1	>MT649472.1	Cluster6_1	Cluster6_1	5	1
>MT649473.1	>MT649473.1	Cluster7_1	Cluster7_1	6	1
>MW980585.1	>MW980585.1	Cluster8_1	Cluster8_1	7	1
>MW528458.1	>MW528458.1	Cluster9_1	Cluster9_1	8	1
>MW528459.1	>MW528459.1	Cluster10_1	Cluster10_1	9	1
>MW528460.1	>MW528460.1	Cluster11_1	Cluster11_1	10	1
>MW528461.1	>MW528461.1	Cluster12_1	Cluster12_1	11	1
>MW528462.1	>MW528462.1	Cluster13_1	Cluster13_1	12	1
>MW528463.1	>MW528463.1	Cluster14_1	Cluster14_1	13	1
>MW528464.1	>MW528464.1	Cluster15_1	Cluster15_1	14	1
>MW439038.1	>MW439038.1	Cluster16_1	Cluster16_1	15	1
>MW439039.1	>MW439039.1	Cluster17_1	Cluster17_1	16	1
>MT070138.1	>MT070138.1	Cluster18_1	Cluster18_1	17	1
>MT070139.1	>MT070139.1	Cluster19_1	Cluster19_1	18	1
>MT070141.1	>MT070141.1	Cluster20_1	Cluster20_1	19	1
>MT070142.1	>MT070142.1	Cluster21_1	Cluster21_1	20	1
>MW197154.1	>MW197154.1	Cluster22_1	Cluster22_1	21	1
>MW197156.1	>MW197156.1	Cluster23_1	Cluster23_1	22	1
>MW197157.1	>MW197157.1	Cluster24_1	Cluster24_1	23	1
>MT894141.2	>MT894141.2	Cluster25_1	Cluster25_1	24	1
>MT044477.1	>MT044477.1	Cluster26_1	Cluster26_1	25	1
>MT044478.1	>MT044478.1	Cluster27_1	Cluster27_1	26	1
>MT044479.1	>MT044479.1	Cluster28_1	Cluster28_1	27	1
>MT044480.1	>MT044480.1	Cluster29_1	Cluster29_1	28	1
>MT044481.1	>MT044481.1	Cluster30_1	Cluster30_1	29	1
>MT044482.1	>MT044482.1	Cluster31_1	Cluster31_1	30	1
>MT044484.1	>MT044484.1	Cluster32_1	Cluster32_1	31	1
>MT044485.1	>MT044485.1	Cluster33_1	Cluster33_1	32	1
>MN900952.1	>MN900952.1	Cluster34_1	Cluster34_1	33	1
>MN920393.1	>MN920393.1	Cluster35_1	Cluster35_1	34	1
>MK290742.1	>MK290742.1	Cluster36_1	Cluster36_1	35	1
>MK290743.1	>MK290743.1	Cluster37_1	Cluster37_1	36	1
>MK290744.1	>MK290744.1	Cluster38_1	Cluster38_1	37	1
>MK422176.1	>MK422176.1	Cluster39_1	Cluster39_1	38	1
>MN274568.2	>MN274568.2	Cluster40_1	Cluster40_1	39	1
>MF084223.1	>MF084223.1	Cluster41_1	Cluster41_1	40	1
>MF084224.1	>MF084224.1	Cluster42_1	Cluster42_1	41	1
>KY490061.1	>KY490061.1	Cluster43_1	Cluster43_1	42	1
>KY490062.1	>KY490062.1	Cluster44_1	Cluster44_1	43	1
>KY490063.1	>KY490063.1	Cluster45_1	Cluster45_1	44	1
>KY490064.1	>KY490064.1	Cluster46_1	Cluster46_1	45	1
>KY490065.1	>KY490065.1	Cluster47_1	Cluster47_1	46	1
>KY490066.1	>KY490066.1	Cluster48_1	Cluster48_1	47	1
>KY490067.1	>KY490067.1	Cluster49_1	Cluster49_1	48	1
>KY490068.1	>KY490068.1	Cluster50_1	Cluster50_1	49	1
>KY490069.1	>KY490069.1	Cluster51_1	Cluster51_1	50	1
>KY490070.1	>KY490070.1	Cluster52_2	SubCls1_1	51	1
>KP745685.1	>KY490070.1	Cluster52_2	SubCls2_1	231	1
>KY490071.1	>KY490071.1	Cluster53_1	Cluster53_1	52	1
>KY490072.1	>KY490072.1	Cluster54_1	Cluster54_1	53	1
>KY490073.1	>KY490073.1	Cluster55_1	Cluster55_1	54	1
>KY490074.1	>KY490074.1	Cluster56_1	Cluster56_1	55	1
>KY490075.1	>KY490075.1	Cluster57_1	Cluster57_1	56	1
>KY490076.1	>KY490076.1	Cluster58_1	Cluster58_1	57	1
>KY490077.1	>KY490077.1	Cluster59_1	Cluster59_1	58	1
>KY490078.1	>KY490078.1	Cluster60_1	Cluster60_1	59	1
>KY490079.1	>KY490079.1	Cluster61_1	Cluster61_1	60	1
>KY490080.1	>KY490080.1	Cluster62_1	Cluster62_1	61	1
>KY490081.1	>KY490081.1	Cluster63_1	Cluster63_1	62	1
>KY490082.1	>KY490082.1	Cluster64_1	Cluster64_1	63	1
>KY490083.1	>KY490083.1	Cluster65_1	Cluster65_1	64	1
>KY490084.1	>KY490084.1	Cluster66_1	Cluster66_1	65	1
>KY490085.1	>KY490085.1	Cluster67_1	Cluster67_1	66	1
>KY490086.1	>KY490086.1	Cluster68_1	Cluster68_1	67	1
>KY490087.1	>KY490087.1	Cluster69_1	Cluster69_1	68	1
>KY490088.1	>KY490088.1	Cluster70_1	Cluster70_1	69	1
>MF783092.1	>MF783092.1	Cluster71_2	Cluster71_2	72	2
>MF783090.1	>MF783092.1	Cluster71_2	Cluster71_2	70	2
>MF783091.1	>MF783091.1	Cluster72_1	Cluster72_1	71	1
>MF783093.1	>MF783093.1	Cluster73_1	Cluster73_1	73	1
>KY123649.1	>KY123649.1	Cluster74_1	Cluster74_1	74	1
>KY123650.1	>KY123650.1	Cluster75_1	Cluster75_1	75	1
>KY123651.1	>KY123651.1	Cluster76_1	Cluster76_1	76	1
>KY123652.1	>KY123652.1	Cluster77_1	Cluster77_1	77	1
>KY002201.1	>KY002201.1	Cluster78_1	Cluster78_1	79	1
>KX544831.1	>KX544831.1	Cluster79_1	Cluster79_1	80	1
>KX544832.1	>KX544832.1	Cluster80_1	Cluster80_1	81	1
>KX544833.1	>KX544833.1	Cluster81_1	Cluster81_1	82	1
>KX544834.1	>KX544834.1	Cluster82_1	Cluster82_1	83	1
>KX544835.1	>KX544835.1	Cluster83_1	Cluster83_1	84	1
>KX544836.1	>KX544836.1	Cluster84_1	Cluster84_1	85	1
>KX544837.1	>KX544837.1	Cluster85_1	Cluster85_1	86	1
>KX544838.1	>KX544838.1	Cluster86_1	Cluster86_1	87	1
>KX544839.1	>KX544839.1	Cluster87_1	Cluster87_1	88	1
>KX544840.1	>KX544840.1	Cluster88_1	Cluster88_1	89	1
>KM192301.1	>KP973631.1	Cluster89_35	SubCls1_34	283	34
>KM192302.1	>KP973631.1	Cluster89_35	SubCls1_34	284	34
>KU221100.1	>KP973631.1	Cluster89_35	SubCls1_34	151	34
>KP973641.1	>KP973631.1	Cluster89_35	SubCls1_34	108	34
>KP973635.1	>KP973631.1	Cluster89_35	SubCls1_34	102	34
>KU221090.1	>KP973631.1	Cluster89_35	SubCls1_34	141	34
>KP973628.1	>KP973631.1	Cluster89_35	SubCls1_34	95	34
>KU221099.1	>KP973631.1	Cluster89_35	SubCls1_34	150	34
>KP973627.1	>KP973631.1	Cluster89_35	SubCls1_34	94	34
>KP973634.1	>KP973631.1	Cluster89_35	SubCls1_34	101	34
>KM192298.1	>KP973631.1	Cluster89_35	SubCls1_34	280	34
>KP973639.1	>KP973631.1	Cluster89_35	SubCls1_34	106	34
>KP973629.1	>KP973631.1	Cluster89_35	SubCls1_34	96	34
>KP973638.1	>KP973631.1	Cluster89_35	SubCls1_34	105	34
>KP973623.1	>KP973631.1	Cluster89_35	SubCls1_34	90	34
>KM192299.1	>KP973631.1	Cluster89_35	SubCls1_34	281	34
>KP973631.1	>KP973631.1	Cluster89_35	SubCls1_34	98	34
>KP973642.1	>KP973631.1	Cluster89_35	SubCls1_34	109	34
>KP973636.1	>KP973631.1	Cluster89_35	SubCls1_34	103	34
>KU221093.1	>KP973631.1	Cluster89_35	SubCls1_34	144	34
>KU221097.1	>KP973631.1	Cluster89_35	SubCls1_34	148	34
>KP973626.1	>KP973631.1	Cluster89_35	SubCls1_34	93	34
>KP973624.1	>KP973631.1	Cluster89_35	SubCls1_34	91	34
>KP973633.1	>KP973631.1	Cluster89_35	SubCls1_34	100	34
>KP973630.1	>KP973631.1	Cluster89_35	SubCls1_34	97	34
>KP973640.1	>KP973631.1	Cluster89_35	SubCls1_34	107	34
>KU221095.1	>KP973631.1	Cluster89_35	SubCls1_34	146	34
>KP973632.1	>KP973631.1	Cluster89_35	SubCls1_34	99	34
>KU221091.1	>KP973631.1	Cluster89_35	SubCls1_34	142	34
>KP973637.1	>KP973631.1	Cluster89_35	SubCls1_34	104	34
>KU221096.1	>KP973631.1	Cluster89_35	SubCls1_34	147	34
>KP973625.1	>KP973631.1	Cluster89_35	SubCls1_34	92	34
>KU221092.1	>KP973631.1	Cluster89_35	SubCls1_34	143	34
>KU221094.1	>KP973631.1	Cluster89_35	SubCls1_34	145	34
>KU221098.1	>KP973631.1	Cluster89_35	SubCls2_1	149	1
>KX101021.1	>KX101021.1	Cluster90_1	Cluster90_1	110	1
>KX101022.1	>KX101022.1	Cluster91_1	Cluster91_1	111	1
>KX101023.1	>KX101023.1	Cluster92_1	Cluster92_1	112	1
>KX101024.1	>KX101024.1	Cluster93_1	Cluster93_1	113	1
>KR534196.1	>KR534196.1	Cluster94_1	Cluster94_1	114	1
>KR534197.1	>KR534197.1	Cluster95_1	Cluster95_1	115	1
>KR534198.1	>KR534198.1	Cluster96_1	Cluster96_1	116	1
>KR534199.1	>KR534199.1	Cluster97_1	Cluster97_1	117	1
>KR534200.1	>KR534200.1	Cluster98_1	Cluster98_1	118	1
>KR534201.1	>KR534201.1	Cluster99_1	Cluster99_1	119	1
>KR534202.1	>KR534202.1	Cluster100_1	Cluster100_1	120	1
>KR534203.1	>KR534203.1	Cluster101_1	Cluster101_1	121	1
>KR534204.1	>KR534204.1	Cluster102_1	Cluster102_1	122	1
>KR534205.1	>KR534205.1	Cluster103_1	Cluster103_1	123	1
>KR534206.1	>KR534206.1	Cluster104_1	Cluster104_1	124	1
>KR534207.1	>KR534207.1	Cluster105_1	Cluster105_1	125	1
>KR534208.1	>KR534208.1	Cluster106_1	Cluster106_1	126	1
>KR534209.1	>KR534209.1	Cluster107_1	Cluster107_1	127	1
>KR534210.1	>KR534210.1	Cluster108_1	Cluster108_1	128	1
>KR534211.1	>KR534211.1	Cluster109_1	Cluster109_1	129	1
>KR534212.1	>KR534212.1	Cluster110_1	Cluster110_1	130	1
>KR534213.1	>KR534213.1	Cluster111_1	Cluster111_1	131	1
>KU550087.1	>KU550087.1	Cluster112_1	Cluster112_1	132	1
>KU550088.1	>KU550088.1	Cluster113_1	Cluster113_1	133	1
>KU550089.1	>KU550089.1	Cluster114_1	Cluster114_1	134	1
>KU550090.1	>KU550090.1	Cluster115_1	Cluster115_1	135	1
>KT726945.2	>KT726945.2	Cluster116_1	Cluster116_1	136	1
>KT726947.2	>KT726947.2	Cluster117_1	Cluster117_1	137	1
>KT726949.2	>KT726949.2	Cluster118_1	Cluster118_1	138	1
>KT726950.2	>KT726950.2	Cluster119_1	Cluster119_1	139	1
>KT726951.2	>KT726951.2	Cluster120_1	Cluster120_1	140	1
>KJ361946.1	>KJ361946.1	Cluster121_1	Cluster121_1	152	1
>KJ361947.1	>KJ361947.1	Cluster122_1	Cluster122_1	153	1
>KJ361948.1	>KJ361948.1	Cluster123_1	Cluster123_1	154	1
>KJ361949.1	>KJ361949.1	Cluster124_1	Cluster124_1	155	1
>KJ361950.1	>KJ361950.1	Cluster125_1	Cluster125_1	156	1
>KJ361951.1	>KJ361951.1	Cluster126_1	Cluster126_1	157	1
>KJ361952.1	>KJ361952.1	Cluster127_1	Cluster127_1	158	1
>KJ361953.1	>KJ361953.1	Cluster128_1	Cluster128_1	159	1
>KJ361954.1	>KJ361954.1	Cluster129_1	Cluster129_1	160	1
>KJ361955.1	>KJ361955.1	Cluster130_1	Cluster130_1	161	1
>KJ361956.1	>KJ361956.1	Cluster131_1	Cluster131_1	162	1
>KJ361957.1	>KJ361957.1	Cluster132_1	Cluster132_1	163	1
>KJ361958.1	>KJ361958.1	Cluster133_1	Cluster133_1	164	1
>KJ361959.1	>KJ361959.1	Cluster134_1	Cluster134_1	165	1
>KJ361960.1	>KJ361960.1	Cluster135_1	Cluster135_1	166	1
>KJ361961.1	>KJ361961.1	Cluster136_1	Cluster136_1	167	1
>KJ361962.1	>KJ361962.1	Cluster137_1	Cluster137_1	168	1
>KJ361963.1	>KJ361963.1	Cluster138_1	Cluster138_1	169	1
>KJ361964.1	>KJ361964.1	Cluster139_1	Cluster139_1	170	1
>KJ361965.1	>KJ361965.1	Cluster140_1	Cluster140_1	171	1
>KJ361966.1	>KJ361966.1	Cluster141_1	Cluster141_1	172	1
>KJ361967.1	>KJ361967.1	Cluster142_1	Cluster142_1	173	1
>KJ361968.1	>KJ361968.1	Cluster143_1	Cluster143_1	174	1
>KJ361969.1	>KJ361969.1	Cluster144_1	Cluster144_1	175	1
>KJ361970.1	>KJ361970.1	Cluster145_1	Cluster145_1	176	1
>KT959235.1	>KT959235.1	Cluster146_1	Cluster146_1	177	1
>KT634296.1	>KT634296.1	Cluster147_1	Cluster147_1	178	1
>KP745633.1	>KP745633.1	Cluster148_1	Cluster148_1	179	1
>KP745634.1	>KP745634.1	Cluster149_1	Cluster149_1	180	1
>KP745635.1	>KP745635.1	Cluster150_1	Cluster150_1	181	1
>KP745636.1	>KP745636.1	Cluster151_1	Cluster151_1	182	1
>KP745637.1	>KP745637.1	Cluster152_1	Cluster152_1	183	1
>KP745638.1	>KP745638.1	Cluster153_1	Cluster153_1	184	1
>KP745639.1	>KP745639.1	Cluster154_1	Cluster154_1	185	1
>KP745640.1	>KP745640.1	Cluster155_1	Cluster155_1	186	1
>KP745641.1	>KP745641.1	Cluster156_1	Cluster156_1	187	1
>KP745642.1	>KP745642.1	Cluster157_1	Cluster157_1	188	1
>KP745643.1	>KP745643.1	Cluster158_1	Cluster158_1	189	1
>KP745644.1	>KP745644.1	Cluster159_1	Cluster159_1	190	1
>KP745645.1	>KP745645.1	Cluster160_1	Cluster160_1	191	1
>KP745646.1	>KP745646.1	Cluster161_1	Cluster161_1	192	1
>KP745647.1	>KP745647.1	Cluster162_1	Cluster162_1	193	1
>KP745648.1	>KP745648.1	Cluster163_1	Cluster163_1	194	1
>KP745649.1	>KP745649.1	Cluster164_1	Cluster164_1	195	1
>KP745650.1	>KP745650.1	Cluster165_1	Cluster165_1	196	1
>KP745651.1	>KP745651.1	Cluster166_1	Cluster166_1	197	1
>KP745652.1	>KP745652.1	Cluster167_1	Cluster167_1	198	1
>KP745653.1	>KP745653.1	Cluster168_1	Cluster168_1	199	1
>KP745654.1	>KP745654.1	Cluster169_1	Cluster169_1	200	1
>KP745655.1	>KP745655.1	Cluster170_1	Cluster170_1	201	1
>KP745656.1	>KP745656.1	Cluster171_1	Cluster171_1	202	1
>KP745657.1	>KP745657.1	Cluster172_1	Cluster172_1	203	1
>KP745658.1	>KP745658.1	Cluster173_1	Cluster173_1	204	1
>KP745659.1	>KP745659.1	Cluster174_1	Cluster174_1	205	1
>KP745660.1	>KP745660.1	Cluster175_1	Cluster175_1	206	1
>KP745661.1	>KP745661.1	Cluster176_1	Cluster176_1	207	1
>KP745662.1	>KP745662.1	Cluster177_1	Cluster177_1	208	1
>KP745663.1	>KP745663.1	Cluster178_1	Cluster178_1	209	1
>KP745664.1	>KP745664.1	Cluster179_1	Cluster179_1	210	1
>KP745665.1	>KP745665.1	Cluster180_1	Cluster180_1	211	1
>KP745666.1	>KP745666.1	Cluster181_1	Cluster181_1	212	1
>KP745667.1	>KP745667.1	Cluster182_1	Cluster182_1	213	1
>KP745668.1	>KP745668.1	Cluster183_1	Cluster183_1	214	1
>KP745669.1	>KP745669.1	Cluster184_1	Cluster184_1	215	1
>KP745670.1	>KP745670.1	Cluster185_1	Cluster185_1	216	1
>KP745671.1	>KP745671.1	Cluster186_1	Cluster186_1	217	1
>KP745672.1	>KP745672.1	Cluster187_1	Cluster187_1	218	1
>KP745673.1	>KP745673.1	Cluster188_1	Cluster188_1	219	1
>KP745674.1	>KP745674.1	Cluster189_1	Cluster189_1	220	1
>KP745675.1	>KP745675.1	Cluster190_1	Cluster190_1	221	1
>KP745676.1	>KP745676.1	Cluster191_1	Cluster191_1	222	1
>KP745677.1	>KP745677.1	Cluster192_1	Cluster192_1	223	1
>KP745678.1	>KP745678.1	Cluster193_1	Cluster193_1	224	1
>KP745679.1	>KP745679.1	Cluster194_1	Cluster194_1	225	1
>KP745680.1	>KP745680.1	Cluster195_1	Cluster195_1	226	1
>KP745681.1	>KP745681.1	Cluster196_1	Cluster196_1	227	1
>KP745682.1	>KP745682.1	Cluster197_1	Cluster197_1	228	1
>KP745683.1	>KP745683.1	Cluster198_1	Cluster198_1	229	1
>KP745684.1	>KP745684.1	Cluster199_1	Cluster199_1	230	1
>KP745686.1	>KP745686.1	Cluster200_1	Cluster200_1	232	1
>KP745687.1	>KP745687.1	Cluster201_1	Cluster201_1	233	1
>KP745688.1	>KP745688.1	Cluster202_1	Cluster202_1	234	1
>KP745689.1	>KP745689.1	Cluster203_1	Cluster203_1	235	1
>KP745690.1	>KP745690.1	Cluster204_1	Cluster204_1	236	1
>KP745691.1	>KP745691.1	Cluster205_1	Cluster205_1	237	1
>KP745692.1	>KP745692.1	Cluster206_1	Cluster206_1	238	1
>KP745693.1	>KP745693.1	Cluster207_1	Cluster207_1	239	1
>KP745694.1	>KP745694.1	Cluster208_1	Cluster208_1	240	1
>KP745695.1	>KP745695.1	Cluster209_1	Cluster209_1	241	1
>KP745696.1	>KP745696.1	Cluster210_1	Cluster210_1	242	1
>KP745697.1	>KP745697.1	Cluster211_1	Cluster211_1	243	1
>KP745698.1	>KP745698.1	Cluster212_1	Cluster212_1	244	1
>KP745699.1	>KP745699.1	Cluster213_1	Cluster213_1	245	1
>KP745700.1	>KP745700.1	Cluster214_1	Cluster214_1	246	1
>KP745701.1	>KP745701.1	Cluster215_1	Cluster215_1	247	1
>KP745702.1	>KP745702.1	Cluster216_1	Cluster216_1	248	1
>KP745703.1	>KP745703.1	Cluster217_1	Cluster217_1	249	1
>KP745704.1	>KP745704.1	Cluster218_1	Cluster218_1	250	1
>KP745705.1	>KP745705.1	Cluster219_1	Cluster219_1	251	1
>KP745706.1	>KP745706.1	Cluster220_1	Cluster220_1	252	1
>KP745707.1	>KP745707.1	Cluster221_1	Cluster221_1	253	1
>KP745708.1	>KP745708.1	Cluster222_1	Cluster222_1	254	1
>KP745709.1	>KP745709.1	Cluster223_1	Cluster223_1	255	1
>KP745710.1	>KP745710.1	Cluster224_1	Cluster224_1	256	1
>KP745711.1	>KP745711.1	Cluster225_1	Cluster225_1	257	1
>KP745712.1	>KP745712.1	Cluster226_1	Cluster226_1	258	1
>KP745713.1	>KP745713.1	Cluster227_1	Cluster227_1	259	1
>KP745714.1	>KP745714.1	Cluster228_1	Cluster228_1	260	1
>KP745715.1	>KP745715.1	Cluster229_1	Cluster229_1	261	1
>KP745716.1	>KP745716.1	Cluster230_1	Cluster230_1	262	1
>KP745717.1	>KP745717.1	Cluster231_1	Cluster231_1	263	1
>KP745718.1	>KP745718.1	Cluster232_1	Cluster232_1	264	1
>KP745719.1	>KP745719.1	Cluster233_1	Cluster233_1	265	1
>KP745720.1	>KP745720.1	Cluster234_1	Cluster234_1	266	1
>KP745721.1	>KP745721.1	Cluster235_1	Cluster235_1	267	1
>KP745722.1	>KP745722.1	Cluster236_1	Cluster236_1	268	1
>KP745723.1	>KP745723.1	Cluster237_1	Cluster237_1	269	1
>KP745724.1	>KP745724.1	Cluster238_1	Cluster238_1	270	1
>KP745725.1	>KP745725.1	Cluster239_1	Cluster239_1	271	1
>KP745726.1	>KP745726.1	Cluster240_1	Cluster240_1	272	1
>KP745727.1	>KP745727.1	Cluster241_1	Cluster241_1	273	1
>KP745728.1	>KP745728.1	Cluster242_1	Cluster242_1	274	1
>KJ872539.1	>KJ872539.1	Cluster243_1	Cluster243_1	275	1
>KJ872540.1	>KJ872540.1	Cluster244_1	Cluster244_1	276	1
>KJ872541.1	>KJ872541.1	Cluster245_1	Cluster245_1	277	1
>KJ872542.1	>KJ872542.1	Cluster246_1	Cluster246_1	278	1
>KJ361971.1	>KJ361971.1	Cluster247_1	Cluster247_1	279	1
>KM192300.1	>KM192300.1	Cluster248_1	Cluster248_1	282	1
>KJ426589.1	>KJ426589.1	Cluster249_1	Cluster249_1	285	1
>KC519319.1	>KC519319.1	Cluster250_1	Cluster250_1	286	1
>KC519320.1	>KC519320.1	Cluster251_1	Cluster251_1	287	1
>KC519321.1	>KC519321.1	Cluster252_1	Cluster252_1	288	1
>KC519322.1	>KC519322.1	Cluster253_1	Cluster253_1	289	1
>KC519323.1	>KC519323.1	Cluster254_1	Cluster254_1	290	1
>JX512197.1	>JX512197.1	Cluster255_1	Cluster255_1	291	1
>JX512198.1	>JX512198.1	Cluster256_1	Cluster256_1	292	1
>JX512199.1	>JX512199.1	Cluster257_1	Cluster257_1	293	1
>JX512200.1	>JX512200.1	Cluster258_1	Cluster258_1	294	1
>JX512201.1	>JX512201.1	Cluster259_1	Cluster259_1	295	1
>JX512202.1	>JX512202.1	Cluster260_1	Cluster260_1	296	1
>JX512203.1	>JX512203.1	Cluster261_1	Cluster261_1	297	1
>JX512204.1	>JX512204.1	Cluster262_1	Cluster262_1	298	1
>JX512205.1	>JX512205.1	Cluster263_1	Cluster263_1	299	1
>JX512206.1	>JX512206.1	Cluster264_1	Cluster264_1	300	1
>JX512207.1	>JX512207.1	Cluster265_1	Cluster265_1	301	1
>JX512208.1	>JX512208.1	Cluster266_1	Cluster266_1	302	1
>KF493876.1	>KF493876.1	Cluster267_1	Cluster267_1	303	1
>KF493877.1	>KF493877.1	Cluster268_1	Cluster268_1	304	1
>KF297339.1	>KF297339.1	Cluster269_1	Cluster269_1	305	1
>KF021605.1	>KF021605.1	Cluster270_1	Cluster270_1	306	1
>HQ380895.1	>HQ380895.1	Cluster271_1	Cluster271_1	307	1
>GU937742.2	>GU937742.2	Cluster272_1	Cluster272_1	308	1
>GU179288.1	>GU179288.1	Cluster273_1	Cluster273_1	309	1
>GU179289.1	>GU179289.1	Cluster274_1	Cluster274_1	310	1
>GU179290.1	>GU179290.1	Cluster275_1	Cluster275_1	311	1
>GU179291.1	>GU179291.1	Cluster276_1	Cluster276_1	312	1
>GU179001.1	>GU179001.1	Cluster277_1	Cluster277_1	313	1
>GQ466044.1	>GQ466044.1	Cluster278_1	Cluster278_1	314	1
>GQ221973.1	>GQ221973.1	Cluster279_1	Cluster279_1	315	1
>GQ221974.1	>GQ221974.1	Cluster280_1	Cluster280_1	316	1
>GQ221975.1	>GQ221975.1	Cluster281_1	Cluster281_1	317	1
>GQ396662.1	>GQ396662.1	Cluster282_1	Cluster282_1	318	1
>GQ396663.1	>GQ396663.1	Cluster283_1	Cluster283_1	319	1
>GQ121041.1	>GQ121041.1	Cluster284_1	Cluster284_1	320	1
>FJ616285.1	>FJ616285.1	Cluster285_1	Cluster285_1	321	1
>FJ527563.1	>FJ527563.1	Cluster286_1	Cluster286_1	322	1
>AY315197.2	>AY315197.2	Cluster287_1	Cluster287_1	324	1
>BK000394.5	>BK000394.5	Cluster288_1	Cluster288_1	325	1
>X17403.1	>X17403.1	Cluster289_1	Cluster289_1	326	1
>EF999921.1	>EF999921.1	Cluster290_1	Cluster290_1	327	1
