		50-A	50-T	50-G	50-C	86-A	86-T	86-G	86-C	101-A	101-T	101-G	101-C	182-A	182-T	182-G	182-C	188-A	188-T	188-G	188-C	200-A	200-T	200-G	200-C	287-A	287-T	287-G	287-C	293-A	293-T	293-G	293-C	294-A	294-T	294-G	294-C	362-A	362-T	362-G	362-C	413-A	413-T	413-G	413-C	422-A	422-T	422-G	422-C	482-A	482-T	482-G	482-C	488-A	488-T	488-G	488-C	497-A	497-T	497-G	497-C	518-A	518-T	518-G	518-C	530-A	530-T	530-G	530-C
>ea1@22-003707-003@MP	0	0	1	0	1	0	0	0	0	0	1	0	1	0	0	0	0	0	1	0	0	0	0	1	1	0	0	0	0	0	1	0	0	1	0	0	0	0	0	1	0	0	1	0	1	0	0	0	0	1	0	0	1	0	0	0	0	1	0	0	0	0	0	1	0	0	0	1
>ea3@22-013001-001@MP	0	0	1	0	1	0	0	0	1	0	0	0	1	0	0	0	0	0	1	0	0	0	0	1	1	0	0	0	1	0	0	0	0	0	0	1	0	0	0	1	0	0	1	0	1	0	0	0	0	1	0	0	0	0	1	0	0	0	0	1	0	0	0	1	0	0	0	1
>ea4@23-003641-006@MP	1	0	0	0	1	0	0	0	0	0	1	0	0	0	1	0	0	0	1	0	0	1	0	0	0	0	0	1	1	0	0	0	0	0	0	1	0	0	0	1	0	0	1	0	0	0	1	0	0	0	0	1	1	0	0	0	1	0	0	0	1	0	0	0	0	1	0	0
>ea5@23-001397-012@MP	0	0	1	0	0	0	1	0	0	0	1	0	1	0	0	0	0	0	1	0	0	0	0	1	1	0	0	0	1	0	0	0	0	0	0	1	0	0	0	1	0	1	0	0	1	0	0	0	0	1	0	0	0	0	1	0	0	0	0	1	0	0	0	1	0	0	0	1
>ea6@23-004612-001@MP	1	0	0	0	1	0	0	0	0	0	1	0	1	0	0	0	1	0	0	0	0	0	0	1	1	0	0	0	1	0	0	0	0	0	0	1	0	1	0	0	0	0	1	0	1	0	0	0	0	1	0	0	1	0	0	0	1	0	0	0	0	0	0	1	0	0	0	1
