>ea1@22-003707-003@MP	>ea1@22-003707-003@MP	Cluster1_1	Cluster1_1	0	1
>ea3@22-013001-001@MP	>ea3@22-013001-001@MP	Cluster2_1	Cluster2_1	1	1
>ea4@23-003641-006@MP	>ea4@23-003641-006@MP	Cluster3_1	Cluster3_1	2	1
>ea5@23-001397-012@MP	>ea5@23-001397-012@MP	Cluster4_1	Cluster4_1	3	1
>ea6@23-004612-001@MP	>ea6@23-004612-001@MP	Cluster5_1	Cluster5_1	4	1
