0	>am10@22-037654-001@PB2
1	>am1.1@22-009287-001@PB2
2	>am11@22-038433-002@PB2
3	>am1.2@22-007805-001@PB2
4	>am12@23-002693-004@PB2
5	>am1.3@23-003733-001@PB2
6	>am13@23-005844-010@PB2
7	>am16@23-031867-004@PB2
8	>am17@23-032269-033@PB2
9	>am18@23-036928-001@PB2
10	>am19@23-036193-005@PB2
11	>am20@23-040000-001@PB2
12	>am2.1@22-009329-001@PB2
13	>am21@23-041138-001@PB2
14	>am2.2@22-010445-001@PB2
15	>am22@24-001196-005@PB2
16	>am2.3.1@22-008760-007@PB2
17	>am2.3.2@22-010663-005@PB2
18	>am3.1@22-035225-001@PB2
19	>am3.2@23-003434-002@PB2
20	>am3.3@22-031266-001@PB2
21	>am4@23-000081-004@PB2
22	>am5@23-001855-001@PB2
23	>am6@22-033918-001@PB2
24	>am7@22-035442-001@PB2
25	>am8@23-004320-002@PB2
26	>am9@23-013875-001@PB2
27	>ea1@22-003707-003@PB2
28	>ea3@22-013001-001@PB2
29	>ea4@23-003641-006@PB2
30	>ea5@23-001397-012@PB2
31	>ea6@23-004612-001@PB2
