0	>OK017951
1	>MW969530
2	>OK017924
3	>OM001418
4	>KY369881
5	>MZ268694
6	>MZ835576
7	>OK161364
8	>ON881127
9	>ON881126
10	>ON881125
11	>ON881128
12	>ON881129
13	>ON881130
14	>ON881131
15	>ON881132
16	>ON881133
17	>ON881134
18	>ON881135
19	>ON881136
20	>MZ629115
21	>MZ460691
22	>MZ427505
23	>MZ363453
24	>MZ363444
25	>MZ363436
26	>MZ322929
27	>MZ268717
28	>MZ268711
29	>MZ268677
30	>MZ268662
31	>MZ221154
32	>MZ221146
33	>MZ153271
34	>MZ153270
35	>MZ153269
36	>MZ153256
37	>MZ153250
38	>MZ153243
39	>MW969525
40	>EF186077
41	>MW969524
42	>MW969523
43	>MZ268693
44	>MZ268691
45	>MZ268688
46	>MZ268652
47	>OL961537
48	>OM001455
49	>OK017931
50	>OK017949
51	>OK161367
52	>OK161371
53	>OK161378
54	>OK181493
55	>LC699425
56	>MN228693
57	>MZ460694
58	>LC720414
59	>OK254850
60	>OK181501
61	>OK181487
62	>MZ363454
63	>MZ363442
64	>MZ268648
65	>MZ153252
66	>OL365068
67	>MZ835591
68	>MZ629172
69	>MZ629165
70	>MZ268705
71	>MZ268704
72	>MZ460700
73	>MZ460696
74	>MZ460695
75	>MZ460692
76	>MZ460682
77	>MZ460673
78	>MZ363464
79	>MZ363447
80	>MZ363439
81	>MZ363427
82	>MZ363424
83	>MZ363417
84	>MZ268739
85	>MZ268736
86	>MZ268734
87	>MZ268731
88	>MZ268730
89	>MZ268728
90	>MZ268727
91	>MZ268721
92	>MZ268712
93	>MZ268700
94	>MZ268699
95	>MZ268698
96	>MZ221153
97	>MZ153281
98	>MZ153277
99	>MZ153261
100	>MZ153258
101	>MZ153245
102	>MW969526
103	>MZ670590
104	>OL365070
105	>OK017945
106	>OK017955
107	>OK181457
108	>OQ116583
109	>MZ629181
110	>MK520815
111	>MZ363459
112	>MW969535
113	>OK254858
114	>MZ460705
115	>MZ460687
116	>MZ460686
117	>MZ363448
118	>MZ363440
119	>MZ363434
120	>MZ363432
121	>MZ363413
122	>MZ268647
123	>MZ153246
124	>MZ835616
125	>OK649363
126	>OL133730
127	>OL638426
128	>OK181472
129	>OK181499
130	>MH752985
131	>KY369878
132	>MZ629145
133	>MZ363437
134	>OK649386
135	>OK161404
136	>OL133760
137	>OK017918
138	>OK017929
139	>MZ322915
140	>MZ268720
141	>MZ268706
142	>MW969527
143	>MZ670576
144	>OK254829
145	>OK539509
146	>MZ363422
147	>OK649391
148	>OL133756
149	>KY369877
150	>KY983589
151	>MZ629171
152	>MZ629164
153	>MZ629106
154	>MZ540954
155	>MZ540951
156	>MZ460709
157	>MZ460701
158	>MZ460698
159	>MZ460690
160	>MZ460685
161	>MZ460683
162	>MZ460677
163	>MZ363469
164	>MZ363462
165	>MZ363458
166	>MZ363451
167	>MZ363446
168	>MZ363441
169	>MZ363430
170	>MZ363429
171	>MZ322930
172	>MZ322928
173	>MZ322922
174	>MZ322918
175	>MZ322914
176	>MZ322912
177	>MZ268738
178	>MZ268716
179	>MZ268710
180	>MZ268707
181	>MZ268702
182	>MZ268679
183	>MZ268676
184	>MZ268671
185	>MZ268659
186	>MZ268653
187	>MZ221150
188	>MZ221149
189	>MZ221148
190	>MZ153285
191	>MZ153284
192	>MZ153283
193	>MZ153278
194	>MZ153266
195	>MZ153255
196	>MZ153249
197	>MZ153244
198	>MW969521
199	>MW969520
200	>MW969518
201	>MZ268696
202	>MZ268692
203	>MZ268689
204	>MZ268687
205	>MZ268686
206	>MZ268685
207	>EU840952
208	>MZ268683
209	>MZ153268
210	>MZ835598
211	>OL961526
212	>OM001344
213	>OM001465
214	>OK254853
215	>OK254863
216	>OK649407
217	>OK649422
218	>OK017910
219	>OK017923
220	>OK017927
221	>OK017944
222	>OK161409
223	>OQ348028
224	>MN369038
225	>ON881137
226	>MZ540947
227	>MZ460707
228	>MZ460704
229	>MZ460675
230	>MZ427501
231	>MZ363420
232	>MZ363414
233	>MZ322921
234	>MZ153254
235	>MZ153251
236	>OK649416
237	>OL365066
238	>OL638409
239	>OL638433
240	>OK017942
241	>OK161398
242	>MG881840
243	>MW969536
244	>OK017953
245	>MZ629109
246	>MZ221147
247	>MZ835600
248	>OK254856
249	>OQ331222
250	>MZ363456
251	>MZ363450
252	>MZ363445
253	>MZ268709
254	>MZ268708
255	>MZ268678
256	>MZ268650
257	>MZ153259
258	>OK017938
259	>MZ629168
260	>MZ670592
261	>OK539477
262	>MZ835615
263	>MZ835566
264	>OK017925
265	>MZ460670
266	>OK649387
267	>OK017921
268	>OL638425
269	>MZ835579
270	>OL638424
271	>ON881140
272	>ON881141
273	>ON881142
274	>MF775366
275	>MF775367
276	>MZ363457
277	>ON881138
278	>ON881139
279	>MF806525
280	>MZ540948
281	>OQ331223
282	>MZ153253
283	>OL638453
284	>OK017909
285	>OK254823
286	>OK539499
287	>MZ427502
288	>MZ363463
289	>MZ363416
290	>MZ268722
291	>MZ268723
292	>MZ268718
293	>MZ268714
294	>MZ268697
295	>MZ268684
296	>MZ268674
297	>MZ153276
298	>MW969522
299	>MW969519
300	>MW969517
301	>MW969516
302	>MW969515
303	>MZ322913
304	>OL961518
305	>OK017913
306	>OK017934
307	>OK017948
308	>ON729335
309	>MZ629159
310	>MZ629107
311	>MZ460712
312	>MZ460711
313	>MZ460703
314	>MZ460697
315	>MK279354
316	>MZ363467
317	>MZ363435
318	>MZ363428
319	>MZ322916
320	>MZ268729
321	>MZ268726
322	>MZ268724
323	>MZ153279
324	>MW969529
325	>MW969528
326	>MW802583
327	>OK017915
328	>MG950178
329	>MG950179
330	>MZ629123
331	>LC720415
332	>JF317015
333	>MZ629160
334	>MZ670596
335	>OM001437
336	>OM001443
337	>OK017957
338	>OQ116581
339	>MZ670597
340	>OK017926
341	>OM001461
342	>OK017922
343	>OL133734
344	>KU695562
345	>KF734978
346	>KP890662
347	>KP890663
348	>KP890664
349	>JN205461
350	>KF958310
351	>KF958311
352	>MN306023
353	>MN306026
354	>MN306035
355	>MN369030
356	>MN369031
357	>MN369033
358	>KJ675505
359	>KJ675506
360	>KJ675507
361	>KY369879
362	>KY369880
363	>KY369882
364	>GQ223227
365	>GQ223228
366	>MH330336
367	>GU219984
368	>MZ447875
369	>MZ438010
370	>MZ268701
371	>MW679009
372	>MW679007
373	>MZ268682
374	>MZ268666
375	>MZ667421
376	>OL961524
377	>OL961531
378	>OL961535
379	>OL961544
380	>OM001346
381	>OM001354
382	>OM001407
383	>OM001408
384	>OM001412
385	>OM001438
386	>OM001451
387	>JF317013
388	>JF317014
389	>JF317016
390	>JF317017
391	>OK649370
392	>OL638405
393	>OL638411
394	>MZ835607
395	>GQ323774
